%!PS-Adobe-2.0 EPSF-2.0
%%BoundingBox:  0 0 567 545
%%Title: lh_3j_bdt_bkg.eps: c2
%%Creator: ROOT Version 5.34/32
%%CreationDate: Sat Nov 25 20:21:58 2017
%%EndComments
%%BeginProlog
80 dict begin
/s {stroke} def /l {lineto} def /m {moveto} def /t {translate} def
/r {rotate} def /rl {roll}  def /R {repeat} def
/d {rlineto} def /rm {rmoveto} def /gr {grestore} def /f {eofill} def
/c {setrgbcolor} def /black {0 setgray} def /sd {setdash} def
/cl {closepath} def /sf {scalefont setfont} def /lw {setlinewidth} def
/box {m dup 0 exch d exch 0 d 0 exch neg d cl} def
/NC{systemdict begin initclip end}def/C{NC box clip newpath}def
/bl {box s} def /bf {gsave box gsave f grestore 1 lw [] 0 sd s grestore} def /Y { 0 exch d} def /X { 0 d} def 
/K {{pop pop 0 moveto} exch kshow} bind def
/ita {/ang 15 def gsave [1 0 ang dup sin exch cos div 1 0 0] concat} def 
/mp {newpath /y exch def /x exch def} def
/side {[w .77 mul w .23 mul] .385 w mul sd w 0 l currentpoint t -144 r} def
/mr {mp x y w2 0 360 arc} def /m24 {mr s} def /m20 {mr f} def
/mb {mp x y w2 add m w2 neg 0 d 0 w neg d w 0 d 0 w d cl} def
/mt {mp x y w2 add m w2 neg w neg d w 0 d cl} def
/m21 {mb f} def /m25 {mb s} def /m22 {mt f} def /m26{mt s} def
/m23 {mp x y w2 sub m w2 w d w neg 0 d cl f} def
/m27 {mp x y w2 add m w3 neg w2 neg d w3 w2 neg d w3 w2 d cl s} def
/m28 {mp x w2 sub y w2 sub w3 add m w3 0 d  0 w3 neg d w3 0 d 0 w3 d w3 0 d  0 w3 d w3 neg 0 d 0 w3 d w3 neg 0 d 0 w3 neg d w3 neg 0 d cl s } def
/m29 {mp gsave x w2 sub y w2 add w3 sub m currentpoint t 4 {side} repeat cl fill gr} def
/m30 {mp gsave x w2 sub y w2 add w3 sub m currentpoint t 4 {side} repeat cl s gr} def
/m31 {mp x y w2 sub m 0 w d x w2 sub y m w 0 d x w2 sub y w2 add m w w neg d x w2 sub y w2 sub m w w d s} def
/m32 {mp x y w2 sub m w2 w d w neg 0 d cl s} def
/m33 {mp x y w2 add m w3 neg w2 neg d w3 w2 neg d w3 w2 d cl f} def
/m34 {mp x w2 sub y w2 sub w3 add m w3 0 d  0 w3 neg d w3 0 d 0 w3 d w3 0 d  0 w3 d w3 neg 0 d 0 w3 d w3 neg 0 d 0 w3 neg d w3 neg 0 d cl f } def
/m2 {mp x y w2 sub m 0 w d x w2 sub y m w 0 d s} def
/m5 {mp x w2 sub y w2 sub m w w d x w2 sub y w2 add m w w neg d s} def
/reEncode {exch findfont dup length dict begin {1 index /FID eq  {pop pop} {def} ifelse } forall /Encoding exch def currentdict end dup /FontName get exch definefont pop } def [/Times-Bold /Times-Italic /Times-BoldItalic /Helvetica /Helvetica-Oblique
 /Helvetica-Bold /Helvetica-BoldOblique /Courier /Courier-Oblique /Courier-Bold /Courier-BoldOblique /Times-Roman /AvantGarde-Book /AvantGarde-BookOblique /AvantGarde-Demi /AvantGarde-DemiOblique /Bookman-Demi /Bookman-DemiItalic /Bookman-Light
 /Bookman-LightItalic /Helvetica-Narrow /Helvetica-Narrow-Bold /Helvetica-Narrow-BoldOblique /Helvetica-Narrow-Oblique /NewCenturySchlbk-Roman /NewCenturySchlbk-Bold /NewCenturySchlbk-BoldItalic /NewCenturySchlbk-Italic /Palatino-Bold
 /Palatino-BoldItalic /Palatino-Italic /Palatino-Roman ] {ISOLatin1Encoding reEncode } forall
%%EndProlog
%%BeginSetup
%%EndSetup
newpath  gsave  .25 .25 scale  gsave  0 0 t black[  ] 0 sd 3 lw 1 1 1 c 2268 2180 0 0 bf black 1 1 1 c 2268 1526 0 654 bf black 1 1 1 c 1814 1420 295 654 bf black 1814 1420 295 654 bl 1 0 0 c[  12 12 ] 0 sd 6 lw 1 1 1 c 1 0 0 c 340 1801 m 8 Y s 340
 1832 m 8 Y s 295 1820 m 34 X s 352 1820 m 34 X s 333 1801 m 15 X s 333 1840 m 15 X s 295 1813 m 15 Y s 386 1813 m 15 Y s[  ] 0 sd 3 lw /w 24 def /w2 {w 2 div} def /w3 {w 3 div} def 340 1820 m20[  12 12 ] 0 sd 6 lw 431 1184 m 4 Y s 431 1211 m 3 Y s
 386 1199 m 33 X s 442 1199 m 34 X s 423 1184 m 15 X s 423 1214 m 15 X s 386 1192 m 15 Y s 476 1192 m 15 Y s[  ] 0 sd 3 lw 431 1199 m20[  12 12 ] 0 sd 6 lw 476 953 m 34 X s 533 953 m 34 X s 476 945 m 16 Y s 567 945 m 16 Y s[  ] 0 sd 3 lw 522 953 m20[
  12 12 ] 0 sd 6 lw 567 863 m 34 X s 624 863 m 34 X s 567 855 m 15 Y s 658 855 m 15 Y s[  ] 0 sd 3 lw 612 863 m20[  12 12 ] 0 sd 6 lw 658 824 m 34 X s 714 824 m 34 X s 658 816 m 16 Y s 748 816 m 16 Y s[  ] 0 sd 3 lw 703 824 m20[  12 12 ] 0 sd 6 lw
 748 796 m 34 X s 805 796 m 34 X s 748 789 m 15 Y s 839 789 m 15 Y s[  ] 0 sd 3 lw 794 796 m20[  12 12 ] 0 sd 6 lw 839 779 m 34 X s 896 779 m 34 X s 839 771 m 15 Y s 930 771 m 15 Y s[  ] 0 sd 3 lw 884 779 m20[  12 12 ] 0 sd 6 lw 930 762 m 34 X s 986
 762 m 34 X s 930 755 m 15 Y s 1020 755 m 15 Y s[  ] 0 sd 3 lw 975 762 m20[  12 12 ] 0 sd 6 lw 1020 766 m 34 X s 1077 766 m 34 X s 1020 758 m 15 Y s 1111 758 m 15 Y s[  ] 0 sd 3 lw 1066 766 m20[  12 12 ] 0 sd 6 lw 1111 746 m 34 X s 1168 746 m 34 X s
 1111 739 m 15 Y s 1202 739 m 15 Y s[  ] 0 sd 3 lw 1157 746 m20[  12 12 ] 0 sd 6 lw 1202 746 m 34 X s 1259 746 m 34 X s 1202 738 m 16 Y s 1293 738 m 16 Y s[  ] 0 sd 3 lw 1247 746 m20[  12 12 ] 0 sd 6 lw 1293 755 m 34 X s 1349 755 m 34 X s 1293 747 m
 16 Y s 1383 747 m 16 Y s[  ] 0 sd 3 lw 1338 755 m20[  12 12 ] 0 sd 6 lw 1383 750 m 34 X s 1440 750 m 34 X s 1383 743 m 15 Y s 1474 743 m 15 Y s[  ] 0 sd 3 lw 1429 750 m20[  12 12 ] 0 sd 6 lw 1474 746 m 34 X s 1531 746 m 34 X s 1474 739 m 15 Y s 1565
 739 m 15 Y s[  ] 0 sd 3 lw 1519 746 m20[  12 12 ] 0 sd 6 lw 1565 762 m 34 X s 1621 762 m 34 X s 1565 754 m 15 Y s 1655 754 m 15 Y s[  ] 0 sd 3 lw 1610 762 m20[  12 12 ] 0 sd 6 lw 1655 731 m 34 X s 1712 731 m 34 X s 1655 723 m 16 Y s 1746 723 m 16 Y
 s[  ] 0 sd 3 lw 1701 731 m20[  12 12 ] 0 sd 6 lw 1746 725 m 34 X s 1803 725 m 34 X s 1746 718 m 15 Y s 1837 718 m 15 Y s[  ] 0 sd 3 lw 1791 725 m20[  12 12 ] 0 sd 6 lw 1837 715 m 34 X s 1894 715 m 34 X s 1837 707 m 15 Y s 1928 707 m 15 Y s[  ] 0 sd
 3 lw 1882 715 m20[  12 12 ] 0 sd 6 lw 1928 673 m 34 X s 1984 673 m 34 X s 1928 666 m 15 Y s 2018 666 m 15 Y s[  ] 0 sd 3 lw 1973 673 m20[  12 12 ] 0 sd 6 lw 2018 655 m 34 X s 2075 655 m 34 X s 2018 654 m 8 Y s 2109 654 m 8 Y s[  ] 0 sd 3 lw 2064 655
 m20[  12 12 ] 0 sd 6 lw black[  ] 0 sd 3 lw 295 654 m 1814 X s
 gsave  2268 1526 0 654 C 1755.77 492.982 t 0 r /Helvetica findfont 72.1408 sf 0 0 m (BDT Score) show NC gr  295 691 m -37 Y s 340 672 m -18 Y s 386 672 m -18 Y s 431 672 m -18 Y s 476 691 m -37 Y s 522 672 m -18 Y s 567 672 m -18 Y s 612 672 m -18 Y
 s 658 691 m -37 Y s 703 672 m -18 Y s 748 672 m -18 Y s 794 672 m -18 Y s 839 691 m -37 Y s 884 672 m -18 Y s 930 672 m -18 Y s 975 672 m -18 Y s 1020 691 m -37 Y s 1066 672 m -18 Y s 1111 672 m -18 Y s 1157 672 m -18 Y s 1202 691 m -37 Y s 1247 672
 m -18 Y s 1293 672 m -18 Y s 1338 672 m -18 Y s 1383 691 m -37 Y s 1429 672 m -18 Y s 1474 672 m -18 Y s 1519 672 m -18 Y s 1565 691 m -37 Y s 1610 672 m -18 Y s 1655 672 m -18 Y s 1701 672 m -18 Y s 1746 691 m -37 Y s 1791 672 m -18 Y s 1837 672 m
 -18 Y s 1882 672 m -18 Y s 1928 691 m -37 Y s 1973 672 m -18 Y s 2018 672 m -18 Y s 2064 672 m -18 Y s 2109 691 m -37 Y s 295 691 m -37 Y s 1 1 1 c black 1 1 1 c
 gsave  2268 1526 0 654 C 295.789 587.786 t 0 r /Helvetica findfont 72.1408 sf 0 0 m (1) show NC gr  black 1 1 1 c
 gsave  2268 1526 0 654 C 257.867 587.786 t 0 r /Symbol findfont 72.1408 sf 0 0 m (-) show NC gr  black 1 1 1 c
 gsave  2268 1526 0 654 C 443.684 587.786 t 0 r /Helvetica findfont 72.1408 sf 0 0 m (0.8) show NC gr  black 1 1 1 c
 gsave  2268 1526 0 654 C 401.97 587.786 t 0 r /Symbol findfont 72.1408 sf 0 0 m (-) show NC gr  black 1 1 1 c
 gsave  2268 1526 0 654 C 625.708 587.786 t 0 r /Helvetica findfont 72.1408 sf 0 0 m (0.6) show NC gr  black 1 1 1 c
 gsave  2268 1526 0 654 C 583.994 587.786 t 0 r /Symbol findfont 72.1408 sf 0 0 m (-) show NC gr  black 1 1 1 c
 gsave  2268 1526 0 654 C 807.732 587.786 t 0 r /Helvetica findfont 72.1408 sf 0 0 m (0.4) show NC gr  black 1 1 1 c
 gsave  2268 1526 0 654 C 766.018 587.786 t 0 r /Symbol findfont 72.1408 sf 0 0 m (-) show NC gr  black 1 1 1 c
 gsave  2268 1526 0 654 C 989.756 587.786 t 0 r /Helvetica findfont 72.1408 sf 0 0 m (0.2) show NC gr  black 1 1 1 c
 gsave  2268 1526 0 654 C 948.042 587.786 t 0 r /Symbol findfont 72.1408 sf 0 0 m (-) show NC gr  black 1 1 1 c
 gsave  2268 1526 0 654 C 1179.36 587.786 t 0 r /Helvetica findfont 72.1408 sf 0 0 m (0) show NC gr  black 1 1 1 c
 gsave  2268 1526 0 654 C 1331.05 587.786 t 0 r /Helvetica findfont 72.1408 sf 0 0 m (0.2) show NC gr  black 1 1 1 c
 gsave  2268 1526 0 654 C 1513.08 587.786 t 0 r /Helvetica findfont 72.1408 sf 0 0 m (0.4) show NC gr  black 1 1 1 c
 gsave  2268 1526 0 654 C 1695.1 587.786 t 0 r /Helvetica findfont 72.1408 sf 0 0 m (0.6) show NC gr  black 1 1 1 c
 gsave  2268 1526 0 654 C 1877.12 587.786 t 0 r /Helvetica findfont 72.1408 sf 0 0 m (0.8) show NC gr  black 1 1 1 c
 gsave  2268 1526 0 654 C 2093.28 587.786 t 0 r /Helvetica findfont 72.1408 sf 0 0 m (1) show NC gr  black 295 2074 m 1814 X s 295 2037 m 37 Y s 340 2055 m 19 Y s 386 2055 m 19 Y s 431 2055 m 19 Y s 476 2037 m 37 Y s 522 2055 m 19 Y s 567 2055 m 19 Y
 s 612 2055 m 19 Y s 658 2037 m 37 Y s 703 2055 m 19 Y s 748 2055 m 19 Y s 794 2055 m 19 Y s 839 2037 m 37 Y s 884 2055 m 19 Y s 930 2055 m 19 Y s 975 2055 m 19 Y s 1020 2037 m 37 Y s 1066 2055 m 19 Y s 1111 2055 m 19 Y s 1157 2055 m 19 Y s 1202 2037
 m 37 Y s 1247 2055 m 19 Y s 1293 2055 m 19 Y s 1338 2055 m 19 Y s 1383 2037 m 37 Y s 1429 2055 m 19 Y s 1474 2055 m 19 Y s 1519 2055 m 19 Y s 1565 2037 m 37 Y s 1610 2055 m 19 Y s 1655 2055 m 19 Y s 1701 2055 m 19 Y s 1746 2037 m 37 Y s 1791 2055 m
 19 Y s 1837 2055 m 19 Y s 1882 2055 m 19 Y s 1928 2037 m 37 Y s 1973 2055 m 19 Y s 2018 2055 m 19 Y s 2064 2055 m 19 Y s 2109 2037 m 37 Y s 295 2037 m 37 Y s 295 654 m 1420 Y s 358 654 m -63 X s 326 705 m -31 X s 326 756 m -31 X s 326 806 m -31 X s
 326 857 m -31 X s 358 908 m -63 X s 326 959 m -31 X s 326 1009 m -31 X s 326 1060 m -31 X s 326 1111 m -31 X s 358 1162 m -63 X s 326 1212 m -31 X s 326 1263 m -31 X s 326 1314 m -31 X s 326 1364 m -31 X s 358 1415 m -63 X s 326 1466 m -31 X s 326
 1517 m -31 X s 326 1567 m -31 X s 326 1618 m -31 X s 358 1669 m -63 X s 326 1720 m -31 X s 326 1770 m -31 X s 326 1821 m -31 X s 326 1872 m -31 X s 358 1923 m -63 X s 358 1923 m -63 X s 326 1973 m -31 X s 326 2024 m -31 X s
 gsave  2268 1526 0 654 C 242.699 629.5 t 0 r /Helvetica findfont 72.1408 sf 0 0 m (0) show NC gr 
 gsave  2268 1526 0 654 C 163.063 883.575 t 0 r /Helvetica findfont 72.1408 sf 0 0 m (500) show NC gr 
 gsave  2268 1526 0 654 C 121.349 1137.65 t 0 r /Helvetica findfont 72.1408 sf 0 0 m (1000) show NC gr 
 gsave  2268 1526 0 654 C 121.349 1391.73 t 0 r /Helvetica findfont 72.1408 sf 0 0 m (1500) show NC gr 
 gsave  2268 1526 0 654 C 121.349 1645.8 t 0 r /Helvetica findfont 72.1408 sf 0 0 m (2000) show NC gr 
 gsave  2268 1526 0 654 C 121.349 1896.08 t 0 r /Helvetica findfont 72.1408 sf 0 0 m (2500) show NC gr  2109 654 m 1420 Y s 2046 654 m 63 X s 2077 705 m 32 X s 2077 756 m 32 X s 2077 806 m 32 X s 2077 857 m 32 X s 2046 908 m 63 X s 2077 959 m 32 X s
 2077 1009 m 32 X s 2077 1060 m 32 X s 2077 1111 m 32 X s 2046 1162 m 63 X s 2077 1212 m 32 X s 2077 1263 m 32 X s 2077 1314 m 32 X s 2077 1364 m 32 X s 2046 1415 m 63 X s 2077 1466 m 32 X s 2077 1517 m 32 X s 2077 1567 m 32 X s 2077 1618 m 32 X s
 2046 1669 m 63 X s 2077 1720 m 32 X s 2077 1770 m 32 X s 2077 1821 m 32 X s 2077 1872 m 32 X s 2046 1923 m 63 X s 2046 1923 m 63 X s 2077 1973 m 32 X s 2077 2024 m 32 X s 0 0 1 c 6 lw 1 1 1 c 0 0 1 c 340 1818 m 8 Y s 340 1848 m 8 Y s 295 1837 m 34 X
 s 352 1837 m 34 X s 333 1818 m 15 X s 333 1856 m 15 X s 295 1829 m 16 Y s 386 1829 m 16 Y s 3 lw 340 1837 m20 6 lw 431 1166 m 4 Y s 431 1193 m 4 Y s 386 1181 m 33 X s 442 1181 m 34 X s 423 1166 m 15 X s 423 1197 m 15 X s 386 1174 m 15 Y s 476 1174 m
 15 Y s 3 lw 431 1181 m20 6 lw 476 962 m 34 X s 533 962 m 34 X s 476 955 m 15 Y s 567 955 m 15 Y s 3 lw 522 962 m20 6 lw 567 870 m 34 X s 624 870 m 34 X s 567 863 m 15 Y s 658 863 m 15 Y s 3 lw 612 870 m20 6 lw 658 816 m 34 X s 714 816 m 34 X s 658
 808 m 16 Y s 748 808 m 16 Y s 3 lw 703 816 m20 6 lw 748 796 m 34 X s 805 796 m 34 X s 748 788 m 16 Y s 839 788 m 16 Y s 3 lw 794 796 m20 6 lw 839 776 m 34 X s 896 776 m 34 X s 839 769 m 15 Y s 930 769 m 15 Y s 3 lw 884 776 m20 6 lw 930 760 m 34 X s
 986 760 m 34 X s 930 753 m 15 Y s 1020 753 m 15 Y s 3 lw 975 760 m20 6 lw 1020 760 m 34 X s 1077 760 m 34 X s 1020 752 m 15 Y s 1111 752 m 15 Y s 3 lw 1066 760 m20 6 lw 1111 755 m 34 X s 1168 755 m 34 X s 1111 747 m 15 Y s 1202 747 m 15 Y s 3 lw
 1157 755 m20 6 lw 1202 747 m 34 X s 1259 747 m 34 X s 1202 739 m 16 Y s 1293 739 m 16 Y s 3 lw 1247 747 m20 6 lw 1293 751 m 34 X s 1349 751 m 34 X s 1293 743 m 15 Y s 1383 743 m 15 Y s 3 lw 1338 751 m20 6 lw 1383 762 m 34 X s 1440 762 m 34 X s 1383
 755 m 15 Y s 1474 755 m 15 Y s 3 lw 1429 762 m20 6 lw 1474 753 m 34 X s 1531 753 m 34 X s 1474 745 m 15 Y s 1565 745 m 15 Y s 3 lw 1519 753 m20 6 lw 1565 751 m 34 X s 1621 751 m 34 X s 1565 744 m 15 Y s 1655 744 m 15 Y s 3 lw 1610 751 m20 6 lw 1655
 734 m 34 X s 1712 734 m 34 X s 1655 727 m 15 Y s 1746 727 m 15 Y s 3 lw 1701 734 m20 6 lw 1746 723 m 34 X s 1803 723 m 34 X s 1746 716 m 15 Y s 1837 716 m 15 Y s 3 lw 1791 723 m20 6 lw 1837 706 m 34 X s 1894 706 m 34 X s 1837 698 m 15 Y s 1928 698 m
 15 Y s 3 lw 1882 706 m20 6 lw 1928 671 m 34 X s 1984 671 m 34 X s 1928 663 m 15 Y s 2018 663 m 15 Y s 3 lw 1973 671 m20 6 lw 2018 655 m 34 X s 2075 655 m 34 X s 2018 654 m 9 Y s 2109 654 m 9 Y s 3 lw 2064 655 m20 6 lw black
 gsave  2268 1526 0 654 C 1289.34 1956.76 t 0 r /Helvetica-Bold findfont 53.1564 sf 0 0 m (Testing Background) show NC gr  1 0 0 c[  12 12 ] 0 sd 869 1971 m 349 X s black
 gsave  2268 1526 0 654 C 1289.34 1842.99 t 0 r /Helvetica-Bold findfont 53.1564 sf 0 0 m (Training Background) show NC gr  0 0 1 c[  ] 0 sd 869 1856 m 349 X s black
 gsave  2268 1526 0 654 C 1471.36 1725.44 t 0 r /Helvetica findfont 56.9533 sf 0 0 m (Kol = 0.996341) show NC gr  3 lw 1 1 1 c black 1 1 1 c 1814 425 295 229 bf black 1814 425 295 229 bl 295 229 m 1814 X s[ 4 8] 0 sd 295 654 m -425 Y s 476 654 m -425
 Y s 658 654 m -425 Y s 839 654 m -425 Y s 1020 654 m -425 Y s 1202 654 m -425 Y s 1383 654 m -425 Y s 1565 654 m -425 Y s 1746 654 m -425 Y s 1928 654 m -425 Y s 2109 654 m -425 Y s 295 654 m -425 Y s[  ] 0 sd 295 654 m 1814 X s 295 229 m 425 Y s[ 4
 8] 0 sd 2109 229 m -1814 X s 2109 335 m -1814 X s 2109 442 m -1814 X s 2109 548 m -1814 X s 2109 654 m -1814 X s[  ] 0 sd 2109 229 m 425 Y s 6 lw 1 1 1 c black 295 439 m 34 X s 352 439 m 34 X s 3 lw 340 439 m20 6 lw 386 449 m 33 X s 442 449 m 34 X s
 3 lw 431 449 m20 6 lw 476 435 m 34 X s 533 435 m 34 X s 3 lw 522 435 m20 6 lw 567 434 m 34 X s 624 434 m 34 X s 3 lw 612 434 m20 6 lw 703 439 m 2 Y s 703 464 m 2 Y s 658 452 m 34 X s 714 452 m 34 X s 3 lw 703 452 m20 6 lw 794 428 m 2 Y s 794 453 m 2
 Y s 748 442 m 34 X s 805 442 m 34 X s 3 lw 794 442 m20 6 lw 884 430 m 4 Y s 884 457 m 5 Y s 839 446 m 34 X s 896 446 m 34 X s 3 lw 884 446 m20 6 lw 975 429 m 5 Y s 975 457 m 5 Y s 930 446 m 34 X s 986 446 m 34 X s 3 lw 975 446 m20 6 lw 1066 436 m 6
 Y s 1066 465 m 6 Y s 1020 454 m 34 X s 1077 454 m 34 X s 3 lw 1066 454 m20 6 lw 1157 407 m 6 Y s 1157 435 m 6 Y s 1111 424 m 34 X s 1168 424 m 34 X s 3 lw 1157 424 m20 6 lw 1247 421 m 7 Y s 1247 450 m 7 Y s 1202 439 m 34 X s 1259 439 m 34 X s 3 lw
 1247 439 m20 6 lw 1338 433 m 7 Y s 1338 463 m 7 Y s 1293 451 m 34 X s 1349 451 m 34 X s 3 lw 1338 451 m20 6 lw 1429 403 m 4 Y s 1429 430 m 3 Y s 1383 418 m 34 X s 1440 418 m 34 X s 3 lw 1429 418 m20 6 lw 1519 410 m 6 Y s 1519 439 m 5 Y s 1474 427 m
 34 X s 1531 427 m 34 X s 3 lw 1519 427 m20 6 lw 1610 445 m 8 Y s 1610 476 m 8 Y s 1565 464 m 34 X s 1621 464 m 34 X s 3 lw 1610 464 m20 6 lw 1701 414 m 8 Y s 1701 445 m 7 Y s 1655 433 m 34 X s 1712 433 m 34 X s 3 lw 1701 433 m20 6 lw 1791 425 m 11 Y
 s 1791 459 m 11 Y s 1746 447 m 34 X s 1803 447 m 34 X s 3 lw 1791 447 m20 6 lw 1882 444 m 23 Y s 1882 490 m 23 Y s 1837 479 m 34 X s 1894 479 m 34 X s 3 lw 1882 479 m20 6 lw 1973 425 m 40 Y s 1973 488 m 39 Y s 1928 476 m 34 X s 1984 476 m 34 X s 3
 lw 1973 476 m20 6 lw 2064 271 m 74 Y s 2064 368 m 75 Y s 2018 357 m 34 X s 2075 357 m 34 X s 3 lw 2064 357 m20 6 lw 3 lw 295 229 m 1814 X s
 gsave  2268 654 0 0 C 1664.76 56.8825 t 0 r /Helvetica findfont 91.2766 sf 0 0 m (BDT Score) show NC gr  295 245 m -16 Y s 340 237 m -8 Y s 386 237 m -8 Y s 431 237 m -8 Y s 476 245 m -16 Y s 522 237 m -8 Y s 567 237 m -8 Y s 612 237 m -8 Y s 658
 245 m -16 Y s 703 237 m -8 Y s 748 237 m -8 Y s 794 237 m -8 Y s 839 245 m -16 Y s 884 237 m -8 Y s 930 237 m -8 Y s 975 237 m -8 Y s 1020 245 m -16 Y s 1066 237 m -8 Y s 1111 237 m -8 Y s 1157 237 m -8 Y s 1202 245 m -16 Y s 1247 237 m -8 Y s 1293
 237 m -8 Y s 1338 237 m -8 Y s 1383 245 m -16 Y s 1429 237 m -8 Y s 1474 237 m -8 Y s 1519 237 m -8 Y s 1565 245 m -16 Y s 1610 237 m -8 Y s 1655 237 m -8 Y s 1701 237 m -8 Y s 1746 245 m -16 Y s 1791 237 m -8 Y s 1837 237 m -8 Y s 1882 237 m -8 Y s
 1928 245 m -16 Y s 1973 237 m -8 Y s 2018 237 m -8 Y s 2064 237 m -8 Y s 2109 245 m -16 Y s 295 245 m -16 Y s
 gsave  2268 654 0 0 C 295.789 163.063 t 0 r /Helvetica findfont 72.2607 sf 0 0 m (1) show NC gr 
 gsave  2268 654 0 0 C 257.867 163.063 t 0 r /Symbol findfont 72.2607 sf 0 0 m (-) show NC gr 
 gsave  2268 654 0 0 C 443.684 163.063 t 0 r /Helvetica findfont 72.2607 sf 0 0 m (0.8) show NC gr 
 gsave  2268 654 0 0 C 401.97 163.063 t 0 r /Symbol findfont 72.2607 sf 0 0 m (-) show NC gr 
 gsave  2268 654 0 0 C 625.708 163.063 t 0 r /Helvetica findfont 72.2607 sf 0 0 m (0.6) show NC gr 
 gsave  2268 654 0 0 C 583.994 163.063 t 0 r /Symbol findfont 72.2607 sf 0 0 m (-) show NC gr 
 gsave  2268 654 0 0 C 807.732 163.063 t 0 r /Helvetica findfont 72.2607 sf 0 0 m (0.4) show NC gr 
 gsave  2268 654 0 0 C 766.018 163.063 t 0 r /Symbol findfont 72.2607 sf 0 0 m (-) show NC gr 
 gsave  2268 654 0 0 C 989.756 163.063 t 0 r /Helvetica findfont 72.2607 sf 0 0 m (0.2) show NC gr 
 gsave  2268 654 0 0 C 948.042 163.063 t 0 r /Symbol findfont 72.2607 sf 0 0 m (-) show NC gr 
 gsave  2268 654 0 0 C 1179.36 163.063 t 0 r /Helvetica findfont 72.2607 sf 0 0 m (0) show NC gr 
 gsave  2268 654 0 0 C 1331.05 163.063 t 0 r /Helvetica findfont 72.2607 sf 0 0 m (0.2) show NC gr 
 gsave  2268 654 0 0 C 1513.08 163.063 t 0 r /Helvetica findfont 72.2607 sf 0 0 m (0.4) show NC gr 
 gsave  2268 654 0 0 C 1695.1 163.063 t 0 r /Helvetica findfont 72.2607 sf 0 0 m (0.6) show NC gr 
 gsave  2268 654 0 0 C 1877.12 163.063 t 0 r /Helvetica findfont 72.2607 sf 0 0 m (0.8) show NC gr 
 gsave  2268 654 0 0 C 2093.28 163.063 t 0 r /Helvetica findfont 72.2607 sf 0 0 m (1) show NC gr  295 654 m 1814 X s 295 638 m 16 Y s 340 646 m 8 Y s 386 646 m 8 Y s 431 646 m 8 Y s 476 638 m 16 Y s 522 646 m 8 Y s 567 646 m 8 Y s 612 646 m 8 Y s 658
 638 m 16 Y s 703 646 m 8 Y s 748 646 m 8 Y s 794 646 m 8 Y s 839 638 m 16 Y s 884 646 m 8 Y s 930 646 m 8 Y s 975 646 m 8 Y s 1020 638 m 16 Y s 1066 646 m 8 Y s 1111 646 m 8 Y s 1157 646 m 8 Y s 1202 638 m 16 Y s 1247 646 m 8 Y s 1293 646 m 8 Y s
 1338 646 m 8 Y s 1383 638 m 16 Y s 1429 646 m 8 Y s 1474 646 m 8 Y s 1519 646 m 8 Y s 1565 638 m 16 Y s 1610 646 m 8 Y s 1655 646 m 8 Y s 1701 646 m 8 Y s 1746 638 m 16 Y s 1791 646 m 8 Y s 1837 646 m 8 Y s 1882 646 m 8 Y s 1928 638 m 16 Y s 1973
 646 m 8 Y s 2018 646 m 8 Y s 2064 646 m 8 Y s 2109 638 m 16 Y s 295 638 m 16 Y s 295 229 m 425 Y s
 gsave  2268 654 0 0 C 151.687 246.491 t 90 r /Helvetica findfont 68.4575 sf 0 0 m (Test/Training) show NC gr  339 229 m -44 X s 317 250 m -22 X s 317 271 m -22 X s 317 293 m -22 X s 317 314 m -22 X s 339 335 m -44 X s 317 357 m -22 X s 317 378 m -22
 X s 317 399 m -22 X s 317 420 m -22 X s 339 442 m -44 X s 317 463 m -22 X s 317 484 m -22 X s 317 505 m -22 X s 317 527 m -22 X s 339 548 m -44 X s 317 569 m -22 X s 317 590 m -22 X s 317 612 m -22 X s 317 633 m -22 X s 339 654 m -44 X s
 gsave  2268 654 0 0 C 242.699 204.777 t 0 r /Helvetica findfont 72.2607 sf 0 0 m (0) show NC gr 
 gsave  2268 654 0 0 C 182.024 310.958 t 0 r /Helvetica findfont 72.2607 sf 0 0 m (0.5) show NC gr 
 gsave  2268 654 0 0 C 254.075 413.346 t 0 r /Helvetica findfont 72.2607 sf 0 0 m (1) show NC gr 
 gsave  2268 654 0 0 C 182.024 523.319 t 0 r /Helvetica findfont 72.2607 sf 0 0 m (1.5) show NC gr 
 gsave  2268 654 0 0 C 242.699 625.708 t 0 r /Helvetica findfont 72.2607 sf 0 0 m (2) show NC gr  2109 229 m 425 Y s 2065 229 m 44 X s 2087 250 m 22 X s 2087 271 m 22 X s 2087 293 m 22 X s 2087 314 m 22 X s 2065 335 m 44 X s 2087 357 m 22 X s 2087
 378 m 22 X s 2087 399 m 22 X s 2087 420 m 22 X s 2065 442 m 44 X s 2087 463 m 22 X s 2087 484 m 22 X s 2087 505 m 22 X s 2087 527 m 22 X s 2065 548 m 44 X s 2087 569 m 22 X s 2087 590 m 22 X s 2087 612 m 22 X s 2087 633 m 22 X s 2065 654 m 44 X s 1
 0 0 c 295 442 m 1814 X s
 gr  gr showpage
end
%%EOF
