%!PS-Adobe-2.0 EPSF-2.0
%%BoundingBox:  0 0 567 545
%%Title: lh_3j_bdt_sig.eps: c1
%%Creator: ROOT Version 5.34/32
%%CreationDate: Sat Nov 25 20:21:58 2017
%%EndComments
%%BeginProlog
80 dict begin
/s {stroke} def /l {lineto} def /m {moveto} def /t {translate} def
/r {rotate} def /rl {roll}  def /R {repeat} def
/d {rlineto} def /rm {rmoveto} def /gr {grestore} def /f {eofill} def
/c {setrgbcolor} def /black {0 setgray} def /sd {setdash} def
/cl {closepath} def /sf {scalefont setfont} def /lw {setlinewidth} def
/box {m dup 0 exch d exch 0 d 0 exch neg d cl} def
/NC{systemdict begin initclip end}def/C{NC box clip newpath}def
/bl {box s} def /bf {gsave box gsave f grestore 1 lw [] 0 sd s grestore} def /Y { 0 exch d} def /X { 0 d} def 
/K {{pop pop 0 moveto} exch kshow} bind def
/ita {/ang 15 def gsave [1 0 ang dup sin exch cos div 1 0 0] concat} def 
/mp {newpath /y exch def /x exch def} def
/side {[w .77 mul w .23 mul] .385 w mul sd w 0 l currentpoint t -144 r} def
/mr {mp x y w2 0 360 arc} def /m24 {mr s} def /m20 {mr f} def
/mb {mp x y w2 add m w2 neg 0 d 0 w neg d w 0 d 0 w d cl} def
/mt {mp x y w2 add m w2 neg w neg d w 0 d cl} def
/m21 {mb f} def /m25 {mb s} def /m22 {mt f} def /m26{mt s} def
/m23 {mp x y w2 sub m w2 w d w neg 0 d cl f} def
/m27 {mp x y w2 add m w3 neg w2 neg d w3 w2 neg d w3 w2 d cl s} def
/m28 {mp x w2 sub y w2 sub w3 add m w3 0 d  0 w3 neg d w3 0 d 0 w3 d w3 0 d  0 w3 d w3 neg 0 d 0 w3 d w3 neg 0 d 0 w3 neg d w3 neg 0 d cl s } def
/m29 {mp gsave x w2 sub y w2 add w3 sub m currentpoint t 4 {side} repeat cl fill gr} def
/m30 {mp gsave x w2 sub y w2 add w3 sub m currentpoint t 4 {side} repeat cl s gr} def
/m31 {mp x y w2 sub m 0 w d x w2 sub y m w 0 d x w2 sub y w2 add m w w neg d x w2 sub y w2 sub m w w d s} def
/m32 {mp x y w2 sub m w2 w d w neg 0 d cl s} def
/m33 {mp x y w2 add m w3 neg w2 neg d w3 w2 neg d w3 w2 d cl f} def
/m34 {mp x w2 sub y w2 sub w3 add m w3 0 d  0 w3 neg d w3 0 d 0 w3 d w3 0 d  0 w3 d w3 neg 0 d 0 w3 d w3 neg 0 d 0 w3 neg d w3 neg 0 d cl f } def
/m2 {mp x y w2 sub m 0 w d x w2 sub y m w 0 d s} def
/m5 {mp x w2 sub y w2 sub m w w d x w2 sub y w2 add m w w neg d s} def
/reEncode {exch findfont dup length dict begin {1 index /FID eq  {pop pop} {def} ifelse } forall /Encoding exch def currentdict end dup /FontName get exch definefont pop } def [/Times-Bold /Times-Italic /Times-BoldItalic /Helvetica /Helvetica-Oblique
 /Helvetica-Bold /Helvetica-BoldOblique /Courier /Courier-Oblique /Courier-Bold /Courier-BoldOblique /Times-Roman /AvantGarde-Book /AvantGarde-BookOblique /AvantGarde-Demi /AvantGarde-DemiOblique /Bookman-Demi /Bookman-DemiItalic /Bookman-Light
 /Bookman-LightItalic /Helvetica-Narrow /Helvetica-Narrow-Bold /Helvetica-Narrow-BoldOblique /Helvetica-Narrow-Oblique /NewCenturySchlbk-Roman /NewCenturySchlbk-Bold /NewCenturySchlbk-BoldItalic /NewCenturySchlbk-Italic /Palatino-Bold
 /Palatino-BoldItalic /Palatino-Italic /Palatino-Roman ] {ISOLatin1Encoding reEncode } forall
%%EndProlog
%%BeginSetup
%%EndSetup
newpath  gsave  .25 .25 scale  gsave  0 0 t black[  ] 0 sd 3 lw 1 1 1 c 2268 2180 0 0 bf black 1 1 1 c 2268 1526 0 654 bf black 1 1 1 c 1814 1420 295 654 bf black 1814 1420 295 654 bl 1 0 0 c[  12 12 ] 0 sd 6 lw 1 1 1 c 1 0 0 c 340 663 m 7 Y s 340
 693 m 6 Y s 295 681 m 34 X s 352 681 m 34 X s 333 663 m 15 X s 333 699 m 15 X s 295 674 m 15 Y s 386 674 m 15 Y s[  ] 0 sd 3 lw /w 24 def /w2 {w 2 div} def /w3 {w 3 div} def 340 681 m20[  12 12 ] 0 sd 6 lw 431 725 m 15 Y s 431 763 m 15 Y s 386 751 m
 33 X s 442 751 m 34 X s 423 725 m 15 X s 423 778 m 15 X s 386 744 m 15 Y s 476 744 m 15 Y s[  ] 0 sd 3 lw 431 751 m20[  12 12 ] 0 sd 6 lw 522 694 m 8 Y s 522 725 m 8 Y s 476 713 m 34 X s 533 713 m 34 X s 514 694 m 15 X s 514 733 m 15 X s 476 706 m
 15 Y s 567 706 m 15 Y s[  ] 0 sd 3 lw 522 713 m20[  12 12 ] 0 sd 6 lw 612 752 m 14 Y s 612 789 m 14 Y s 567 778 m 34 X s 624 778 m 34 X s 605 752 m 15 X s 605 803 m 15 X s 567 770 m 15 Y s 658 770 m 15 Y s[  ] 0 sd 3 lw 612 778 m20[  12 12 ] 0 sd 6
 lw 703 738 m 15 Y s 703 776 m 15 Y s 658 764 m 34 X s 714 764 m 34 X s 695 738 m 16 X s 695 791 m 16 X s 658 757 m 15 Y s 748 757 m 15 Y s[  ] 0 sd 3 lw 703 764 m20[  12 12 ] 0 sd 6 lw 794 702 m 11 Y s 794 735 m 11 Y s 748 724 m 34 X s 805 724 m 34
 X s 786 702 m 15 X s 786 746 m 15 X s 748 716 m 16 Y s 839 716 m 16 Y s[  ] 0 sd 3 lw 794 724 m20[  12 12 ] 0 sd 6 lw 884 709 m 21 Y s 884 753 m 21 Y s 839 741 m 34 X s 896 741 m 34 X s 877 709 m 15 X s 877 774 m 15 X s 839 734 m 15 Y s 930 734 m 15
 Y s[  ] 0 sd 3 lw 884 741 m20[  12 12 ] 0 sd 6 lw 975 768 m 26 Y s 975 817 m 26 Y s 930 805 m 34 X s 986 805 m 34 X s 968 768 m 15 X s 968 843 m 15 X s 930 798 m 15 Y s 1020 798 m 15 Y s[  ] 0 sd 3 lw 975 805 m20[  12 12 ] 0 sd 6 lw 1066 743 m 19 Y
 s 1066 785 m 20 Y s 1020 774 m 34 X s 1077 774 m 34 X s 1058 743 m 15 X s 1058 805 m 15 X s 1020 766 m 15 Y s 1111 766 m 15 Y s[  ] 0 sd 3 lw 1066 774 m20[  12 12 ] 0 sd 6 lw 1157 744 m 20 Y s 1157 786 m 20 Y s 1111 775 m 34 X s 1168 775 m 34 X s
 1149 744 m 15 X s 1149 806 m 15 X s 1111 767 m 15 Y s 1202 767 m 15 Y s[  ] 0 sd 3 lw 1157 775 m20[  12 12 ] 0 sd 6 lw 1247 834 m 20 Y s 1247 877 m 21 Y s 1202 866 m 34 X s 1259 866 m 34 X s 1240 834 m 15 X s 1240 898 m 15 X s 1202 858 m 15 Y s 1293
 858 m 15 Y s[  ] 0 sd 3 lw 1247 866 m20[  12 12 ] 0 sd 6 lw 1338 879 m 36 Y s 1338 938 m 36 Y s 1293 927 m 34 X s 1349 927 m 34 X s 1330 879 m 16 X s 1330 974 m 16 X s 1293 919 m 15 Y s 1383 919 m 15 Y s[  ] 0 sd 3 lw 1338 927 m20[  12 12 ] 0 sd 6
 lw 1429 869 m 30 Y s 1429 922 m 29 Y s 1383 910 m 34 X s 1440 910 m 34 X s 1421 869 m 15 X s 1421 951 m 15 X s 1383 903 m 15 Y s 1474 903 m 15 Y s[  ] 0 sd 3 lw 1429 910 m20[  12 12 ] 0 sd 6 lw 1519 1036 m 41 Y s 1519 1100 m 41 Y s 1474 1089 m 34 X
 s 1531 1089 m 34 X s 1512 1036 m 15 X s 1512 1141 m 15 X s 1474 1081 m 15 Y s 1565 1081 m 15 Y s[  ] 0 sd 3 lw 1519 1089 m20[  12 12 ] 0 sd 6 lw 1610 1111 m 49 Y s 1610 1183 m 49 Y s 1565 1171 m 34 X s 1621 1171 m 34 X s 1602 1111 m 16 X s 1602 1232
 m 16 X s 1565 1164 m 15 Y s 1655 1164 m 15 Y s[  ] 0 sd 3 lw 1610 1171 m20[  12 12 ] 0 sd 6 lw 1701 1213 m 51 Y s 1701 1287 m 51 Y s 1655 1276 m 34 X s 1712 1276 m 34 X s 1693 1213 m 15 X s 1693 1338 m 15 X s 1655 1268 m 15 Y s 1746 1268 m 15 Y s[ 
 ] 0 sd 3 lw 1701 1276 m20[  12 12 ] 0 sd 6 lw 1791 1441 m 73 Y s 1791 1537 m 74 Y s 1746 1526 m 34 X s 1803 1526 m 34 X s 1784 1441 m 15 X s 1784 1611 m 15 X s 1746 1518 m 15 Y s 1837 1518 m 15 Y s[  ] 0 sd 3 lw 1791 1526 m20[  12 12 ] 0 sd 6 lw
 1882 1634 m 83 Y s 1882 1740 m 84 Y s 1837 1729 m 34 X s 1894 1729 m 34 X s 1875 1634 m 15 X s 1875 1824 m 15 X s 1837 1721 m 15 Y s 1928 1721 m 15 Y s[  ] 0 sd 3 lw 1882 1729 m20[  12 12 ] 0 sd 6 lw 1973 1682 m 85 Y s 1973 1790 m 85 Y s 1928 1779 m
 34 X s 1984 1779 m 34 X s 1965 1682 m 15 X s 1965 1875 m 15 X s 1928 1771 m 15 Y s 2018 1771 m 15 Y s[  ] 0 sd 3 lw 1973 1779 m20[  12 12 ] 0 sd 6 lw 2064 900 m 26 Y s 2064 949 m 27 Y s 2018 938 m 34 X s 2075 938 m 34 X s 2056 900 m 15 X s 2056 976
 m 15 X s 2018 930 m 15 Y s 2109 930 m 15 Y s[  ] 0 sd 3 lw 2064 938 m20[  12 12 ] 0 sd 6 lw black[  ] 0 sd 3 lw 295 654 m 1814 X s 295 691 m -37 Y s 340 672 m -18 Y s 386 672 m -18 Y s 431 672 m -18 Y s 476 691 m -37 Y s 522 672 m -18 Y s 567 672 m
 -18 Y s 612 672 m -18 Y s 658 691 m -37 Y s 703 672 m -18 Y s 748 672 m -18 Y s 794 672 m -18 Y s 839 691 m -37 Y s 884 672 m -18 Y s 930 672 m -18 Y s 975 672 m -18 Y s 1020 691 m -37 Y s 1066 672 m -18 Y s 1111 672 m -18 Y s 1157 672 m -18 Y s
 1202 691 m -37 Y s 1247 672 m -18 Y s 1293 672 m -18 Y s 1338 672 m -18 Y s 1383 691 m -37 Y s 1429 672 m -18 Y s 1474 672 m -18 Y s 1519 672 m -18 Y s 1565 691 m -37 Y s 1610 672 m -18 Y s 1655 672 m -18 Y s 1701 672 m -18 Y s 1746 691 m -37 Y s
 1791 672 m -18 Y s 1837 672 m -18 Y s 1882 672 m -18 Y s 1928 691 m -37 Y s 1973 672 m -18 Y s 2018 672 m -18 Y s 2064 672 m -18 Y s 2109 691 m -37 Y s 295 691 m -37 Y s 1 1 1 c black 1 1 1 c
 gsave  2268 1526 0 654 C 295.789 587.786 t 0 r /Helvetica findfont 72.1408 sf 0 0 m (1) show NC gr  black 1 1 1 c
 gsave  2268 1526 0 654 C 257.867 587.786 t 0 r /Symbol findfont 72.1408 sf 0 0 m (-) show NC gr  black 1 1 1 c
 gsave  2268 1526 0 654 C 443.684 587.786 t 0 r /Helvetica findfont 72.1408 sf 0 0 m (0.8) show NC gr  black 1 1 1 c
 gsave  2268 1526 0 654 C 401.97 587.786 t 0 r /Symbol findfont 72.1408 sf 0 0 m (-) show NC gr  black 1 1 1 c
 gsave  2268 1526 0 654 C 625.708 587.786 t 0 r /Helvetica findfont 72.1408 sf 0 0 m (0.6) show NC gr  black 1 1 1 c
 gsave  2268 1526 0 654 C 583.994 587.786 t 0 r /Symbol findfont 72.1408 sf 0 0 m (-) show NC gr  black 1 1 1 c
 gsave  2268 1526 0 654 C 807.732 587.786 t 0 r /Helvetica findfont 72.1408 sf 0 0 m (0.4) show NC gr  black 1 1 1 c
 gsave  2268 1526 0 654 C 766.018 587.786 t 0 r /Symbol findfont 72.1408 sf 0 0 m (-) show NC gr  black 1 1 1 c
 gsave  2268 1526 0 654 C 989.756 587.786 t 0 r /Helvetica findfont 72.1408 sf 0 0 m (0.2) show NC gr  black 1 1 1 c
 gsave  2268 1526 0 654 C 948.042 587.786 t 0 r /Symbol findfont 72.1408 sf 0 0 m (-) show NC gr  black 1 1 1 c
 gsave  2268 1526 0 654 C 1179.36 587.786 t 0 r /Helvetica findfont 72.1408 sf 0 0 m (0) show NC gr  black 1 1 1 c
 gsave  2268 1526 0 654 C 1331.05 587.786 t 0 r /Helvetica findfont 72.1408 sf 0 0 m (0.2) show NC gr  black 1 1 1 c
 gsave  2268 1526 0 654 C 1513.08 587.786 t 0 r /Helvetica findfont 72.1408 sf 0 0 m (0.4) show NC gr  black 1 1 1 c
 gsave  2268 1526 0 654 C 1695.1 587.786 t 0 r /Helvetica findfont 72.1408 sf 0 0 m (0.6) show NC gr  black 1 1 1 c
 gsave  2268 1526 0 654 C 1877.12 587.786 t 0 r /Helvetica findfont 72.1408 sf 0 0 m (0.8) show NC gr  black 1 1 1 c
 gsave  2268 1526 0 654 C 2093.28 587.786 t 0 r /Helvetica findfont 72.1408 sf 0 0 m (1) show NC gr  black 295 2074 m 1814 X s 295 2037 m 37 Y s 340 2055 m 19 Y s 386 2055 m 19 Y s 431 2055 m 19 Y s 476 2037 m 37 Y s 522 2055 m 19 Y s 567 2055 m 19 Y
 s 612 2055 m 19 Y s 658 2037 m 37 Y s 703 2055 m 19 Y s 748 2055 m 19 Y s 794 2055 m 19 Y s 839 2037 m 37 Y s 884 2055 m 19 Y s 930 2055 m 19 Y s 975 2055 m 19 Y s 1020 2037 m 37 Y s 1066 2055 m 19 Y s 1111 2055 m 19 Y s 1157 2055 m 19 Y s 1202 2037
 m 37 Y s 1247 2055 m 19 Y s 1293 2055 m 19 Y s 1338 2055 m 19 Y s 1383 2037 m 37 Y s 1429 2055 m 19 Y s 1474 2055 m 19 Y s 1519 2055 m 19 Y s 1565 2037 m 37 Y s 1610 2055 m 19 Y s 1655 2055 m 19 Y s 1701 2055 m 19 Y s 1746 2037 m 37 Y s 1791 2055 m
 19 Y s 1837 2055 m 19 Y s 1882 2055 m 19 Y s 1928 2037 m 37 Y s 1973 2055 m 19 Y s 2018 2055 m 19 Y s 2064 2055 m 19 Y s 2109 2037 m 37 Y s 295 2037 m 37 Y s 295 654 m 1420 Y s 358 654 m -63 X s 326 696 m -31 X s 326 739 m -31 X s 326 781 m -31 X s
 326 823 m -31 X s 358 866 m -63 X s 326 908 m -31 X s 326 950 m -31 X s 326 993 m -31 X s 326 1035 m -31 X s 358 1077 m -63 X s 326 1120 m -31 X s 326 1162 m -31 X s 326 1204 m -31 X s 326 1247 m -31 X s 358 1289 m -63 X s 326 1331 m -31 X s 326
 1374 m -31 X s 326 1416 m -31 X s 326 1458 m -31 X s 358 1501 m -63 X s 326 1543 m -31 X s 326 1585 m -31 X s 326 1628 m -31 X s 326 1670 m -31 X s 358 1712 m -63 X s 326 1755 m -31 X s 326 1797 m -31 X s 326 1839 m -31 X s 326 1882 m -31 X s 358
 1924 m -63 X s 358 1924 m -63 X s 326 1966 m -31 X s 326 2009 m -31 X s 326 2051 m -31 X s
 gsave  2268 1526 0 654 C 242.699 629.5 t 0 r /Helvetica findfont 72.1408 sf 0 0 m (0) show NC gr 
 gsave  2268 1526 0 654 C 254.075 838.069 t 0 r /Helvetica findfont 72.1408 sf 0 0 m (1) show NC gr 
 gsave  2268 1526 0 654 C 242.699 1050.43 t 0 r /Helvetica findfont 72.1408 sf 0 0 m (2) show NC gr 
 gsave  2268 1526 0 654 C 242.699 1262.79 t 0 r /Helvetica findfont 72.1408 sf 0 0 m (3) show NC gr 
 gsave  2268 1526 0 654 C 242.699 1471.36 t 0 r /Helvetica findfont 72.1408 sf 0 0 m (4) show NC gr 
 gsave  2268 1526 0 654 C 242.699 1687.51 t 0 r /Helvetica findfont 72.1408 sf 0 0 m (5) show NC gr 
 gsave  2268 1526 0 654 C 242.699 1899.88 t 0 r /Helvetica findfont 72.1408 sf 0 0 m (6) show NC gr  2109 654 m 1420 Y s 2046 654 m 63 X s 2077 696 m 32 X s 2077 739 m 32 X s 2077 781 m 32 X s 2077 823 m 32 X s 2046 866 m 63 X s 2077 908 m 32 X s
 2077 950 m 32 X s 2077 993 m 32 X s 2077 1035 m 32 X s 2046 1077 m 63 X s 2077 1120 m 32 X s 2077 1162 m 32 X s 2077 1204 m 32 X s 2077 1247 m 32 X s 2046 1289 m 63 X s 2077 1331 m 32 X s 2077 1374 m 32 X s 2077 1416 m 32 X s 2077 1458 m 32 X s 2046
 1501 m 63 X s 2077 1543 m 32 X s 2077 1585 m 32 X s 2077 1628 m 32 X s 2077 1670 m 32 X s 2046 1712 m 63 X s 2077 1755 m 32 X s 2077 1797 m 32 X s 2077 1839 m 32 X s 2077 1882 m 32 X s 2046 1924 m 63 X s 2046 1924 m 63 X s 2077 1966 m 32 X s 2077
 2009 m 32 X s 2077 2051 m 32 X s 0 0 1 c 6 lw 1 1 1 c 0 0 1 c 340 662 m 3 Y s 340 688 m 3 Y s 295 676 m 34 X s 352 676 m 34 X s 333 662 m 15 X s 333 691 m 15 X s 295 669 m 15 Y s 386 669 m 15 Y s 3 lw 340 676 m20 6 lw 431 664 m 7 Y s 431 694 m 8 Y s
 386 683 m 33 X s 442 683 m 34 X s 423 664 m 15 X s 423 702 m 15 X s 386 675 m 15 Y s 476 675 m 15 Y s 3 lw 431 683 m20 6 lw 522 712 m 8 Y s 522 743 m 9 Y s 476 732 m 34 X s 533 732 m 34 X s 514 712 m 15 X s 514 752 m 15 X s 476 724 m 15 Y s 567 724
 m 15 Y s 3 lw 522 732 m20 6 lw 612 667 m 9 Y s 612 698 m 9 Y s 567 687 m 34 X s 624 687 m 34 X s 605 667 m 15 X s 605 707 m 15 X s 567 679 m 16 Y s 658 679 m 16 Y s 3 lw 612 687 m20 6 lw 703 733 m 17 Y s 703 773 m 17 Y s 658 762 m 34 X s 714 762 m
 34 X s 695 733 m 16 X s 695 790 m 16 X s 658 754 m 15 Y s 748 754 m 15 Y s 3 lw 703 762 m20 6 lw 794 712 m 15 Y s 794 750 m 15 Y s 748 739 m 34 X s 805 739 m 34 X s 786 712 m 15 X s 786 765 m 15 X s 748 731 m 15 Y s 839 731 m 15 Y s 3 lw 794 739 m20
 6 lw 884 688 m 8 Y s 884 719 m 8 Y s 839 707 m 34 X s 896 707 m 34 X s 877 688 m 15 X s 877 727 m 15 X s 839 700 m 15 Y s 930 700 m 15 Y s 3 lw 884 707 m20 6 lw 975 693 m 21 Y s 975 737 m 21 Y s 930 725 m 34 X s 986 725 m 34 X s 968 693 m 15 X s 968
 758 m 15 X s 930 718 m 15 Y s 1020 718 m 15 Y s 3 lw 975 725 m20 6 lw 1066 724 m 18 Y s 1066 764 m 17 Y s 1020 753 m 34 X s 1077 753 m 34 X s 1058 724 m 15 X s 1058 781 m 15 X s 1020 745 m 16 Y s 1111 745 m 16 Y s 3 lw 1066 753 m20 6 lw 1157 829 m
 29 Y s 1157 881 m 29 Y s 1111 870 m 34 X s 1168 870 m 34 X s 1149 829 m 15 X s 1149 910 m 15 X s 1111 862 m 15 Y s 1202 862 m 15 Y s 3 lw 1157 870 m20 6 lw 1247 826 m 27 Y s 1247 876 m 26 Y s 1202 864 m 34 X s 1259 864 m 34 X s 1240 826 m 15 X s
 1240 902 m 15 X s 1202 857 m 15 Y s 1293 857 m 15 Y s 3 lw 1247 864 m20 6 lw 1338 841 m 28 Y s 1338 892 m 27 Y s 1293 880 m 34 X s 1349 880 m 34 X s 1330 841 m 16 X s 1330 919 m 16 X s 1293 873 m 15 Y s 1383 873 m 15 Y s 3 lw 1338 880 m20 6 lw 1429
 868 m 40 Y s 1429 931 m 40 Y s 1383 919 m 34 X s 1440 919 m 34 X s 1421 868 m 15 X s 1421 971 m 15 X s 1383 912 m 15 Y s 1474 912 m 15 Y s 3 lw 1429 919 m20 6 lw 1519 997 m 36 Y s 1519 1056 m 36 Y s 1474 1044 m 34 X s 1531 1044 m 34 X s 1512 997 m
 15 X s 1512 1092 m 15 X s 1474 1037 m 15 Y s 1565 1037 m 15 Y s 3 lw 1519 1044 m20 6 lw 1610 1109 m 45 Y s 1610 1177 m 45 Y s 1565 1165 m 34 X s 1621 1165 m 34 X s 1602 1109 m 16 X s 1602 1222 m 16 X s 1565 1158 m 15 Y s 1655 1158 m 15 Y s 3 lw 1610
 1165 m20 6 lw 1701 1353 m 68 Y s 1701 1444 m 67 Y s 1655 1432 m 34 X s 1712 1432 m 34 X s 1693 1353 m 15 X s 1693 1511 m 15 X s 1655 1425 m 15 Y s 1746 1425 m 15 Y s 3 lw 1701 1432 m20 6 lw 1791 1389 m 63 Y s 1791 1475 m 63 Y s 1746 1464 m 34 X s
 1803 1464 m 34 X s 1784 1389 m 15 X s 1784 1538 m 15 X s 1746 1456 m 15 Y s 1837 1456 m 15 Y s 3 lw 1791 1464 m20 6 lw 1882 1741 m 85 Y s 1882 1848 m 85 Y s 1837 1837 m 34 X s 1894 1837 m 34 X s 1875 1741 m 15 X s 1875 1933 m 15 X s 1837 1829 m 16 Y
 s 1928 1829 m 16 Y s 3 lw 1882 1837 m20 6 lw 1973 1709 m 85 Y s 1973 1817 m 85 Y s 1928 1806 m 34 X s 1984 1806 m 34 X s 1965 1709 m 15 X s 1965 1902 m 15 X s 1928 1798 m 15 Y s 2018 1798 m 15 Y s 3 lw 1973 1806 m20 6 lw 2064 927 m 32 Y s 2064 982 m
 33 Y s 2018 971 m 34 X s 2075 971 m 34 X s 2056 927 m 15 X s 2056 1015 m 15 X s 2018 963 m 15 Y s 2109 963 m 15 Y s 3 lw 2064 971 m20 6 lw black
 gsave  2268 1526 0 654 C 838.069 1956.76 t 0 r /Helvetica-Bold findfont 53.1564 sf 0 0 m (Testing Signal) show NC gr  1 0 0 c[  12 12 ] 0 sd 415 1971 m 349 X s black
 gsave  2268 1526 0 654 C 838.069 1842.99 t 0 r /Helvetica-Bold findfont 53.1564 sf 0 0 m (Training Signal) show NC gr  0 0 1 c[  ] 0 sd 415 1856 m 349 X s black
 gsave  2268 1526 0 654 C 451.268 1725.44 t 0 r /Helvetica findfont 56.9533 sf 0 0 m (Kol = 0.466339) show NC gr  3 lw 1 1 1 c black 1 1 1 c 1814 425 295 229 bf black 1814 425 295 229 bl 295 229 m 1814 X s[ 4 8] 0 sd 295 654 m -425 Y s 476 654 m -425
 Y s 658 654 m -425 Y s 839 654 m -425 Y s 1020 654 m -425 Y s 1202 654 m -425 Y s 1383 654 m -425 Y s 1565 654 m -425 Y s 1746 654 m -425 Y s 1928 654 m -425 Y s 2109 654 m -425 Y s 295 654 m -425 Y s[  ] 0 sd 295 654 m 1814 X s 295 229 m 425 Y s[ 4
 8] 0 sd 2109 229 m -1814 X s 2109 335 m -1814 X s 2109 442 m -1814 X s 2109 548 m -1814 X s 2109 654 m -1814 X s[  ] 0 sd 2109 229 m 425 Y s 6 lw 1 1 1 c black 340 245 m 233 Y s 340 501 m 153 Y s 295 489 m 34 X s 352 489 m 34 X s 3 lw 340 489 m20 6
 lw 522 324 m 56 Y s 522 403 m 56 Y s 476 392 m 34 X s 533 392 m 34 X s 3 lw 522 392 m20 6 lw 703 370 m 66 Y s 703 459 m 65 Y s 658 447 m 34 X s 714 447 m 34 X s 3 lw 703 447 m20 6 lw 794 327 m 66 Y s 794 416 m 66 Y s 748 405 m 34 X s 805 405 m 34 X
 s 3 lw 794 405 m20 6 lw 884 394 m 171 Y s 884 588 m 66 Y s 839 577 m 34 X s 896 577 m 34 X s 3 lw 884 577 m20 6 lw 1066 386 m 89 Y s 1066 498 m 88 Y s 1020 486 m 34 X s 1077 486 m 34 X s 3 lw 1066 486 m20 6 lw 1157 310 m 27 Y s 1157 359 m 27 Y s
 1111 348 m 34 X s 1168 348 m 34 X s 3 lw 1157 348 m20 6 lw 1247 393 m 39 Y s 1247 454 m 39 Y s 1202 443 m 34 X s 1259 443 m 34 X s 3 lw 1247 443 m20 6 lw 1338 422 m 52 Y s 1338 497 m 51 Y s 1293 485 m 34 X s 1349 485 m 34 X s 3 lw 1338 485 m20 6 lw
 1429 383 m 40 Y s 1429 446 m 40 Y s 1383 434 m 34 X s 1440 434 m 34 X s 3 lw 1429 434 m20 6 lw 1519 425 m 29 Y s 1519 477 m 29 Y s 1474 466 m 34 X s 1531 466 m 34 X s 3 lw 1519 466 m20 6 lw 1610 409 m 24 Y s 1610 455 m 24 Y s 1565 444 m 34 X s 1621
 444 m 34 X s 3 lw 1610 444 m20 6 lw 1701 375 m 12 Y s 1701 410 m 13 Y s 1655 399 m 34 X s 1712 399 m 34 X s 3 lw 1701 399 m20 6 lw 1791 427 m 19 Y s 1791 469 m 19 Y s 1746 458 m 34 X s 1803 458 m 34 X s 3 lw 1791 458 m20 6 lw 1882 399 m 12 Y s 1882
 433 m 12 Y s 1837 422 m 34 X s 1894 422 m 34 X s 3 lw 1882 422 m20 6 lw 1973 412 m 13 Y s 1973 448 m 13 Y s 1928 437 m 34 X s 1984 437 m 34 X s 3 lw 1973 437 m20 6 lw 2064 383 m 25 Y s 2064 431 m 25 Y s 2018 419 m 34 X s 2075 419 m 34 X s 3 lw 2064
 419 m20 6 lw 3 lw 295 229 m 1814 X s
 gsave  2268 654 0 0 C 1664.76 56.8825 t 0 r /Helvetica findfont 91.2766 sf 0 0 m (BDT Score) show NC gr  295 245 m -16 Y s 340 237 m -8 Y s 386 237 m -8 Y s 431 237 m -8 Y s 476 245 m -16 Y s 522 237 m -8 Y s 567 237 m -8 Y s 612 237 m -8 Y s 658
 245 m -16 Y s 703 237 m -8 Y s 748 237 m -8 Y s 794 237 m -8 Y s 839 245 m -16 Y s 884 237 m -8 Y s 930 237 m -8 Y s 975 237 m -8 Y s 1020 245 m -16 Y s 1066 237 m -8 Y s 1111 237 m -8 Y s 1157 237 m -8 Y s 1202 245 m -16 Y s 1247 237 m -8 Y s 1293
 237 m -8 Y s 1338 237 m -8 Y s 1383 245 m -16 Y s 1429 237 m -8 Y s 1474 237 m -8 Y s 1519 237 m -8 Y s 1565 245 m -16 Y s 1610 237 m -8 Y s 1655 237 m -8 Y s 1701 237 m -8 Y s 1746 245 m -16 Y s 1791 237 m -8 Y s 1837 237 m -8 Y s 1882 237 m -8 Y s
 1928 245 m -16 Y s 1973 237 m -8 Y s 2018 237 m -8 Y s 2064 237 m -8 Y s 2109 245 m -16 Y s 295 245 m -16 Y s
 gsave  2268 654 0 0 C 295.789 163.063 t 0 r /Helvetica findfont 72.2607 sf 0 0 m (1) show NC gr 
 gsave  2268 654 0 0 C 257.867 163.063 t 0 r /Symbol findfont 72.2607 sf 0 0 m (-) show NC gr 
 gsave  2268 654 0 0 C 443.684 163.063 t 0 r /Helvetica findfont 72.2607 sf 0 0 m (0.8) show NC gr 
 gsave  2268 654 0 0 C 401.97 163.063 t 0 r /Symbol findfont 72.2607 sf 0 0 m (-) show NC gr 
 gsave  2268 654 0 0 C 625.708 163.063 t 0 r /Helvetica findfont 72.2607 sf 0 0 m (0.6) show NC gr 
 gsave  2268 654 0 0 C 583.994 163.063 t 0 r /Symbol findfont 72.2607 sf 0 0 m (-) show NC gr 
 gsave  2268 654 0 0 C 807.732 163.063 t 0 r /Helvetica findfont 72.2607 sf 0 0 m (0.4) show NC gr 
 gsave  2268 654 0 0 C 766.018 163.063 t 0 r /Symbol findfont 72.2607 sf 0 0 m (-) show NC gr 
 gsave  2268 654 0 0 C 989.756 163.063 t 0 r /Helvetica findfont 72.2607 sf 0 0 m (0.2) show NC gr 
 gsave  2268 654 0 0 C 948.042 163.063 t 0 r /Symbol findfont 72.2607 sf 0 0 m (-) show NC gr 
 gsave  2268 654 0 0 C 1179.36 163.063 t 0 r /Helvetica findfont 72.2607 sf 0 0 m (0) show NC gr 
 gsave  2268 654 0 0 C 1331.05 163.063 t 0 r /Helvetica findfont 72.2607 sf 0 0 m (0.2) show NC gr 
 gsave  2268 654 0 0 C 1513.08 163.063 t 0 r /Helvetica findfont 72.2607 sf 0 0 m (0.4) show NC gr 
 gsave  2268 654 0 0 C 1695.1 163.063 t 0 r /Helvetica findfont 72.2607 sf 0 0 m (0.6) show NC gr 
 gsave  2268 654 0 0 C 1877.12 163.063 t 0 r /Helvetica findfont 72.2607 sf 0 0 m (0.8) show NC gr 
 gsave  2268 654 0 0 C 2093.28 163.063 t 0 r /Helvetica findfont 72.2607 sf 0 0 m (1) show NC gr  295 654 m 1814 X s 295 638 m 16 Y s 340 646 m 8 Y s 386 646 m 8 Y s 431 646 m 8 Y s 476 638 m 16 Y s 522 646 m 8 Y s 567 646 m 8 Y s 612 646 m 8 Y s 658
 638 m 16 Y s 703 646 m 8 Y s 748 646 m 8 Y s 794 646 m 8 Y s 839 638 m 16 Y s 884 646 m 8 Y s 930 646 m 8 Y s 975 646 m 8 Y s 1020 638 m 16 Y s 1066 646 m 8 Y s 1111 646 m 8 Y s 1157 646 m 8 Y s 1202 638 m 16 Y s 1247 646 m 8 Y s 1293 646 m 8 Y s
 1338 646 m 8 Y s 1383 638 m 16 Y s 1429 646 m 8 Y s 1474 646 m 8 Y s 1519 646 m 8 Y s 1565 638 m 16 Y s 1610 646 m 8 Y s 1655 646 m 8 Y s 1701 646 m 8 Y s 1746 638 m 16 Y s 1791 646 m 8 Y s 1837 646 m 8 Y s 1882 646 m 8 Y s 1928 638 m 16 Y s 1973
 646 m 8 Y s 2018 646 m 8 Y s 2064 646 m 8 Y s 2109 638 m 16 Y s 295 638 m 16 Y s 295 229 m 425 Y s
 gsave  2268 654 0 0 C 151.687 246.491 t 90 r /Helvetica findfont 68.4575 sf 0 0 m (Test/Training) show NC gr  339 229 m -44 X s 317 250 m -22 X s 317 271 m -22 X s 317 293 m -22 X s 317 314 m -22 X s 339 335 m -44 X s 317 357 m -22 X s 317 378 m -22
 X s 317 399 m -22 X s 317 420 m -22 X s 339 442 m -44 X s 317 463 m -22 X s 317 484 m -22 X s 317 505 m -22 X s 317 527 m -22 X s 339 548 m -44 X s 317 569 m -22 X s 317 590 m -22 X s 317 612 m -22 X s 317 633 m -22 X s 339 654 m -44 X s
 gsave  2268 654 0 0 C 242.699 204.777 t 0 r /Helvetica findfont 72.2607 sf 0 0 m (0) show NC gr 
 gsave  2268 654 0 0 C 182.024 310.958 t 0 r /Helvetica findfont 72.2607 sf 0 0 m (0.5) show NC gr 
 gsave  2268 654 0 0 C 254.075 413.346 t 0 r /Helvetica findfont 72.2607 sf 0 0 m (1) show NC gr 
 gsave  2268 654 0 0 C 182.024 523.319 t 0 r /Helvetica findfont 72.2607 sf 0 0 m (1.5) show NC gr 
 gsave  2268 654 0 0 C 242.699 625.708 t 0 r /Helvetica findfont 72.2607 sf 0 0 m (2) show NC gr  2109 229 m 425 Y s 2065 229 m 44 X s 2087 250 m 22 X s 2087 271 m 22 X s 2087 293 m 22 X s 2087 314 m 22 X s 2065 335 m 44 X s 2087 357 m 22 X s 2087
 378 m 22 X s 2087 399 m 22 X s 2087 420 m 22 X s 2065 442 m 44 X s 2087 463 m 22 X s 2087 484 m 22 X s 2087 505 m 22 X s 2087 527 m 22 X s 2065 548 m 44 X s 2087 569 m 22 X s 2087 590 m 22 X s 2087 612 m 22 X s 2087 633 m 22 X s 2065 654 m 44 X s 1
 0 0 c 295 442 m 1814 X s
 gr  gr showpage
end
%%EOF
