%!PS-Adobe-2.0 EPSF-2.0
%%BoundingBox:  0 0 567 545
%%Title: lh_4j_bdt_sig.eps: c1
%%Creator: ROOT Version 5.34/32
%%CreationDate: Sat Nov 25 20:24:22 2017
%%EndComments
%%BeginProlog
80 dict begin
/s {stroke} def /l {lineto} def /m {moveto} def /t {translate} def
/r {rotate} def /rl {roll}  def /R {repeat} def
/d {rlineto} def /rm {rmoveto} def /gr {grestore} def /f {eofill} def
/c {setrgbcolor} def /black {0 setgray} def /sd {setdash} def
/cl {closepath} def /sf {scalefont setfont} def /lw {setlinewidth} def
/box {m dup 0 exch d exch 0 d 0 exch neg d cl} def
/NC{systemdict begin initclip end}def/C{NC box clip newpath}def
/bl {box s} def /bf {gsave box gsave f grestore 1 lw [] 0 sd s grestore} def /Y { 0 exch d} def /X { 0 d} def 
/K {{pop pop 0 moveto} exch kshow} bind def
/ita {/ang 15 def gsave [1 0 ang dup sin exch cos div 1 0 0] concat} def 
/mp {newpath /y exch def /x exch def} def
/side {[w .77 mul w .23 mul] .385 w mul sd w 0 l currentpoint t -144 r} def
/mr {mp x y w2 0 360 arc} def /m24 {mr s} def /m20 {mr f} def
/mb {mp x y w2 add m w2 neg 0 d 0 w neg d w 0 d 0 w d cl} def
/mt {mp x y w2 add m w2 neg w neg d w 0 d cl} def
/m21 {mb f} def /m25 {mb s} def /m22 {mt f} def /m26{mt s} def
/m23 {mp x y w2 sub m w2 w d w neg 0 d cl f} def
/m27 {mp x y w2 add m w3 neg w2 neg d w3 w2 neg d w3 w2 d cl s} def
/m28 {mp x w2 sub y w2 sub w3 add m w3 0 d  0 w3 neg d w3 0 d 0 w3 d w3 0 d  0 w3 d w3 neg 0 d 0 w3 d w3 neg 0 d 0 w3 neg d w3 neg 0 d cl s } def
/m29 {mp gsave x w2 sub y w2 add w3 sub m currentpoint t 4 {side} repeat cl fill gr} def
/m30 {mp gsave x w2 sub y w2 add w3 sub m currentpoint t 4 {side} repeat cl s gr} def
/m31 {mp x y w2 sub m 0 w d x w2 sub y m w 0 d x w2 sub y w2 add m w w neg d x w2 sub y w2 sub m w w d s} def
/m32 {mp x y w2 sub m w2 w d w neg 0 d cl s} def
/m33 {mp x y w2 add m w3 neg w2 neg d w3 w2 neg d w3 w2 d cl f} def
/m34 {mp x w2 sub y w2 sub w3 add m w3 0 d  0 w3 neg d w3 0 d 0 w3 d w3 0 d  0 w3 d w3 neg 0 d 0 w3 d w3 neg 0 d 0 w3 neg d w3 neg 0 d cl f } def
/m2 {mp x y w2 sub m 0 w d x w2 sub y m w 0 d s} def
/m5 {mp x w2 sub y w2 sub m w w d x w2 sub y w2 add m w w neg d s} def
/reEncode {exch findfont dup length dict begin {1 index /FID eq  {pop pop} {def} ifelse } forall /Encoding exch def currentdict end dup /FontName get exch definefont pop } def [/Times-Bold /Times-Italic /Times-BoldItalic /Helvetica /Helvetica-Oblique
 /Helvetica-Bold /Helvetica-BoldOblique /Courier /Courier-Oblique /Courier-Bold /Courier-BoldOblique /Times-Roman /AvantGarde-Book /AvantGarde-BookOblique /AvantGarde-Demi /AvantGarde-DemiOblique /Bookman-Demi /Bookman-DemiItalic /Bookman-Light
 /Bookman-LightItalic /Helvetica-Narrow /Helvetica-Narrow-Bold /Helvetica-Narrow-BoldOblique /Helvetica-Narrow-Oblique /NewCenturySchlbk-Roman /NewCenturySchlbk-Bold /NewCenturySchlbk-BoldItalic /NewCenturySchlbk-Italic /Palatino-Bold
 /Palatino-BoldItalic /Palatino-Italic /Palatino-Roman ] {ISOLatin1Encoding reEncode } forall
%%EndProlog
%%BeginSetup
%%EndSetup
newpath  gsave  .25 .25 scale  gsave  0 0 t black[  ] 0 sd 3 lw 1 1 1 c 2268 2180 0 0 bf black 1 1 1 c 2268 1526 0 654 bf black 1 1 1 c 1814 1420 295 654 bf black 1814 1420 295 654 bl 1 0 0 c[  12 12 ] 0 sd 6 lw 1 1 1 c 1 0 0 c 295 682 m 34 X s 352
 682 m 34 X s 295 675 m 15 Y s 386 675 m 15 Y s[  ] 0 sd 3 lw /w 24 def /w2 {w 2 div} def /w3 {w 3 div} def 340 682 m20[  12 12 ] 0 sd 6 lw 431 685 m 2 Y s 431 710 m 2 Y s 386 699 m 33 X s 442 699 m 34 X s 423 685 m 15 X s 423 712 m 15 X s 386 691 m
 15 Y s 476 691 m 15 Y s[  ] 0 sd 3 lw 431 699 m20[  12 12 ] 0 sd 6 lw 476 700 m 34 X s 533 700 m 34 X s 476 693 m 15 Y s 567 693 m 15 Y s[  ] 0 sd 3 lw 522 700 m20[  12 12 ] 0 sd 6 lw 612 716 m 1 Y s 612 739 m 1 Y s 567 728 m 34 X s 624 728 m 34 X s
 605 716 m 15 X s 605 740 m 15 X s 567 721 m 15 Y s 658 721 m 15 Y s[  ] 0 sd 3 lw 612 728 m20[  12 12 ] 0 sd 6 lw 658 720 m 34 X s 714 720 m 34 X s 658 713 m 15 Y s 748 713 m 15 Y s[  ] 0 sd 3 lw 703 720 m20[  12 12 ] 0 sd 6 lw 794 719 m 1 Y s 794
 742 m 1 Y s 748 731 m 34 X s 805 731 m 34 X s 786 719 m 15 X s 786 743 m 15 X s 748 723 m 16 Y s 839 723 m 16 Y s[  ] 0 sd 3 lw 794 731 m20[  12 12 ] 0 sd 6 lw 884 727 m 3 Y s 884 753 m 3 Y s 839 741 m 34 X s 896 741 m 34 X s 877 727 m 15 X s 877
 756 m 15 X s 839 734 m 15 Y s 930 734 m 15 Y s[  ] 0 sd 3 lw 884 741 m20[  12 12 ] 0 sd 6 lw 975 737 m 5 Y s 975 765 m 5 Y s 930 753 m 34 X s 986 753 m 34 X s 968 737 m 15 X s 968 770 m 15 X s 930 746 m 15 Y s 1020 746 m 15 Y s[  ] 0 sd 3 lw 975 753
 m20[  12 12 ] 0 sd 6 lw 1066 753 m 7 Y s 1066 782 m 7 Y s 1020 771 m 34 X s 1077 771 m 34 X s 1058 753 m 15 X s 1058 789 m 15 X s 1020 763 m 16 Y s 1111 763 m 16 Y s[  ] 0 sd 3 lw 1066 771 m20[  12 12 ] 0 sd 6 lw 1157 749 m 6 Y s 1157 777 m 6 Y s
 1111 766 m 34 X s 1168 766 m 34 X s 1149 749 m 15 X s 1149 783 m 15 X s 1111 759 m 15 Y s 1202 759 m 15 Y s[  ] 0 sd 3 lw 1157 766 m20[  12 12 ] 0 sd 6 lw 1247 799 m 8 Y s 1247 829 m 8 Y s 1202 818 m 34 X s 1259 818 m 34 X s 1240 799 m 15 X s 1240
 837 m 15 X s 1202 810 m 16 Y s 1293 810 m 16 Y s[  ] 0 sd 3 lw 1247 818 m20[  12 12 ] 0 sd 6 lw 1338 810 m 7 Y s 1338 840 m 7 Y s 1293 828 m 34 X s 1349 828 m 34 X s 1330 810 m 16 X s 1330 847 m 16 X s 1293 821 m 15 Y s 1383 821 m 15 Y s[  ] 0 sd 3
 lw 1338 828 m20[  12 12 ] 0 sd 6 lw 1429 861 m 12 Y s 1429 896 m 12 Y s 1383 885 m 34 X s 1440 885 m 34 X s 1421 861 m 15 X s 1421 908 m 15 X s 1383 877 m 15 Y s 1474 877 m 15 Y s[  ] 0 sd 3 lw 1429 885 m20[  12 12 ] 0 sd 6 lw 1519 868 m 12 Y s 1519
 903 m 12 Y s 1474 891 m 34 X s 1531 891 m 34 X s 1512 868 m 15 X s 1512 915 m 15 X s 1474 884 m 15 Y s 1565 884 m 15 Y s[  ] 0 sd 3 lw 1519 891 m20[  12 12 ] 0 sd 6 lw 1610 938 m 15 Y s 1610 976 m 15 Y s 1565 964 m 34 X s 1621 964 m 34 X s 1602 938
 m 16 X s 1602 991 m 16 X s 1565 957 m 15 Y s 1655 957 m 15 Y s[  ] 0 sd 3 lw 1610 964 m20[  12 12 ] 0 sd 6 lw 1701 1079 m 21 Y s 1701 1122 m 21 Y s 1655 1111 m 34 X s 1712 1111 m 34 X s 1693 1079 m 15 X s 1693 1143 m 15 X s 1655 1103 m 16 Y s 1746
 1103 m 16 Y s[  ] 0 sd 3 lw 1701 1111 m20[  12 12 ] 0 sd 6 lw 1791 1237 m 24 Y s 1791 1283 m 24 Y s 1746 1272 m 34 X s 1803 1272 m 34 X s 1784 1237 m 15 X s 1784 1307 m 15 X s 1746 1265 m 15 Y s 1837 1265 m 15 Y s[  ] 0 sd 3 lw 1791 1272 m20[  12 12
 ] 0 sd 6 lw 1882 1385 m 30 Y s 1882 1437 m 30 Y s 1837 1426 m 34 X s 1894 1426 m 34 X s 1875 1385 m 15 X s 1875 1467 m 15 X s 1837 1418 m 16 Y s 1928 1418 m 16 Y s[  ] 0 sd 3 lw 1882 1426 m20[  12 12 ] 0 sd 6 lw 1973 1747 m 40 Y s 1973 1810 m 40 Y s
 1928 1798 m 34 X s 1984 1798 m 34 X s 1965 1747 m 15 X s 1965 1850 m 15 X s 1928 1791 m 15 Y s 2018 1791 m 15 Y s[  ] 0 sd 3 lw 1973 1798 m20[  12 12 ] 0 sd 6 lw 2064 1407 m 32 Y s 2064 1462 m 32 Y s 2018 1450 m 34 X s 2075 1450 m 34 X s 2056 1407 m
 15 X s 2056 1494 m 15 X s 2018 1443 m 15 Y s 2109 1443 m 15 Y s[  ] 0 sd 3 lw 2064 1450 m20[  12 12 ] 0 sd 6 lw black[  ] 0 sd 3 lw 295 654 m 1814 X s 295 691 m -37 Y s 340 672 m -18 Y s 386 672 m -18 Y s 431 672 m -18 Y s 476 691 m -37 Y s 522 672
 m -18 Y s 567 672 m -18 Y s 612 672 m -18 Y s 658 691 m -37 Y s 703 672 m -18 Y s 748 672 m -18 Y s 794 672 m -18 Y s 839 691 m -37 Y s 884 672 m -18 Y s 930 672 m -18 Y s 975 672 m -18 Y s 1020 691 m -37 Y s 1066 672 m -18 Y s 1111 672 m -18 Y s
 1157 672 m -18 Y s 1202 691 m -37 Y s 1247 672 m -18 Y s 1293 672 m -18 Y s 1338 672 m -18 Y s 1383 691 m -37 Y s 1429 672 m -18 Y s 1474 672 m -18 Y s 1519 672 m -18 Y s 1565 691 m -37 Y s 1610 672 m -18 Y s 1655 672 m -18 Y s 1701 672 m -18 Y s
 1746 691 m -37 Y s 1791 672 m -18 Y s 1837 672 m -18 Y s 1882 672 m -18 Y s 1928 691 m -37 Y s 1973 672 m -18 Y s 2018 672 m -18 Y s 2064 672 m -18 Y s 2109 691 m -37 Y s 295 691 m -37 Y s 1 1 1 c black 1 1 1 c
 gsave  2268 1526 0 654 C 295.789 587.786 t 0 r /Helvetica findfont 72.1408 sf 0 0 m (1) show NC gr  black 1 1 1 c
 gsave  2268 1526 0 654 C 257.867 587.786 t 0 r /Symbol findfont 72.1408 sf 0 0 m (-) show NC gr  black 1 1 1 c
 gsave  2268 1526 0 654 C 443.684 587.786 t 0 r /Helvetica findfont 72.1408 sf 0 0 m (0.8) show NC gr  black 1 1 1 c
 gsave  2268 1526 0 654 C 401.97 587.786 t 0 r /Symbol findfont 72.1408 sf 0 0 m (-) show NC gr  black 1 1 1 c
 gsave  2268 1526 0 654 C 625.708 587.786 t 0 r /Helvetica findfont 72.1408 sf 0 0 m (0.6) show NC gr  black 1 1 1 c
 gsave  2268 1526 0 654 C 583.994 587.786 t 0 r /Symbol findfont 72.1408 sf 0 0 m (-) show NC gr  black 1 1 1 c
 gsave  2268 1526 0 654 C 807.732 587.786 t 0 r /Helvetica findfont 72.1408 sf 0 0 m (0.4) show NC gr  black 1 1 1 c
 gsave  2268 1526 0 654 C 766.018 587.786 t 0 r /Symbol findfont 72.1408 sf 0 0 m (-) show NC gr  black 1 1 1 c
 gsave  2268 1526 0 654 C 989.756 587.786 t 0 r /Helvetica findfont 72.1408 sf 0 0 m (0.2) show NC gr  black 1 1 1 c
 gsave  2268 1526 0 654 C 948.042 587.786 t 0 r /Symbol findfont 72.1408 sf 0 0 m (-) show NC gr  black 1 1 1 c
 gsave  2268 1526 0 654 C 1179.36 587.786 t 0 r /Helvetica findfont 72.1408 sf 0 0 m (0) show NC gr  black 1 1 1 c
 gsave  2268 1526 0 654 C 1331.05 587.786 t 0 r /Helvetica findfont 72.1408 sf 0 0 m (0.2) show NC gr  black 1 1 1 c
 gsave  2268 1526 0 654 C 1513.08 587.786 t 0 r /Helvetica findfont 72.1408 sf 0 0 m (0.4) show NC gr  black 1 1 1 c
 gsave  2268 1526 0 654 C 1695.1 587.786 t 0 r /Helvetica findfont 72.1408 sf 0 0 m (0.6) show NC gr  black 1 1 1 c
 gsave  2268 1526 0 654 C 1877.12 587.786 t 0 r /Helvetica findfont 72.1408 sf 0 0 m (0.8) show NC gr  black 1 1 1 c
 gsave  2268 1526 0 654 C 2093.28 587.786 t 0 r /Helvetica findfont 72.1408 sf 0 0 m (1) show NC gr  black 295 2074 m 1814 X s 295 2037 m 37 Y s 340 2055 m 19 Y s 386 2055 m 19 Y s 431 2055 m 19 Y s 476 2037 m 37 Y s 522 2055 m 19 Y s 567 2055 m 19 Y
 s 612 2055 m 19 Y s 658 2037 m 37 Y s 703 2055 m 19 Y s 748 2055 m 19 Y s 794 2055 m 19 Y s 839 2037 m 37 Y s 884 2055 m 19 Y s 930 2055 m 19 Y s 975 2055 m 19 Y s 1020 2037 m 37 Y s 1066 2055 m 19 Y s 1111 2055 m 19 Y s 1157 2055 m 19 Y s 1202 2037
 m 37 Y s 1247 2055 m 19 Y s 1293 2055 m 19 Y s 1338 2055 m 19 Y s 1383 2037 m 37 Y s 1429 2055 m 19 Y s 1474 2055 m 19 Y s 1519 2055 m 19 Y s 1565 2037 m 37 Y s 1610 2055 m 19 Y s 1655 2055 m 19 Y s 1701 2055 m 19 Y s 1746 2037 m 37 Y s 1791 2055 m
 19 Y s 1837 2055 m 19 Y s 1882 2055 m 19 Y s 1928 2037 m 37 Y s 1973 2055 m 19 Y s 2018 2055 m 19 Y s 2064 2055 m 19 Y s 2109 2037 m 37 Y s 295 2037 m 37 Y s 295 654 m 1420 Y s 358 654 m -63 X s 326 705 m -31 X s 326 755 m -31 X s 326 806 m -31 X s
 326 857 m -31 X s 358 908 m -63 X s 326 958 m -31 X s 326 1009 m -31 X s 326 1060 m -31 X s 326 1110 m -31 X s 358 1161 m -63 X s 326 1212 m -31 X s 326 1262 m -31 X s 326 1313 m -31 X s 326 1364 m -31 X s 358 1414 m -63 X s 326 1465 m -31 X s 326
 1516 m -31 X s 326 1566 m -31 X s 326 1617 m -31 X s 358 1668 m -63 X s 326 1718 m -31 X s 326 1769 m -31 X s 326 1820 m -31 X s 326 1870 m -31 X s 358 1921 m -63 X s 358 1921 m -63 X s 326 1972 m -31 X s 326 2022 m -31 X s 326 2073 m -31 X s
 gsave  2268 1526 0 654 C 242.699 629.5 t 0 r /Helvetica findfont 72.1408 sf 0 0 m (0) show NC gr 
 gsave  2268 1526 0 654 C 242.699 883.575 t 0 r /Helvetica findfont 72.1408 sf 0 0 m (5) show NC gr 
 gsave  2268 1526 0 654 C 200.985 1137.65 t 0 r /Helvetica findfont 72.1408 sf 0 0 m (10) show NC gr 
 gsave  2268 1526 0 654 C 200.985 1387.93 t 0 r /Helvetica findfont 72.1408 sf 0 0 m (15) show NC gr 
 gsave  2268 1526 0 654 C 200.985 1642.01 t 0 r /Helvetica findfont 72.1408 sf 0 0 m (20) show NC gr 
 gsave  2268 1526 0 654 C 200.985 1896.08 t 0 r /Helvetica findfont 72.1408 sf 0 0 m (25) show NC gr  2109 654 m 1420 Y s 2046 654 m 63 X s 2077 705 m 32 X s 2077 755 m 32 X s 2077 806 m 32 X s 2077 857 m 32 X s 2046 908 m 63 X s 2077 958 m 32 X s
 2077 1009 m 32 X s 2077 1060 m 32 X s 2077 1110 m 32 X s 2046 1161 m 63 X s 2077 1212 m 32 X s 2077 1262 m 32 X s 2077 1313 m 32 X s 2077 1364 m 32 X s 2046 1414 m 63 X s 2077 1465 m 32 X s 2077 1516 m 32 X s 2077 1566 m 32 X s 2077 1617 m 32 X s
 2046 1668 m 63 X s 2077 1718 m 32 X s 2077 1769 m 32 X s 2077 1820 m 32 X s 2077 1870 m 32 X s 2046 1921 m 63 X s 2046 1921 m 63 X s 2077 1972 m 32 X s 2077 2022 m 32 X s 2077 2073 m 32 X s 0 0 1 c 6 lw 1 1 1 c 0 0 1 c 295 670 m 34 X s 352 670 m 34
 X s 295 662 m 15 Y s 386 662 m 15 Y s 3 lw 340 670 m20 6 lw 386 689 m 33 X s 442 689 m 34 X s 386 681 m 16 Y s 476 681 m 16 Y s 3 lw 431 689 m20 6 lw 476 703 m 34 X s 533 703 m 34 X s 476 695 m 15 Y s 567 695 m 15 Y s 3 lw 522 703 m20 6 lw 567 699 m
 34 X s 624 699 m 34 X s 567 692 m 15 Y s 658 692 m 15 Y s 3 lw 612 699 m20 6 lw 703 708 m 2 Y s 703 732 m 2 Y s 658 721 m 34 X s 714 721 m 34 X s 695 708 m 16 X s 695 734 m 16 X s 658 713 m 16 Y s 748 713 m 16 Y s 3 lw 703 721 m20 6 lw 748 717 m 34
 X s 805 717 m 34 X s 748 709 m 15 Y s 839 709 m 15 Y s 3 lw 794 717 m20 6 lw 884 718 m 1 Y s 884 742 m 1 Y s 839 731 m 34 X s 896 731 m 34 X s 877 718 m 15 X s 877 743 m 15 X s 839 723 m 15 Y s 930 723 m 15 Y s 3 lw 884 731 m20 6 lw 975 727 m 3 Y s
 975 753 m 3 Y s 930 741 m 34 X s 986 741 m 34 X s 968 727 m 15 X s 968 756 m 15 X s 930 734 m 15 Y s 1020 734 m 15 Y s 3 lw 975 741 m20 6 lw 1066 753 m 8 Y s 1066 784 m 9 Y s 1020 773 m 34 X s 1077 773 m 34 X s 1058 753 m 15 X s 1058 793 m 15 X s
 1020 765 m 15 Y s 1111 765 m 15 Y s 3 lw 1066 773 m20 6 lw 1157 757 m 4 Y s 1157 784 m 4 Y s 1111 773 m 34 X s 1168 773 m 34 X s 1149 757 m 15 X s 1149 788 m 15 X s 1111 765 m 15 Y s 1202 765 m 15 Y s 3 lw 1157 773 m20 6 lw 1247 789 m 8 Y s 1247 819
 m 8 Y s 1202 808 m 34 X s 1259 808 m 34 X s 1240 789 m 15 X s 1240 827 m 15 X s 1202 800 m 16 Y s 1293 800 m 16 Y s 3 lw 1247 808 m20 6 lw 1338 822 m 8 Y s 1338 853 m 8 Y s 1293 841 m 34 X s 1349 841 m 34 X s 1330 822 m 16 X s 1330 861 m 16 X s 1293
 834 m 15 Y s 1383 834 m 15 Y s 3 lw 1338 841 m20 6 lw 1429 833 m 10 Y s 1429 866 m 11 Y s 1383 855 m 34 X s 1440 855 m 34 X s 1421 833 m 15 X s 1421 877 m 15 X s 1383 847 m 15 Y s 1474 847 m 15 Y s 3 lw 1429 855 m20 6 lw 1519 906 m 16 Y s 1519 945 m
 16 Y s 1474 934 m 34 X s 1531 934 m 34 X s 1512 906 m 15 X s 1512 961 m 15 X s 1474 926 m 15 Y s 1565 926 m 15 Y s 3 lw 1519 934 m20 6 lw 1610 916 m 15 Y s 1610 953 m 15 Y s 1565 942 m 34 X s 1621 942 m 34 X s 1602 916 m 16 X s 1602 968 m 16 X s
 1565 934 m 16 Y s 1655 934 m 16 Y s 3 lw 1610 942 m20 6 lw 1701 1086 m 18 Y s 1701 1127 m 18 Y s 1655 1115 m 34 X s 1712 1115 m 34 X s 1693 1086 m 15 X s 1693 1145 m 15 X s 1655 1108 m 15 Y s 1746 1108 m 15 Y s 3 lw 1701 1115 m20 6 lw 1791 1238 m 23
 Y s 1791 1284 m 24 Y s 1746 1273 m 34 X s 1803 1273 m 34 X s 1784 1238 m 15 X s 1784 1308 m 15 X s 1746 1265 m 15 Y s 1837 1265 m 15 Y s 3 lw 1791 1273 m20 6 lw 1882 1417 m 30 Y s 1882 1470 m 30 Y s 1837 1459 m 34 X s 1894 1459 m 34 X s 1875 1417 m
 15 X s 1875 1500 m 15 X s 1837 1451 m 15 Y s 1928 1451 m 15 Y s 3 lw 1882 1459 m20 6 lw 1973 1787 m 39 Y s 1973 1848 m 40 Y s 1928 1837 m 34 X s 1984 1837 m 34 X s 1965 1787 m 15 X s 1965 1888 m 15 X s 1928 1829 m 16 Y s 2018 1829 m 16 Y s 3 lw 1973
 1837 m20 6 lw 2064 1412 m 35 Y s 2064 1470 m 34 Y s 2018 1458 m 34 X s 2075 1458 m 34 X s 2056 1412 m 15 X s 2056 1504 m 15 X s 2018 1451 m 15 Y s 2109 1451 m 15 Y s 3 lw 2064 1458 m20 6 lw black
 gsave  2268 1526 0 654 C 838.069 1956.76 t 0 r /Helvetica-Bold findfont 53.1564 sf 0 0 m (Testing Signal) show NC gr  1 0 0 c[  12 12 ] 0 sd 415 1971 m 349 X s black
 gsave  2268 1526 0 654 C 838.069 1842.99 t 0 r /Helvetica-Bold findfont 53.1564 sf 0 0 m (Training Signal) show NC gr  0 0 1 c[  ] 0 sd 415 1856 m 349 X s black
 gsave  2268 1526 0 654 C 451.268 1725.44 t 0 r /Helvetica findfont 56.9533 sf 0 0 m (Kol = 0.793580) show NC gr  3 lw 1 1 1 c black 1 1 1 c 1814 425 295 229 bf black 1814 425 295 229 bl 295 229 m 1814 X s[ 4 8] 0 sd 295 654 m -425 Y s 476 654 m -425
 Y s 658 654 m -425 Y s 839 654 m -425 Y s 1020 654 m -425 Y s 1202 654 m -425 Y s 1383 654 m -425 Y s 1565 654 m -425 Y s 1746 654 m -425 Y s 1928 654 m -425 Y s 2109 654 m -425 Y s 295 654 m -425 Y s[  ] 0 sd 295 654 m 1814 X s 295 229 m 425 Y s[ 4
 8] 0 sd 2109 229 m -1814 X s 2109 335 m -1814 X s 2109 442 m -1814 X s 2109 548 m -1814 X s 2109 654 m -1814 X s[  ] 0 sd 2109 229 m 425 Y s 6 lw 1 1 1 c black 340 367 m 236 Y s 340 626 m 28 Y s 295 615 m 34 X s 352 615 m 34 X s 3 lw 340 615 m20 6
 lw 431 390 m 99 Y s 431 512 m 98 Y s 386 500 m 33 X s 442 500 m 34 X s 3 lw 431 500 m20 6 lw 522 368 m 51 Y s 522 442 m 51 Y s 476 430 m 34 X s 533 430 m 34 X s 3 lw 522 430 m20 6 lw 612 474 m 91 Y s 612 588 m 66 Y s 567 576 m 34 X s 624 576 m 34 X
 s 3 lw 612 576 m20 6 lw 703 386 m 42 Y s 703 451 m 41 Y s 658 439 m 34 X s 714 439 m 34 X s 3 lw 703 439 m20 6 lw 794 429 m 50 Y s 794 502 m 50 Y s 748 491 m 34 X s 805 491 m 34 X s 3 lw 794 491 m20 6 lw 884 416 m 44 Y s 884 483 m 44 Y s 839 471 m
 34 X s 896 471 m 34 X s 3 lw 884 471 m20 6 lw 975 414 m 45 Y s 975 482 m 46 Y s 930 471 m 34 X s 986 471 m 34 X s 3 lw 975 471 m20 6 lw 1066 390 m 37 Y s 1066 450 m 37 Y s 1020 439 m 34 X s 1077 439 m 34 X s 3 lw 1066 439 m20 6 lw 1157 389 m 30 Y s
 1157 441 m 30 Y s 1111 430 m 34 X s 1168 430 m 34 X s 3 lw 1157 430 m20 6 lw 1247 417 m 27 Y s 1247 467 m 27 Y s 1202 455 m 34 X s 1259 455 m 34 X s 3 lw 1247 455 m20 6 lw 1338 397 m 18 Y s 1338 438 m 19 Y s 1293 427 m 34 X s 1349 427 m 34 X s 3 lw
 1338 427 m20 6 lw 1429 437 m 25 Y s 1429 485 m 25 Y s 1383 474 m 34 X s 1440 474 m 34 X s 3 lw 1429 474 m20 6 lw 1519 384 m 14 Y s 1519 421 m 14 Y s 1474 410 m 34 X s 1531 410 m 34 X s 3 lw 1519 410 m20 6 lw 1610 430 m 17 Y s 1610 469 m 17 Y s 1565
 458 m 34 X s 1621 458 m 34 X s 3 lw 1610 458 m20 6 lw 1701 419 m 9 Y s 1701 451 m 8 Y s 1655 439 m 34 X s 1712 439 m 34 X s 3 lw 1701 439 m20 6 lw 1791 424 m 6 Y s 1791 453 m 5 Y s 1746 441 m 34 X s 1803 441 m 34 X s 3 lw 1791 441 m20 6 lw 1882 418
 m 4 Y s 1882 444 m 4 Y s 1837 433 m 34 X s 1894 433 m 34 X s 3 lw 1882 433 m20 6 lw 1973 422 m 1 Y s 1973 446 m 1 Y s 1928 435 m 34 X s 1984 435 m 34 X s 3 lw 1973 435 m20 6 lw 2064 423 m 5 Y s 2064 451 m 5 Y s 2018 439 m 34 X s 2075 439 m 34 X s 3
 lw 2064 439 m20 6 lw 3 lw 295 229 m 1814 X s
 gsave  2268 654 0 0 C 1664.76 56.8825 t 0 r /Helvetica findfont 91.2766 sf 0 0 m (BDT Score) show NC gr  295 245 m -16 Y s 340 237 m -8 Y s 386 237 m -8 Y s 431 237 m -8 Y s 476 245 m -16 Y s 522 237 m -8 Y s 567 237 m -8 Y s 612 237 m -8 Y s 658
 245 m -16 Y s 703 237 m -8 Y s 748 237 m -8 Y s 794 237 m -8 Y s 839 245 m -16 Y s 884 237 m -8 Y s 930 237 m -8 Y s 975 237 m -8 Y s 1020 245 m -16 Y s 1066 237 m -8 Y s 1111 237 m -8 Y s 1157 237 m -8 Y s 1202 245 m -16 Y s 1247 237 m -8 Y s 1293
 237 m -8 Y s 1338 237 m -8 Y s 1383 245 m -16 Y s 1429 237 m -8 Y s 1474 237 m -8 Y s 1519 237 m -8 Y s 1565 245 m -16 Y s 1610 237 m -8 Y s 1655 237 m -8 Y s 1701 237 m -8 Y s 1746 245 m -16 Y s 1791 237 m -8 Y s 1837 237 m -8 Y s 1882 237 m -8 Y s
 1928 245 m -16 Y s 1973 237 m -8 Y s 2018 237 m -8 Y s 2064 237 m -8 Y s 2109 245 m -16 Y s 295 245 m -16 Y s
 gsave  2268 654 0 0 C 295.789 163.063 t 0 r /Helvetica findfont 72.2607 sf 0 0 m (1) show NC gr 
 gsave  2268 654 0 0 C 257.867 163.063 t 0 r /Symbol findfont 72.2607 sf 0 0 m (-) show NC gr 
 gsave  2268 654 0 0 C 443.684 163.063 t 0 r /Helvetica findfont 72.2607 sf 0 0 m (0.8) show NC gr 
 gsave  2268 654 0 0 C 401.97 163.063 t 0 r /Symbol findfont 72.2607 sf 0 0 m (-) show NC gr 
 gsave  2268 654 0 0 C 625.708 163.063 t 0 r /Helvetica findfont 72.2607 sf 0 0 m (0.6) show NC gr 
 gsave  2268 654 0 0 C 583.994 163.063 t 0 r /Symbol findfont 72.2607 sf 0 0 m (-) show NC gr 
 gsave  2268 654 0 0 C 807.732 163.063 t 0 r /Helvetica findfont 72.2607 sf 0 0 m (0.4) show NC gr 
 gsave  2268 654 0 0 C 766.018 163.063 t 0 r /Symbol findfont 72.2607 sf 0 0 m (-) show NC gr 
 gsave  2268 654 0 0 C 989.756 163.063 t 0 r /Helvetica findfont 72.2607 sf 0 0 m (0.2) show NC gr 
 gsave  2268 654 0 0 C 948.042 163.063 t 0 r /Symbol findfont 72.2607 sf 0 0 m (-) show NC gr 
 gsave  2268 654 0 0 C 1179.36 163.063 t 0 r /Helvetica findfont 72.2607 sf 0 0 m (0) show NC gr 
 gsave  2268 654 0 0 C 1331.05 163.063 t 0 r /Helvetica findfont 72.2607 sf 0 0 m (0.2) show NC gr 
 gsave  2268 654 0 0 C 1513.08 163.063 t 0 r /Helvetica findfont 72.2607 sf 0 0 m (0.4) show NC gr 
 gsave  2268 654 0 0 C 1695.1 163.063 t 0 r /Helvetica findfont 72.2607 sf 0 0 m (0.6) show NC gr 
 gsave  2268 654 0 0 C 1877.12 163.063 t 0 r /Helvetica findfont 72.2607 sf 0 0 m (0.8) show NC gr 
 gsave  2268 654 0 0 C 2093.28 163.063 t 0 r /Helvetica findfont 72.2607 sf 0 0 m (1) show NC gr  295 654 m 1814 X s 295 638 m 16 Y s 340 646 m 8 Y s 386 646 m 8 Y s 431 646 m 8 Y s 476 638 m 16 Y s 522 646 m 8 Y s 567 646 m 8 Y s 612 646 m 8 Y s 658
 638 m 16 Y s 703 646 m 8 Y s 748 646 m 8 Y s 794 646 m 8 Y s 839 638 m 16 Y s 884 646 m 8 Y s 930 646 m 8 Y s 975 646 m 8 Y s 1020 638 m 16 Y s 1066 646 m 8 Y s 1111 646 m 8 Y s 1157 646 m 8 Y s 1202 638 m 16 Y s 1247 646 m 8 Y s 1293 646 m 8 Y s
 1338 646 m 8 Y s 1383 638 m 16 Y s 1429 646 m 8 Y s 1474 646 m 8 Y s 1519 646 m 8 Y s 1565 638 m 16 Y s 1610 646 m 8 Y s 1655 646 m 8 Y s 1701 646 m 8 Y s 1746 638 m 16 Y s 1791 646 m 8 Y s 1837 646 m 8 Y s 1882 646 m 8 Y s 1928 638 m 16 Y s 1973
 646 m 8 Y s 2018 646 m 8 Y s 2064 646 m 8 Y s 2109 638 m 16 Y s 295 638 m 16 Y s 295 229 m 425 Y s
 gsave  2268 654 0 0 C 151.687 246.491 t 90 r /Helvetica findfont 68.4575 sf 0 0 m (Test/Training) show NC gr  339 229 m -44 X s 317 250 m -22 X s 317 271 m -22 X s 317 293 m -22 X s 317 314 m -22 X s 339 335 m -44 X s 317 357 m -22 X s 317 378 m -22
 X s 317 399 m -22 X s 317 420 m -22 X s 339 442 m -44 X s 317 463 m -22 X s 317 484 m -22 X s 317 505 m -22 X s 317 527 m -22 X s 339 548 m -44 X s 317 569 m -22 X s 317 590 m -22 X s 317 612 m -22 X s 317 633 m -22 X s 339 654 m -44 X s
 gsave  2268 654 0 0 C 242.699 204.777 t 0 r /Helvetica findfont 72.2607 sf 0 0 m (0) show NC gr 
 gsave  2268 654 0 0 C 182.024 310.958 t 0 r /Helvetica findfont 72.2607 sf 0 0 m (0.5) show NC gr 
 gsave  2268 654 0 0 C 254.075 413.346 t 0 r /Helvetica findfont 72.2607 sf 0 0 m (1) show NC gr 
 gsave  2268 654 0 0 C 182.024 523.319 t 0 r /Helvetica findfont 72.2607 sf 0 0 m (1.5) show NC gr 
 gsave  2268 654 0 0 C 242.699 625.708 t 0 r /Helvetica findfont 72.2607 sf 0 0 m (2) show NC gr  2109 229 m 425 Y s 2065 229 m 44 X s 2087 250 m 22 X s 2087 271 m 22 X s 2087 293 m 22 X s 2087 314 m 22 X s 2065 335 m 44 X s 2087 357 m 22 X s 2087
 378 m 22 X s 2087 399 m 22 X s 2087 420 m 22 X s 2065 442 m 44 X s 2087 463 m 22 X s 2087 484 m 22 X s 2087 505 m 22 X s 2087 527 m 22 X s 2065 548 m 44 X s 2087 569 m 22 X s 2087 590 m 22 X s 2087 612 m 22 X s 2087 633 m 22 X s 2065 654 m 44 X s 1
 0 0 c 295 442 m 1814 X s
 gr  gr showpage
end
%%EOF
