%!PS-Adobe-2.0 EPSF-2.0
%%BoundingBox:  0 0 567 545
%%Title: lh_4j_bdt_bkg.eps: c2
%%Creator: ROOT Version 5.34/32
%%CreationDate: Sat Nov 25 20:24:22 2017
%%EndComments
%%BeginProlog
80 dict begin
/s {stroke} def /l {lineto} def /m {moveto} def /t {translate} def
/r {rotate} def /rl {roll}  def /R {repeat} def
/d {rlineto} def /rm {rmoveto} def /gr {grestore} def /f {eofill} def
/c {setrgbcolor} def /black {0 setgray} def /sd {setdash} def
/cl {closepath} def /sf {scalefont setfont} def /lw {setlinewidth} def
/box {m dup 0 exch d exch 0 d 0 exch neg d cl} def
/NC{systemdict begin initclip end}def/C{NC box clip newpath}def
/bl {box s} def /bf {gsave box gsave f grestore 1 lw [] 0 sd s grestore} def /Y { 0 exch d} def /X { 0 d} def 
/K {{pop pop 0 moveto} exch kshow} bind def
/ita {/ang 15 def gsave [1 0 ang dup sin exch cos div 1 0 0] concat} def 
/mp {newpath /y exch def /x exch def} def
/side {[w .77 mul w .23 mul] .385 w mul sd w 0 l currentpoint t -144 r} def
/mr {mp x y w2 0 360 arc} def /m24 {mr s} def /m20 {mr f} def
/mb {mp x y w2 add m w2 neg 0 d 0 w neg d w 0 d 0 w d cl} def
/mt {mp x y w2 add m w2 neg w neg d w 0 d cl} def
/m21 {mb f} def /m25 {mb s} def /m22 {mt f} def /m26{mt s} def
/m23 {mp x y w2 sub m w2 w d w neg 0 d cl f} def
/m27 {mp x y w2 add m w3 neg w2 neg d w3 w2 neg d w3 w2 d cl s} def
/m28 {mp x w2 sub y w2 sub w3 add m w3 0 d  0 w3 neg d w3 0 d 0 w3 d w3 0 d  0 w3 d w3 neg 0 d 0 w3 d w3 neg 0 d 0 w3 neg d w3 neg 0 d cl s } def
/m29 {mp gsave x w2 sub y w2 add w3 sub m currentpoint t 4 {side} repeat cl fill gr} def
/m30 {mp gsave x w2 sub y w2 add w3 sub m currentpoint t 4 {side} repeat cl s gr} def
/m31 {mp x y w2 sub m 0 w d x w2 sub y m w 0 d x w2 sub y w2 add m w w neg d x w2 sub y w2 sub m w w d s} def
/m32 {mp x y w2 sub m w2 w d w neg 0 d cl s} def
/m33 {mp x y w2 add m w3 neg w2 neg d w3 w2 neg d w3 w2 d cl f} def
/m34 {mp x w2 sub y w2 sub w3 add m w3 0 d  0 w3 neg d w3 0 d 0 w3 d w3 0 d  0 w3 d w3 neg 0 d 0 w3 d w3 neg 0 d 0 w3 neg d w3 neg 0 d cl f } def
/m2 {mp x y w2 sub m 0 w d x w2 sub y m w 0 d s} def
/m5 {mp x w2 sub y w2 sub m w w d x w2 sub y w2 add m w w neg d s} def
/reEncode {exch findfont dup length dict begin {1 index /FID eq  {pop pop} {def} ifelse } forall /Encoding exch def currentdict end dup /FontName get exch definefont pop } def [/Times-Bold /Times-Italic /Times-BoldItalic /Helvetica /Helvetica-Oblique
 /Helvetica-Bold /Helvetica-BoldOblique /Courier /Courier-Oblique /Courier-Bold /Courier-BoldOblique /Times-Roman /AvantGarde-Book /AvantGarde-BookOblique /AvantGarde-Demi /AvantGarde-DemiOblique /Bookman-Demi /Bookman-DemiItalic /Bookman-Light
 /Bookman-LightItalic /Helvetica-Narrow /Helvetica-Narrow-Bold /Helvetica-Narrow-BoldOblique /Helvetica-Narrow-Oblique /NewCenturySchlbk-Roman /NewCenturySchlbk-Bold /NewCenturySchlbk-BoldItalic /NewCenturySchlbk-Italic /Palatino-Bold
 /Palatino-BoldItalic /Palatino-Italic /Palatino-Roman ] {ISOLatin1Encoding reEncode } forall
%%EndProlog
%%BeginSetup
%%EndSetup
newpath  gsave  .25 .25 scale  gsave  0 0 t black[  ] 0 sd 3 lw 1 1 1 c 2268 2180 0 0 bf black 1 1 1 c 2268 1526 0 654 bf black 1 1 1 c 1814 1420 295 654 bf black 1814 1420 295 654 bl 1 0 0 c[  12 12 ] 0 sd 6 lw 1 1 1 c 1 0 0 c 340 1808 m 6 Y s 340
 1837 m 7 Y s 295 1826 m 34 X s 352 1826 m 34 X s 333 1808 m 15 X s 333 1844 m 15 X s 295 1818 m 15 Y s 386 1818 m 15 Y s[  ] 0 sd 3 lw /w 24 def /w2 {w 2 div} def /w3 {w 3 div} def 340 1826 m20[  12 12 ] 0 sd 6 lw 431 1084 m 1 Y s 431 1108 m s 386
 1096 m 33 X s 442 1096 m 34 X s 423 1084 m 15 X s 423 1108 m 15 X s 386 1089 m 15 Y s 476 1089 m 15 Y s[  ] 0 sd 3 lw 431 1096 m20[  12 12 ] 0 sd 6 lw 476 938 m 34 X s 533 938 m 34 X s 476 931 m 15 Y s 567 931 m 15 Y s[  ] 0 sd 3 lw 522 938 m20[  12
 12 ] 0 sd 6 lw 567 849 m 34 X s 624 849 m 34 X s 567 842 m 15 Y s 658 842 m 15 Y s[  ] 0 sd 3 lw 612 849 m20[  12 12 ] 0 sd 6 lw 658 811 m 34 X s 714 811 m 34 X s 658 803 m 16 Y s 748 803 m 16 Y s[  ] 0 sd 3 lw 703 811 m20[  12 12 ] 0 sd 6 lw 748
 787 m 34 X s 805 787 m 34 X s 748 779 m 16 Y s 839 779 m 16 Y s[  ] 0 sd 3 lw 794 787 m20[  12 12 ] 0 sd 6 lw 839 760 m 34 X s 896 760 m 34 X s 839 752 m 16 Y s 930 752 m 16 Y s[  ] 0 sd 3 lw 884 760 m20[  12 12 ] 0 sd 6 lw 930 763 m 34 X s 986 763
 m 34 X s 930 756 m 15 Y s 1020 756 m 15 Y s[  ] 0 sd 3 lw 975 763 m20[  12 12 ] 0 sd 6 lw 1020 741 m 34 X s 1077 741 m 34 X s 1020 733 m 15 Y s 1111 733 m 15 Y s[  ] 0 sd 3 lw 1066 741 m20[  12 12 ] 0 sd 6 lw 1111 733 m 34 X s 1168 733 m 34 X s 1111
 725 m 16 Y s 1202 725 m 16 Y s[  ] 0 sd 3 lw 1157 733 m20[  12 12 ] 0 sd 6 lw 1202 737 m 34 X s 1259 737 m 34 X s 1202 730 m 15 Y s 1293 730 m 15 Y s[  ] 0 sd 3 lw 1247 737 m20[  12 12 ] 0 sd 6 lw 1293 738 m 34 X s 1349 738 m 34 X s 1293 730 m 15 Y
 s 1383 730 m 15 Y s[  ] 0 sd 3 lw 1338 738 m20[  12 12 ] 0 sd 6 lw 1383 731 m 34 X s 1440 731 m 34 X s 1383 723 m 15 Y s 1474 723 m 15 Y s[  ] 0 sd 3 lw 1429 731 m20[  12 12 ] 0 sd 6 lw 1474 733 m 34 X s 1531 733 m 34 X s 1474 726 m 15 Y s 1565 726
 m 15 Y s[  ] 0 sd 3 lw 1519 733 m20[  12 12 ] 0 sd 6 lw 1565 733 m 34 X s 1621 733 m 34 X s 1565 725 m 16 Y s 1655 725 m 16 Y s[  ] 0 sd 3 lw 1610 733 m20[  12 12 ] 0 sd 6 lw 1655 730 m 34 X s 1712 730 m 34 X s 1655 723 m 15 Y s 1746 723 m 15 Y s[ 
 ] 0 sd 3 lw 1701 730 m20[  12 12 ] 0 sd 6 lw 1746 721 m 34 X s 1803 721 m 34 X s 1746 714 m 15 Y s 1837 714 m 15 Y s[  ] 0 sd 3 lw 1791 721 m20[  12 12 ] 0 sd 6 lw 1837 707 m 34 X s 1894 707 m 34 X s 1837 700 m 15 Y s 1928 700 m 15 Y s[  ] 0 sd 3 lw
 1882 707 m20[  12 12 ] 0 sd 6 lw 1928 693 m 34 X s 1984 693 m 34 X s 1928 685 m 15 Y s 2018 685 m 15 Y s[  ] 0 sd 3 lw 1973 693 m20[  12 12 ] 0 sd 6 lw 2018 661 m 34 X s 2075 661 m 34 X s 2018 654 m 15 Y s 2109 654 m 15 Y s[  ] 0 sd 3 lw 2064 661
 m20[  12 12 ] 0 sd 6 lw black[  ] 0 sd 3 lw 295 654 m 1814 X s
 gsave  2268 1526 0 654 C 1755.77 492.982 t 0 r /Helvetica findfont 72.1408 sf 0 0 m (BDT Score) show NC gr  295 691 m -37 Y s 340 672 m -18 Y s 386 672 m -18 Y s 431 672 m -18 Y s 476 691 m -37 Y s 522 672 m -18 Y s 567 672 m -18 Y s 612 672 m -18 Y
 s 658 691 m -37 Y s 703 672 m -18 Y s 748 672 m -18 Y s 794 672 m -18 Y s 839 691 m -37 Y s 884 672 m -18 Y s 930 672 m -18 Y s 975 672 m -18 Y s 1020 691 m -37 Y s 1066 672 m -18 Y s 1111 672 m -18 Y s 1157 672 m -18 Y s 1202 691 m -37 Y s 1247 672
 m -18 Y s 1293 672 m -18 Y s 1338 672 m -18 Y s 1383 691 m -37 Y s 1429 672 m -18 Y s 1474 672 m -18 Y s 1519 672 m -18 Y s 1565 691 m -37 Y s 1610 672 m -18 Y s 1655 672 m -18 Y s 1701 672 m -18 Y s 1746 691 m -37 Y s 1791 672 m -18 Y s 1837 672 m
 -18 Y s 1882 672 m -18 Y s 1928 691 m -37 Y s 1973 672 m -18 Y s 2018 672 m -18 Y s 2064 672 m -18 Y s 2109 691 m -37 Y s 295 691 m -37 Y s 1 1 1 c black 1 1 1 c
 gsave  2268 1526 0 654 C 295.789 587.786 t 0 r /Helvetica findfont 72.1408 sf 0 0 m (1) show NC gr  black 1 1 1 c
 gsave  2268 1526 0 654 C 257.867 587.786 t 0 r /Symbol findfont 72.1408 sf 0 0 m (-) show NC gr  black 1 1 1 c
 gsave  2268 1526 0 654 C 443.684 587.786 t 0 r /Helvetica findfont 72.1408 sf 0 0 m (0.8) show NC gr  black 1 1 1 c
 gsave  2268 1526 0 654 C 401.97 587.786 t 0 r /Symbol findfont 72.1408 sf 0 0 m (-) show NC gr  black 1 1 1 c
 gsave  2268 1526 0 654 C 625.708 587.786 t 0 r /Helvetica findfont 72.1408 sf 0 0 m (0.6) show NC gr  black 1 1 1 c
 gsave  2268 1526 0 654 C 583.994 587.786 t 0 r /Symbol findfont 72.1408 sf 0 0 m (-) show NC gr  black 1 1 1 c
 gsave  2268 1526 0 654 C 807.732 587.786 t 0 r /Helvetica findfont 72.1408 sf 0 0 m (0.4) show NC gr  black 1 1 1 c
 gsave  2268 1526 0 654 C 766.018 587.786 t 0 r /Symbol findfont 72.1408 sf 0 0 m (-) show NC gr  black 1 1 1 c
 gsave  2268 1526 0 654 C 989.756 587.786 t 0 r /Helvetica findfont 72.1408 sf 0 0 m (0.2) show NC gr  black 1 1 1 c
 gsave  2268 1526 0 654 C 948.042 587.786 t 0 r /Symbol findfont 72.1408 sf 0 0 m (-) show NC gr  black 1 1 1 c
 gsave  2268 1526 0 654 C 1179.36 587.786 t 0 r /Helvetica findfont 72.1408 sf 0 0 m (0) show NC gr  black 1 1 1 c
 gsave  2268 1526 0 654 C 1331.05 587.786 t 0 r /Helvetica findfont 72.1408 sf 0 0 m (0.2) show NC gr  black 1 1 1 c
 gsave  2268 1526 0 654 C 1513.08 587.786 t 0 r /Helvetica findfont 72.1408 sf 0 0 m (0.4) show NC gr  black 1 1 1 c
 gsave  2268 1526 0 654 C 1695.1 587.786 t 0 r /Helvetica findfont 72.1408 sf 0 0 m (0.6) show NC gr  black 1 1 1 c
 gsave  2268 1526 0 654 C 1877.12 587.786 t 0 r /Helvetica findfont 72.1408 sf 0 0 m (0.8) show NC gr  black 1 1 1 c
 gsave  2268 1526 0 654 C 2093.28 587.786 t 0 r /Helvetica findfont 72.1408 sf 0 0 m (1) show NC gr  black 295 2074 m 1814 X s 295 2037 m 37 Y s 340 2055 m 19 Y s 386 2055 m 19 Y s 431 2055 m 19 Y s 476 2037 m 37 Y s 522 2055 m 19 Y s 567 2055 m 19 Y
 s 612 2055 m 19 Y s 658 2037 m 37 Y s 703 2055 m 19 Y s 748 2055 m 19 Y s 794 2055 m 19 Y s 839 2037 m 37 Y s 884 2055 m 19 Y s 930 2055 m 19 Y s 975 2055 m 19 Y s 1020 2037 m 37 Y s 1066 2055 m 19 Y s 1111 2055 m 19 Y s 1157 2055 m 19 Y s 1202 2037
 m 37 Y s 1247 2055 m 19 Y s 1293 2055 m 19 Y s 1338 2055 m 19 Y s 1383 2037 m 37 Y s 1429 2055 m 19 Y s 1474 2055 m 19 Y s 1519 2055 m 19 Y s 1565 2037 m 37 Y s 1610 2055 m 19 Y s 1655 2055 m 19 Y s 1701 2055 m 19 Y s 1746 2037 m 37 Y s 1791 2055 m
 19 Y s 1837 2055 m 19 Y s 1882 2055 m 19 Y s 1928 2037 m 37 Y s 1973 2055 m 19 Y s 2018 2055 m 19 Y s 2064 2055 m 19 Y s 2109 2037 m 37 Y s 295 2037 m 37 Y s 295 654 m 1420 Y s 358 654 m -63 X s 326 704 m -31 X s 326 755 m -31 X s 326 805 m -31 X s
 326 855 m -31 X s 358 906 m -63 X s 326 956 m -31 X s 326 1006 m -31 X s 326 1057 m -31 X s 326 1107 m -31 X s 358 1157 m -63 X s 326 1208 m -31 X s 326 1258 m -31 X s 326 1308 m -31 X s 326 1359 m -31 X s 358 1409 m -63 X s 326 1459 m -31 X s 326
 1510 m -31 X s 326 1560 m -31 X s 326 1610 m -31 X s 358 1661 m -63 X s 326 1711 m -31 X s 326 1761 m -31 X s 326 1812 m -31 X s 326 1862 m -31 X s 358 1912 m -63 X s 358 1912 m -63 X s 326 1962 m -31 X s 326 2013 m -31 X s 326 2063 m -31 X s
 gsave  2268 1526 0 654 C 242.699 629.5 t 0 r /Helvetica findfont 72.1408 sf 0 0 m (0) show NC gr 
 gsave  2268 1526 0 654 C 163.063 879.783 t 0 r /Helvetica findfont 72.1408 sf 0 0 m (500) show NC gr 
 gsave  2268 1526 0 654 C 121.349 1133.86 t 0 r /Helvetica findfont 72.1408 sf 0 0 m (1000) show NC gr 
 gsave  2268 1526 0 654 C 121.349 1384.14 t 0 r /Helvetica findfont 72.1408 sf 0 0 m (1500) show NC gr 
 gsave  2268 1526 0 654 C 121.349 1634.42 t 0 r /Helvetica findfont 72.1408 sf 0 0 m (2000) show NC gr 
 gsave  2268 1526 0 654 C 121.349 1888.5 t 0 r /Helvetica findfont 72.1408 sf 0 0 m (2500) show NC gr  2109 654 m 1420 Y s 2046 654 m 63 X s 2077 704 m 32 X s 2077 755 m 32 X s 2077 805 m 32 X s 2077 855 m 32 X s 2046 906 m 63 X s 2077 956 m 32 X s
 2077 1006 m 32 X s 2077 1057 m 32 X s 2077 1107 m 32 X s 2046 1157 m 63 X s 2077 1208 m 32 X s 2077 1258 m 32 X s 2077 1308 m 32 X s 2077 1359 m 32 X s 2046 1409 m 63 X s 2077 1459 m 32 X s 2077 1510 m 32 X s 2077 1560 m 32 X s 2077 1610 m 32 X s
 2046 1661 m 63 X s 2077 1711 m 32 X s 2077 1761 m 32 X s 2077 1812 m 32 X s 2077 1862 m 32 X s 2046 1912 m 63 X s 2046 1912 m 63 X s 2077 1962 m 32 X s 2077 2013 m 32 X s 2077 2063 m 32 X s 0 0 1 c 6 lw 1 1 1 c 0 0 1 c 340 1819 m 7 Y s 340 1848 m 8
 Y s 295 1837 m 34 X s 352 1837 m 34 X s 333 1819 m 15 X s 333 1856 m 15 X s 295 1829 m 16 Y s 386 1829 m 16 Y s 3 lw 340 1837 m20 6 lw 431 1088 m s 431 1111 m 1 Y s 386 1100 m 33 X s 442 1100 m 34 X s 423 1088 m 15 X s 423 1112 m 15 X s 386 1092 m
 15 Y s 476 1092 m 15 Y s 3 lw 431 1100 m20 6 lw 476 922 m 34 X s 533 922 m 34 X s 476 914 m 15 Y s 567 914 m 15 Y s 3 lw 522 922 m20 6 lw 567 855 m 34 X s 624 855 m 34 X s 567 847 m 15 Y s 658 847 m 15 Y s 3 lw 612 855 m20 6 lw 658 826 m 34 X s 714
 826 m 34 X s 658 818 m 15 Y s 748 818 m 15 Y s 3 lw 703 826 m20 6 lw 748 792 m 34 X s 805 792 m 34 X s 748 784 m 15 Y s 839 784 m 15 Y s 3 lw 794 792 m20 6 lw 839 759 m 34 X s 896 759 m 34 X s 839 751 m 15 Y s 930 751 m 15 Y s 3 lw 884 759 m20 6 lw
 930 753 m 34 X s 986 753 m 34 X s 930 746 m 15 Y s 1020 746 m 15 Y s 3 lw 975 753 m20 6 lw 1020 747 m 34 X s 1077 747 m 34 X s 1020 740 m 15 Y s 1111 740 m 15 Y s 3 lw 1066 747 m20 6 lw 1111 732 m 34 X s 1168 732 m 34 X s 1111 724 m 16 Y s 1202 724
 m 16 Y s 3 lw 1157 732 m20 6 lw 1202 747 m 34 X s 1259 747 m 34 X s 1202 740 m 15 Y s 1293 740 m 15 Y s 3 lw 1247 747 m20 6 lw 1293 727 m 34 X s 1349 727 m 34 X s 1293 719 m 15 Y s 1383 719 m 15 Y s 3 lw 1338 727 m20 6 lw 1383 732 m 34 X s 1440 732
 m 34 X s 1383 724 m 15 Y s 1474 724 m 15 Y s 3 lw 1429 732 m20 6 lw 1474 728 m 34 X s 1531 728 m 34 X s 1474 720 m 15 Y s 1565 720 m 15 Y s 3 lw 1519 728 m20 6 lw 1565 732 m 34 X s 1621 732 m 34 X s 1565 725 m 15 Y s 1655 725 m 15 Y s 3 lw 1610 732
 m20 6 lw 1655 726 m 34 X s 1712 726 m 34 X s 1655 718 m 16 Y s 1746 718 m 16 Y s 3 lw 1701 726 m20 6 lw 1746 722 m 34 X s 1803 722 m 34 X s 1746 714 m 16 Y s 1837 714 m 16 Y s 3 lw 1791 722 m20 6 lw 1837 708 m 34 X s 1894 708 m 34 X s 1837 701 m 15
 Y s 1928 701 m 15 Y s 3 lw 1882 708 m20 6 lw 1928 685 m 34 X s 1984 685 m 34 X s 1928 677 m 15 Y s 2018 677 m 15 Y s 3 lw 1973 685 m20 6 lw 2018 660 m 34 X s 2075 660 m 34 X s 2018 654 m 14 Y s 2109 654 m 14 Y s 3 lw 2064 660 m20 6 lw black
 gsave  2268 1526 0 654 C 1289.34 1956.76 t 0 r /Helvetica-Bold findfont 53.1564 sf 0 0 m (Testing Background) show NC gr  1 0 0 c[  12 12 ] 0 sd 869 1971 m 349 X s black
 gsave  2268 1526 0 654 C 1289.34 1842.99 t 0 r /Helvetica-Bold findfont 53.1564 sf 0 0 m (Training Background) show NC gr  0 0 1 c[  ] 0 sd 869 1856 m 349 X s black
 gsave  2268 1526 0 654 C 1471.36 1725.44 t 0 r /Helvetica findfont 56.9533 sf 0 0 m (Kol = 0.834668) show NC gr  3 lw 1 1 1 c black 1 1 1 c 1814 425 295 229 bf black 1814 425 295 229 bl 295 229 m 1814 X s[ 4 8] 0 sd 295 654 m -425 Y s 476 654 m -425
 Y s 658 654 m -425 Y s 839 654 m -425 Y s 1020 654 m -425 Y s 1202 654 m -425 Y s 1383 654 m -425 Y s 1565 654 m -425 Y s 1746 654 m -425 Y s 1928 654 m -425 Y s 2109 654 m -425 Y s 295 654 m -425 Y s[  ] 0 sd 295 654 m 1814 X s 295 229 m 425 Y s[ 4
 8] 0 sd 2109 229 m -1814 X s 2109 335 m -1814 X s 2109 442 m -1814 X s 2109 548 m -1814 X s 2109 654 m -1814 X s[  ] 0 sd 2109 229 m 425 Y s 6 lw 1 1 1 c black 295 440 m 34 X s 352 440 m 34 X s 3 lw 340 440 m20 6 lw 386 440 m 33 X s 442 440 m 34 X s
 3 lw 431 440 m20 6 lw 476 455 m 34 X s 533 455 m 34 X s 3 lw 522 455 m20 6 lw 567 436 m 34 X s 624 436 m 34 X s 3 lw 612 436 m20 6 lw 703 412 m s 703 435 m s 658 423 m 34 X s 714 423 m 34 X s 3 lw 703 423 m20 6 lw 794 421 m 2 Y s 794 446 m 1 Y s 748
 434 m 34 X s 805 434 m 34 X s 3 lw 794 434 m20 6 lw 884 428 m 5 Y s 884 456 m 5 Y s 839 444 m 34 X s 896 444 m 34 X s 3 lw 884 444 m20 6 lw 975 445 m 6 Y s 975 474 m 7 Y s 930 463 m 34 X s 986 463 m 34 X s 3 lw 975 463 m20 6 lw 1066 409 m 5 Y s 1066
 437 m 5 Y s 1020 426 m 34 X s 1077 426 m 34 X s 3 lw 1066 426 m20 6 lw 1157 425 m 8 Y s 1157 456 m 7 Y s 1111 444 m 34 X s 1168 444 m 34 X s 3 lw 1157 444 m20 6 lw 1247 403 m 5 Y s 1247 430 m 5 Y s 1202 419 m 34 X s 1259 419 m 34 X s 3 lw 1247 419
 m20 6 lw 1338 451 m 11 Y s 1338 485 m 11 Y s 1293 474 m 34 X s 1349 474 m 34 X s 3 lw 1338 474 m20 6 lw 1429 420 m 7 Y s 1429 450 m 7 Y s 1383 439 m 34 X s 1440 439 m 34 X s 3 lw 1429 439 m20 6 lw 1519 438 m 8 Y s 1519 469 m 7 Y s 1474 457 m 34 X s
 1531 457 m 34 X s 3 lw 1519 457 m20 6 lw 1610 425 m 7 Y s 1610 455 m 7 Y s 1565 444 m 34 X s 1621 444 m 34 X s 3 lw 1610 444 m20 6 lw 1701 435 m 8 Y s 1701 466 m 9 Y s 1655 455 m 34 X s 1712 455 m 34 X s 3 lw 1701 455 m20 6 lw 1791 420 m 8 Y s 1791
 451 m 7 Y s 1746 439 m 34 X s 1803 439 m 34 X s 3 lw 1791 439 m20 6 lw 1882 415 m 11 Y s 1882 449 m 11 Y s 1837 437 m 34 X s 1894 437 m 34 X s 3 lw 1882 437 m20 6 lw 1973 461 m 25 Y s 1973 509 m 25 Y s 1928 498 m 34 X s 1984 498 m 34 X s 3 lw 1973
 498 m20 6 lw 2064 404 m 64 Y s 2064 490 m 64 Y s 2018 479 m 34 X s 2075 479 m 34 X s 3 lw 2064 479 m20 6 lw 3 lw 295 229 m 1814 X s
 gsave  2268 654 0 0 C 1664.76 56.8825 t 0 r /Helvetica findfont 91.2766 sf 0 0 m (BDT Score) show NC gr  295 245 m -16 Y s 340 237 m -8 Y s 386 237 m -8 Y s 431 237 m -8 Y s 476 245 m -16 Y s 522 237 m -8 Y s 567 237 m -8 Y s 612 237 m -8 Y s 658
 245 m -16 Y s 703 237 m -8 Y s 748 237 m -8 Y s 794 237 m -8 Y s 839 245 m -16 Y s 884 237 m -8 Y s 930 237 m -8 Y s 975 237 m -8 Y s 1020 245 m -16 Y s 1066 237 m -8 Y s 1111 237 m -8 Y s 1157 237 m -8 Y s 1202 245 m -16 Y s 1247 237 m -8 Y s 1293
 237 m -8 Y s 1338 237 m -8 Y s 1383 245 m -16 Y s 1429 237 m -8 Y s 1474 237 m -8 Y s 1519 237 m -8 Y s 1565 245 m -16 Y s 1610 237 m -8 Y s 1655 237 m -8 Y s 1701 237 m -8 Y s 1746 245 m -16 Y s 1791 237 m -8 Y s 1837 237 m -8 Y s 1882 237 m -8 Y s
 1928 245 m -16 Y s 1973 237 m -8 Y s 2018 237 m -8 Y s 2064 237 m -8 Y s 2109 245 m -16 Y s 295 245 m -16 Y s
 gsave  2268 654 0 0 C 295.789 163.063 t 0 r /Helvetica findfont 72.2607 sf 0 0 m (1) show NC gr 
 gsave  2268 654 0 0 C 257.867 163.063 t 0 r /Symbol findfont 72.2607 sf 0 0 m (-) show NC gr 
 gsave  2268 654 0 0 C 443.684 163.063 t 0 r /Helvetica findfont 72.2607 sf 0 0 m (0.8) show NC gr 
 gsave  2268 654 0 0 C 401.97 163.063 t 0 r /Symbol findfont 72.2607 sf 0 0 m (-) show NC gr 
 gsave  2268 654 0 0 C 625.708 163.063 t 0 r /Helvetica findfont 72.2607 sf 0 0 m (0.6) show NC gr 
 gsave  2268 654 0 0 C 583.994 163.063 t 0 r /Symbol findfont 72.2607 sf 0 0 m (-) show NC gr 
 gsave  2268 654 0 0 C 807.732 163.063 t 0 r /Helvetica findfont 72.2607 sf 0 0 m (0.4) show NC gr 
 gsave  2268 654 0 0 C 766.018 163.063 t 0 r /Symbol findfont 72.2607 sf 0 0 m (-) show NC gr 
 gsave  2268 654 0 0 C 989.756 163.063 t 0 r /Helvetica findfont 72.2607 sf 0 0 m (0.2) show NC gr 
 gsave  2268 654 0 0 C 948.042 163.063 t 0 r /Symbol findfont 72.2607 sf 0 0 m (-) show NC gr 
 gsave  2268 654 0 0 C 1179.36 163.063 t 0 r /Helvetica findfont 72.2607 sf 0 0 m (0) show NC gr 
 gsave  2268 654 0 0 C 1331.05 163.063 t 0 r /Helvetica findfont 72.2607 sf 0 0 m (0.2) show NC gr 
 gsave  2268 654 0 0 C 1513.08 163.063 t 0 r /Helvetica findfont 72.2607 sf 0 0 m (0.4) show NC gr 
 gsave  2268 654 0 0 C 1695.1 163.063 t 0 r /Helvetica findfont 72.2607 sf 0 0 m (0.6) show NC gr 
 gsave  2268 654 0 0 C 1877.12 163.063 t 0 r /Helvetica findfont 72.2607 sf 0 0 m (0.8) show NC gr 
 gsave  2268 654 0 0 C 2093.28 163.063 t 0 r /Helvetica findfont 72.2607 sf 0 0 m (1) show NC gr  295 654 m 1814 X s 295 638 m 16 Y s 340 646 m 8 Y s 386 646 m 8 Y s 431 646 m 8 Y s 476 638 m 16 Y s 522 646 m 8 Y s 567 646 m 8 Y s 612 646 m 8 Y s 658
 638 m 16 Y s 703 646 m 8 Y s 748 646 m 8 Y s 794 646 m 8 Y s 839 638 m 16 Y s 884 646 m 8 Y s 930 646 m 8 Y s 975 646 m 8 Y s 1020 638 m 16 Y s 1066 646 m 8 Y s 1111 646 m 8 Y s 1157 646 m 8 Y s 1202 638 m 16 Y s 1247 646 m 8 Y s 1293 646 m 8 Y s
 1338 646 m 8 Y s 1383 638 m 16 Y s 1429 646 m 8 Y s 1474 646 m 8 Y s 1519 646 m 8 Y s 1565 638 m 16 Y s 1610 646 m 8 Y s 1655 646 m 8 Y s 1701 646 m 8 Y s 1746 638 m 16 Y s 1791 646 m 8 Y s 1837 646 m 8 Y s 1882 646 m 8 Y s 1928 638 m 16 Y s 1973
 646 m 8 Y s 2018 646 m 8 Y s 2064 646 m 8 Y s 2109 638 m 16 Y s 295 638 m 16 Y s 295 229 m 425 Y s
 gsave  2268 654 0 0 C 151.687 246.491 t 90 r /Helvetica findfont 68.4575 sf 0 0 m (Test/Training) show NC gr  339 229 m -44 X s 317 250 m -22 X s 317 271 m -22 X s 317 293 m -22 X s 317 314 m -22 X s 339 335 m -44 X s 317 357 m -22 X s 317 378 m -22
 X s 317 399 m -22 X s 317 420 m -22 X s 339 442 m -44 X s 317 463 m -22 X s 317 484 m -22 X s 317 505 m -22 X s 317 527 m -22 X s 339 548 m -44 X s 317 569 m -22 X s 317 590 m -22 X s 317 612 m -22 X s 317 633 m -22 X s 339 654 m -44 X s
 gsave  2268 654 0 0 C 242.699 204.777 t 0 r /Helvetica findfont 72.2607 sf 0 0 m (0) show NC gr 
 gsave  2268 654 0 0 C 182.024 310.958 t 0 r /Helvetica findfont 72.2607 sf 0 0 m (0.5) show NC gr 
 gsave  2268 654 0 0 C 254.075 413.346 t 0 r /Helvetica findfont 72.2607 sf 0 0 m (1) show NC gr 
 gsave  2268 654 0 0 C 182.024 523.319 t 0 r /Helvetica findfont 72.2607 sf 0 0 m (1.5) show NC gr 
 gsave  2268 654 0 0 C 242.699 625.708 t 0 r /Helvetica findfont 72.2607 sf 0 0 m (2) show NC gr  2109 229 m 425 Y s 2065 229 m 44 X s 2087 250 m 22 X s 2087 271 m 22 X s 2087 293 m 22 X s 2087 314 m 22 X s 2065 335 m 44 X s 2087 357 m 22 X s 2087
 378 m 22 X s 2087 399 m 22 X s 2087 420 m 22 X s 2065 442 m 44 X s 2087 463 m 22 X s 2087 484 m 22 X s 2087 505 m 22 X s 2087 527 m 22 X s 2065 548 m 44 X s 2087 569 m 22 X s 2087 590 m 22 X s 2087 612 m 22 X s 2087 633 m 22 X s 2065 654 m 44 X s 1
 0 0 c 295 442 m 1814 X s
 gr  gr showpage
end
%%EOF
