%!PS-Adobe-2.0 EPSF-2.0
%%BoundingBox:  0 0 567 545
%%Title: lh_4j_roc.eps: c3
%%Creator: ROOT Version 5.34/32
%%CreationDate: Sat Nov 25 20:24:22 2017
%%EndComments
%%BeginProlog
80 dict begin
/s {stroke} def /l {lineto} def /m {moveto} def /t {translate} def
/r {rotate} def /rl {roll}  def /R {repeat} def
/d {rlineto} def /rm {rmoveto} def /gr {grestore} def /f {eofill} def
/c {setrgbcolor} def /black {0 setgray} def /sd {setdash} def
/cl {closepath} def /sf {scalefont setfont} def /lw {setlinewidth} def
/box {m dup 0 exch d exch 0 d 0 exch neg d cl} def
/NC{systemdict begin initclip end}def/C{NC box clip newpath}def
/bl {box s} def /bf {gsave box gsave f grestore 1 lw [] 0 sd s grestore} def /Y { 0 exch d} def /X { 0 d} def 
/K {{pop pop 0 moveto} exch kshow} bind def
/ita {/ang 15 def gsave [1 0 ang dup sin exch cos div 1 0 0] concat} def 
/mp {newpath /y exch def /x exch def} def
/side {[w .77 mul w .23 mul] .385 w mul sd w 0 l currentpoint t -144 r} def
/mr {mp x y w2 0 360 arc} def /m24 {mr s} def /m20 {mr f} def
/mb {mp x y w2 add m w2 neg 0 d 0 w neg d w 0 d 0 w d cl} def
/mt {mp x y w2 add m w2 neg w neg d w 0 d cl} def
/m21 {mb f} def /m25 {mb s} def /m22 {mt f} def /m26{mt s} def
/m23 {mp x y w2 sub m w2 w d w neg 0 d cl f} def
/m27 {mp x y w2 add m w3 neg w2 neg d w3 w2 neg d w3 w2 d cl s} def
/m28 {mp x w2 sub y w2 sub w3 add m w3 0 d  0 w3 neg d w3 0 d 0 w3 d w3 0 d  0 w3 d w3 neg 0 d 0 w3 d w3 neg 0 d 0 w3 neg d w3 neg 0 d cl s } def
/m29 {mp gsave x w2 sub y w2 add w3 sub m currentpoint t 4 {side} repeat cl fill gr} def
/m30 {mp gsave x w2 sub y w2 add w3 sub m currentpoint t 4 {side} repeat cl s gr} def
/m31 {mp x y w2 sub m 0 w d x w2 sub y m w 0 d x w2 sub y w2 add m w w neg d x w2 sub y w2 sub m w w d s} def
/m32 {mp x y w2 sub m w2 w d w neg 0 d cl s} def
/m33 {mp x y w2 add m w3 neg w2 neg d w3 w2 neg d w3 w2 d cl f} def
/m34 {mp x w2 sub y w2 sub w3 add m w3 0 d  0 w3 neg d w3 0 d 0 w3 d w3 0 d  0 w3 d w3 neg 0 d 0 w3 d w3 neg 0 d 0 w3 neg d w3 neg 0 d cl f } def
/m2 {mp x y w2 sub m 0 w d x w2 sub y m w 0 d s} def
/m5 {mp x w2 sub y w2 sub m w w d x w2 sub y w2 add m w w neg d s} def
/reEncode {exch findfont dup length dict begin {1 index /FID eq  {pop pop} {def} ifelse } forall /Encoding exch def currentdict end dup /FontName get exch definefont pop } def [/Times-Bold /Times-Italic /Times-BoldItalic /Helvetica /Helvetica-Oblique
 /Helvetica-Bold /Helvetica-BoldOblique /Courier /Courier-Oblique /Courier-Bold /Courier-BoldOblique /Times-Roman /AvantGarde-Book /AvantGarde-BookOblique /AvantGarde-Demi /AvantGarde-DemiOblique /Bookman-Demi /Bookman-DemiItalic /Bookman-Light
 /Bookman-LightItalic /Helvetica-Narrow /Helvetica-Narrow-Bold /Helvetica-Narrow-BoldOblique /Helvetica-Narrow-Oblique /NewCenturySchlbk-Roman /NewCenturySchlbk-Bold /NewCenturySchlbk-BoldItalic /NewCenturySchlbk-Italic /Palatino-Bold
 /Palatino-BoldItalic /Palatino-Italic /Palatino-Roman ] {ISOLatin1Encoding reEncode } forall
%%EndProlog
%%BeginSetup
%%EndSetup
newpath  gsave  .25 .25 scale  gsave  0 0 t black[  ] 0 sd 3 lw 1 1 1 c 2268 2180 0 0 bf black 1 1 1 c 1814 1745 295 283 bf black 1814 1745 295 283 bl 295 283 m 1814 X s[ 4 8] 0 sd 295 2028 m -1745 Y s 476 2028 m -1745 Y s 658 2028 m -1745 Y s 839
 2028 m -1745 Y s 1020 2028 m -1745 Y s 1202 2028 m -1745 Y s 1383 2028 m -1745 Y s 1565 2028 m -1745 Y s 1746 2028 m -1745 Y s 1928 2028 m -1745 Y s 2109 2028 m -1745 Y s[  ] 0 sd 295 2028 m 1814 X s 295 283 m 1745 Y s[ 4 8] 0 sd 2109 283 m -1814 X
 s 2109 477 m -1814 X s 2109 671 m -1814 X s 2109 865 m -1814 X s 2109 1059 m -1814 X s 2109 1253 m -1814 X s 2109 1446 m -1814 X s 2109 1640 m -1814 X s 2109 1834 m -1814 X s 2109 2028 m -1814 X s[  ] 0 sd 2109 283 m 1745 Y s 1 0 0 c[  12 12 ] 0 sd
 6 lw 1 1 1 c black 1 0 0 c 295 1834 m 54 X -1 Y 73 X -1 Y 36 X -1 Y 73 X -1 Y 54 X -2 Y 36 X -1 Y 18 X -1 Y 19 X -1 Y 36 X -2 Y 18 X -1 Y 18 X -1 Y 18 X -1 Y 18 X -1 Y 19 X -1 Y 18 X -2 Y 36 X -2 Y 18 X -1 Y 18 X -2 Y 18 X -2 Y 19 X -2 Y 18 X -2 Y
 18 X -1 Y 18 X -2 Y 18 X -2 Y 18 X -2 Y 18 X -2 Y 19 X -2 Y 18 X -3 Y 18 X -2 Y 18 X -2 Y 18 X -3 Y 18 X -4 Y 18 X -2 Y 19 X -3 Y 18 X -3 Y 18 X -3 Y 18 X -5 Y 18 X -4 Y 18 X -3 Y 18 X -4 Y 19 X -3 Y 18 X -3 Y 18 X -3 Y 18 X -5 Y 18 X -4 Y 18 X -3 Y
 18 X -7 Y 19 X -7 Y 18 X -5 Y 18 X -6 Y 18 X -4 Y 18 X -7 Y 18 X -8 Y 18 X -9 Y 19 X -5 Y 18 X -10 Y 18 X -6 Y 18 X -13 Y 18 X -8 Y 18 X -12 Y 18 X -9 Y 19 X -15 Y 18 X -9 Y 18 X -8 Y 18 X -13 Y 18 X -14 Y 18 X -14 Y 18 X -13 Y 19 X -18 Y 18 X -17 Y
 18 X -17 Y 18 X -16 Y 18 X -21 Y 18 X -26 Y 18 X -26 Y 19 X -27 Y 18 X -30 Y 18 X -35 Y 18 X -42 Y 18 X -50 Y 18 X -59 Y 18 X -95 Y 19 X -91 Y 18 X -203 Y 18 X -474 Y 18 X s black[  ] 0 sd 3 lw 295 283 m 1814 X s
 gsave  2268 2180 0 0 C 1357.6 64.4669 t 0 r /Helvetica findfont 102.389 sf 0 0 m (Signal Efficiency) show NC gr  295 336 m -53 Y s 331 310 m -27 Y s 367 310 m -27 Y s 404 310 m -27 Y s 440 310 m -27 Y s 476 336 m -53 Y s 513 310 m -27 Y s 549 310 m
 -27 Y s 585 310 m -27 Y s 621 310 m -27 Y s 658 336 m -53 Y s 694 310 m -27 Y s 730 310 m -27 Y s 766 310 m -27 Y s 803 310 m -27 Y s 839 336 m -53 Y s 875 310 m -27 Y s 912 310 m -27 Y s 948 310 m -27 Y s 984 310 m -27 Y s 1020 336 m -53 Y s 1057
 310 m -27 Y s 1093 310 m -27 Y s 1129 310 m -27 Y s 1166 310 m -27 Y s 1202 336 m -53 Y s 1238 310 m -27 Y s 1274 310 m -27 Y s 1311 310 m -27 Y s 1347 310 m -27 Y s 1383 336 m -53 Y s 1420 310 m -27 Y s 1456 310 m -27 Y s 1492 310 m -27 Y s 1528
 310 m -27 Y s 1565 336 m -53 Y s 1601 310 m -27 Y s 1637 310 m -27 Y s 1674 310 m -27 Y s 1710 310 m -27 Y s 1746 336 m -53 Y s 1782 310 m -27 Y s 1819 310 m -27 Y s 1855 310 m -27 Y s 1891 310 m -27 Y s 1928 336 m -53 Y s 1964 310 m -27 Y s 2000
 310 m -27 Y s 2036 310 m -27 Y s 2073 310 m -27 Y s 2109 336 m -53 Y s
 gsave  2268 2180 0 0 C 265.452 185.816 t 0 r /Helvetica findfont 102.389 sf 0 0 m (0) show NC gr 
 gsave  2268 2180 0 0 C 413.346 185.816 t 0 r /Helvetica findfont 102.389 sf 0 0 m (0.1) show NC gr 
 gsave  2268 2180 0 0 C 583.994 185.816 t 0 r /Helvetica findfont 102.389 sf 0 0 m (0.2) show NC gr 
 gsave  2268 2180 0 0 C 766.018 185.816 t 0 r /Helvetica findfont 102.389 sf 0 0 m (0.3) show NC gr 
 gsave  2268 2180 0 0 C 948.042 185.816 t 0 r /Helvetica findfont 102.389 sf 0 0 m (0.4) show NC gr 
 gsave  2268 2180 0 0 C 1126.27 185.816 t 0 r /Helvetica findfont 102.389 sf 0 0 m (0.5) show NC gr 
 gsave  2268 2180 0 0 C 1308.3 185.816 t 0 r /Helvetica findfont 102.389 sf 0 0 m (0.6) show NC gr 
 gsave  2268 2180 0 0 C 1490.32 185.816 t 0 r /Helvetica findfont 102.389 sf 0 0 m (0.7) show NC gr 
 gsave  2268 2180 0 0 C 1672.35 185.816 t 0 r /Helvetica findfont 102.389 sf 0 0 m (0.8) show NC gr 
 gsave  2268 2180 0 0 C 1854.37 185.816 t 0 r /Helvetica findfont 102.389 sf 0 0 m (0.9) show NC gr 
 gsave  2268 2180 0 0 C 2089.48 185.816 t 0 r /Helvetica findfont 102.389 sf 0 0 m (1) show NC gr  295 2028 m 1814 X s 295 1976 m 52 Y s 331 2002 m 26 Y s 367 2002 m 26 Y s 404 2002 m 26 Y s 440 2002 m 26 Y s 476 1976 m 52 Y s 513 2002 m 26 Y s 549
 2002 m 26 Y s 585 2002 m 26 Y s 621 2002 m 26 Y s 658 1976 m 52 Y s 694 2002 m 26 Y s 730 2002 m 26 Y s 766 2002 m 26 Y s 803 2002 m 26 Y s 839 1976 m 52 Y s 875 2002 m 26 Y s 912 2002 m 26 Y s 948 2002 m 26 Y s 984 2002 m 26 Y s 1020 1976 m 52 Y s
 1057 2002 m 26 Y s 1093 2002 m 26 Y s 1129 2002 m 26 Y s 1166 2002 m 26 Y s 1202 1976 m 52 Y s 1238 2002 m 26 Y s 1274 2002 m 26 Y s 1311 2002 m 26 Y s 1347 2002 m 26 Y s 1383 1976 m 52 Y s 1420 2002 m 26 Y s 1456 2002 m 26 Y s 1492 2002 m 26 Y s
 1528 2002 m 26 Y s 1565 1976 m 52 Y s 1601 2002 m 26 Y s 1637 2002 m 26 Y s 1674 2002 m 26 Y s 1710 2002 m 26 Y s 1746 1976 m 52 Y s 1782 2002 m 26 Y s 1819 2002 m 26 Y s 1855 2002 m 26 Y s 1891 2002 m 26 Y s 1928 1976 m 52 Y s 1964 2002 m 26 Y s
 2000 2002 m 26 Y s 2036 2002 m 26 Y s 2073 2002 m 26 Y s 2109 1976 m 52 Y s 295 283 m 1745 Y s
 gsave  2268 2180 0 0 C 102.389 561.241 t 90 r /Helvetica findfont 102.389 sf 0 0 m (Background Rejection Efficiency) show NC gr  349 283 m -54 X s 322 322 m -27 X s 322 361 m -27 X s 322 400 m -27 X s 322 439 m -27 X s 349 477 m -54 X s 322 516 m
 -27 X s 322 555 m -27 X s 322 594 m -27 X s 322 632 m -27 X s 349 671 m -54 X s 322 710 m -27 X s 322 749 m -27 X s 322 787 m -27 X s 322 826 m -27 X s 349 865 m -54 X s 322 904 m -27 X s 322 942 m -27 X s 322 981 m -27 X s 322 1020 m -27 X s 349
 1059 m -54 X s 322 1098 m -27 X s 322 1136 m -27 X s 322 1175 m -27 X s 322 1214 m -27 X s 349 1253 m -54 X s 322 1291 m -27 X s 322 1330 m -27 X s 322 1369 m -27 X s 322 1408 m -27 X s 349 1446 m -54 X s 322 1485 m -27 X s 322 1524 m -27 X s 322
 1563 m -27 X s 322 1601 m -27 X s 349 1640 m -54 X s 322 1679 m -27 X s 322 1718 m -27 X s 322 1757 m -27 X s 322 1795 m -27 X s 349 1834 m -54 X s 322 1873 m -27 X s 322 1912 m -27 X s 322 1950 m -27 X s 322 1989 m -27 X s 349 2028 m -54 X s
 gsave  2268 2180 0 0 C 140.31 246.491 t 0 r /Helvetica findfont 102.389 sf 0 0 m (0.2) show NC gr 
 gsave  2268 2180 0 0 C 140.31 439.892 t 0 r /Helvetica findfont 102.389 sf 0 0 m (0.3) show NC gr 
 gsave  2268 2180 0 0 C 140.31 633.292 t 0 r /Helvetica findfont 102.389 sf 0 0 m (0.4) show NC gr 
 gsave  2268 2180 0 0 C 140.31 830.485 t 0 r /Helvetica findfont 102.389 sf 0 0 m (0.5) show NC gr 
 gsave  2268 2180 0 0 C 140.31 1023.89 t 0 r /Helvetica findfont 102.389 sf 0 0 m (0.6) show NC gr 
 gsave  2268 2180 0 0 C 140.31 1217.29 t 0 r /Helvetica findfont 102.389 sf 0 0 m (0.7) show NC gr 
 gsave  2268 2180 0 0 C 140.31 1410.69 t 0 r /Helvetica findfont 102.389 sf 0 0 m (0.8) show NC gr 
 gsave  2268 2180 0 0 C 140.31 1604.09 t 0 r /Helvetica findfont 102.389 sf 0 0 m (0.9) show NC gr 
 gsave  2268 2180 0 0 C 242.699 1793.7 t 0 r /Helvetica findfont 102.389 sf 0 0 m (1) show NC gr 
 gsave  2268 2180 0 0 C 159.271 1987.1 t 0 r /Helvetica findfont 102.389 sf 0 0 m (1.1) show NC gr  2109 283 m 1745 Y s 2055 283 m 54 X s 2082 322 m 27 X s 2082 361 m 27 X s 2082 400 m 27 X s 2082 439 m 27 X s 2055 477 m 54 X s 2082 516 m 27 X s 2082
 555 m 27 X s 2082 594 m 27 X s 2082 632 m 27 X s 2055 671 m 54 X s 2082 710 m 27 X s 2082 749 m 27 X s 2082 787 m 27 X s 2082 826 m 27 X s 2055 865 m 54 X s 2082 904 m 27 X s 2082 942 m 27 X s 2082 981 m 27 X s 2082 1020 m 27 X s 2055 1059 m 54 X s
 2082 1098 m 27 X s 2082 1136 m 27 X s 2082 1175 m 27 X s 2082 1214 m 27 X s 2055 1253 m 54 X s 2082 1291 m 27 X s 2082 1330 m 27 X s 2082 1369 m 27 X s 2082 1408 m 27 X s 2055 1446 m 54 X s 2082 1485 m 27 X s 2082 1524 m 27 X s 2082 1563 m 27 X s
 2082 1601 m 27 X s 2055 1640 m 54 X s 2082 1679 m 27 X s 2082 1718 m 27 X s 2082 1757 m 27 X s 2082 1795 m 27 X s 2055 1834 m 54 X s 2082 1873 m 27 X s 2082 1912 m 27 X s 2082 1950 m 27 X s 2082 1989 m 27 X s 2055 2028 m 54 X s 0 0 1 c 6 lw 1 1 1 c
 black 0 0 1 c 295 1834 m 91 X -1 Y 36 X -1 Y 72 X -1 Y 55 X -1 Y 36 X -1 Y 18 X -1 Y 55 X -1 Y 18 X -1 Y 36 X -1 Y 18 X -2 Y 18 X -1 Y 18 X -1 Y 19 X -1 Y 18 X -1 Y 18 X -1 Y 18 X -1 Y 36 X -2 Y 37 X -1 Y 18 X -2 Y 18 X -2 Y 18 X -1 Y 18 X -2 Y 18 X
 -2 Y 18 X -2 Y 19 X -2 Y 18 X -3 Y 18 X -2 Y 18 X -2 Y 18 X -3 Y 18 X -1 Y 18 X -4 Y 19 X -2 Y 18 X -4 Y 18 X -4 Y 18 X -3 Y 18 X -3 Y 18 X -4 Y 18 X -4 Y 19 X -3 Y 18 X -3 Y 18 X -5 Y 18 X -2 Y 18 X -4 Y 18 X -5 Y 18 X -5 Y 19 X -5 Y 18 X -5 Y 18 X
 -6 Y 18 X -5 Y 18 X -5 Y 18 X -3 Y 18 X -9 Y 19 X -7 Y 18 X -9 Y 18 X -8 Y 18 X -12 Y 18 X -8 Y 18 X -8 Y 18 X -7 Y 19 X -10 Y 18 X -8 Y 18 X -8 Y 18 X -10 Y 18 X -17 Y 18 X -11 Y 18 X -14 Y 19 X -15 Y 18 X -10 Y 18 X -16 Y 18 X -19 Y 18 X -17 Y 18
 X -26 Y 18 X -20 Y 19 X -24 Y 18 X -24 Y 18 X -37 Y 18 X -33 Y 18 X -44 Y 18 X -77 Y 18 X -52 Y 19 X -119 Y 18 X -185 Y 18 X -559 Y 18 X s 1 0 0 c[  12 12 ] 0 sd 1 1 1 c black 1 0 0 c 295 1834 m 54 X -1 Y 73 X -1 Y 36 X -1 Y 73 X -1 Y 54 X -2 Y 36 X
 -1 Y 18 X -1 Y 19 X -1 Y 36 X -2 Y 18 X -1 Y 18 X -1 Y 18 X -1 Y 18 X -1 Y 19 X -1 Y 18 X -2 Y 36 X -2 Y 18 X -1 Y 18 X -2 Y 18 X -2 Y 19 X -2 Y 18 X -2 Y 18 X -1 Y 18 X -2 Y 18 X -2 Y 18 X -2 Y 18 X -2 Y 19 X -2 Y 18 X -3 Y 18 X -2 Y 18 X -2 Y 18 X
 -3 Y 18 X -4 Y 18 X -2 Y 19 X -3 Y 18 X -3 Y 18 X -3 Y 18 X -5 Y 18 X -4 Y 18 X -3 Y 18 X -4 Y 19 X -3 Y 18 X -3 Y 18 X -3 Y 18 X -5 Y 18 X -4 Y 18 X -3 Y 18 X -7 Y 19 X -7 Y 18 X -5 Y 18 X -6 Y 18 X -4 Y 18 X -7 Y 18 X -8 Y 18 X -9 Y 19 X -5 Y 18 X
 -10 Y 18 X -6 Y 18 X -13 Y 18 X -8 Y 18 X -12 Y 18 X -9 Y 19 X -15 Y 18 X -9 Y 18 X -8 Y 18 X -13 Y 18 X -14 Y 18 X -14 Y 18 X -13 Y 19 X -18 Y 18 X -17 Y 18 X -17 Y 18 X -16 Y 18 X -21 Y 18 X -26 Y 18 X -26 Y 19 X -27 Y 18 X -30 Y 18 X -35 Y 18 X
 -42 Y 18 X -50 Y 18 X -59 Y 18 X -95 Y 19 X -91 Y 18 X -203 Y 18 X -474 Y 18 X s black
 gsave  2268 2180 0 0 C 690.175 1198.33 t 0 r /Helvetica-Bold findfont 121.349 sf 0 0 m (Traning Sample) show NC gr  0 0 1 c[  ] 0 sd 432 1232 m 216 X s black
 gsave  2268 2180 0 0 C 690.175 1046.64 t 0 r /Helvetica-Bold findfont 121.349 sf 0 0 m (Test Sample) show NC gr  1 0 0 c[  12 12 ] 0 sd 432 1079 m 216 X s
 gr  gr showpage
end
%%EOF
