%!PS-Adobe-2.0 EPSF-2.0
%%BoundingBox:  0 0 567 545
%%Title: c1.eps: c1
%%Creator: ROOT Version 5.34/32
%%CreationDate: Sun Dec 10 17:31:16 2017
%%EndComments
%%BeginProlog
80 dict begin
/s {stroke} def /l {lineto} def /m {moveto} def /t {translate} def
/r {rotate} def /rl {roll}  def /R {repeat} def
/d {rlineto} def /rm {rmoveto} def /gr {grestore} def /f {eofill} def
/c {setrgbcolor} def /black {0 setgray} def /sd {setdash} def
/cl {closepath} def /sf {scalefont setfont} def /lw {setlinewidth} def
/box {m dup 0 exch d exch 0 d 0 exch neg d cl} def
/NC{systemdict begin initclip end}def/C{NC box clip newpath}def
/bl {box s} def /bf {gsave box gsave f grestore 1 lw [] 0 sd s grestore} def /Y { 0 exch d} def /X { 0 d} def 
/K {{pop pop 0 moveto} exch kshow} bind def
/ita {/ang 15 def gsave [1 0 ang dup sin exch cos div 1 0 0] concat} def 
/mp {newpath /y exch def /x exch def} def
/side {[w .77 mul w .23 mul] .385 w mul sd w 0 l currentpoint t -144 r} def
/mr {mp x y w2 0 360 arc} def /m24 {mr s} def /m20 {mr f} def
/mb {mp x y w2 add m w2 neg 0 d 0 w neg d w 0 d 0 w d cl} def
/mt {mp x y w2 add m w2 neg w neg d w 0 d cl} def
/m21 {mb f} def /m25 {mb s} def /m22 {mt f} def /m26{mt s} def
/m23 {mp x y w2 sub m w2 w d w neg 0 d cl f} def
/m27 {mp x y w2 add m w3 neg w2 neg d w3 w2 neg d w3 w2 d cl s} def
/m28 {mp x w2 sub y w2 sub w3 add m w3 0 d  0 w3 neg d w3 0 d 0 w3 d w3 0 d  0 w3 d w3 neg 0 d 0 w3 d w3 neg 0 d 0 w3 neg d w3 neg 0 d cl s } def
/m29 {mp gsave x w2 sub y w2 add w3 sub m currentpoint t 4 {side} repeat cl fill gr} def
/m30 {mp gsave x w2 sub y w2 add w3 sub m currentpoint t 4 {side} repeat cl s gr} def
/m31 {mp x y w2 sub m 0 w d x w2 sub y m w 0 d x w2 sub y w2 add m w w neg d x w2 sub y w2 sub m w w d s} def
/m32 {mp x y w2 sub m w2 w d w neg 0 d cl s} def
/m33 {mp x y w2 add m w3 neg w2 neg d w3 w2 neg d w3 w2 d cl f} def
/m34 {mp x w2 sub y w2 sub w3 add m w3 0 d  0 w3 neg d w3 0 d 0 w3 d w3 0 d  0 w3 d w3 neg 0 d 0 w3 d w3 neg 0 d 0 w3 neg d w3 neg 0 d cl f } def
/m2 {mp x y w2 sub m 0 w d x w2 sub y m w 0 d s} def
/m5 {mp x w2 sub y w2 sub m w w d x w2 sub y w2 add m w w neg d s} def
/reEncode {exch findfont dup length dict begin {1 index /FID eq  {pop pop} {def} ifelse } forall /Encoding exch def currentdict end dup /FontName get exch definefont pop } def [/Times-Bold /Times-Italic /Times-BoldItalic /Helvetica /Helvetica-Oblique
 /Helvetica-Bold /Helvetica-BoldOblique /Courier /Courier-Oblique /Courier-Bold /Courier-BoldOblique /Times-Roman /AvantGarde-Book /AvantGarde-BookOblique /AvantGarde-Demi /AvantGarde-DemiOblique /Bookman-Demi /Bookman-DemiItalic /Bookman-Light
 /Bookman-LightItalic /Helvetica-Narrow /Helvetica-Narrow-Bold /Helvetica-Narrow-BoldOblique /Helvetica-Narrow-Oblique /NewCenturySchlbk-Roman /NewCenturySchlbk-Bold /NewCenturySchlbk-BoldItalic /NewCenturySchlbk-Italic /Palatino-Bold
 /Palatino-BoldItalic /Palatino-Italic /Palatino-Roman ] {ISOLatin1Encoding reEncode } forall
%%EndProlog
%%BeginSetup
%%EndSetup
newpath  gsave  .25 .25 scale  gsave  0 0 t black[  ] 0 sd 3 lw 1 1 1 c 2268 2180 0 0 bf black 1 1 1 c 1814 1745 295 283 bf black 1814 1745 295 283 bl 1 1 1 c 1814 1745 295 283 bf black 1814 1745 295 283 bl 6 lw 1 1 1 c black 295 285 m 1814 X s 3 lw
 295 283 m 1814 X s
 gsave  2268 2180 0 0 C 1824.03 87.2199 t 0 r /Helvetica findfont 102.389 sf 0 0 m ( [GeV]) show NC gr 
 gsave  2268 2180 0 0 C 1786.11 30.3373 t 0 r /Helvetica findfont 68.259 sf 0 0 m (2) show NC gr 
 gsave  2268 2180 0 0 C 1755.77 30.3373 t 0 r /Symbol findfont 68.259 sf 0 0 m (t) show NC gr 
 gsave  2268 2180 0 0 C 1698.89 30.3373 t 0 r /Helvetica findfont 68.259 sf 0 0 m (T,) show NC gr 
 gsave  2268 2180 0 0 C 1642.01 87.2199 t 0 r /Helvetica findfont 102.389 sf 0 0 m (p) show NC gr  295 336 m -53 Y s 355 310 m -27 Y s 416 310 m -27 Y s 476 310 m -27 Y s 537 336 m -53 Y s 597 310 m -27 Y s 658 310 m -27 Y s 718 310 m -27 Y s 779 336
 m -53 Y s 839 310 m -27 Y s 900 310 m -27 Y s 960 310 m -27 Y s 1020 336 m -53 Y s 1081 310 m -27 Y s 1141 310 m -27 Y s 1202 310 m -27 Y s 1262 336 m -53 Y s 1323 310 m -27 Y s 1383 310 m -27 Y s 1444 310 m -27 Y s 1504 336 m -53 Y s 1565 310 m -27
 Y s 1625 310 m -27 Y s 1686 310 m -27 Y s 1746 336 m -53 Y s 1807 310 m -27 Y s 1867 310 m -27 Y s 1928 310 m -27 Y s 1988 336 m -53 Y s 1988 336 m -53 Y s 2049 310 m -27 Y s
 gsave  2268 2180 0 0 C 265.452 185.816 t 0 r /Helvetica findfont 102.389 sf 0 0 m (0) show NC gr 
 gsave  2268 2180 0 0 C 477.813 185.816 t 0 r /Helvetica findfont 102.389 sf 0 0 m (20) show NC gr 
 gsave  2268 2180 0 0 C 720.512 185.816 t 0 r /Helvetica findfont 102.389 sf 0 0 m (40) show NC gr 
 gsave  2268 2180 0 0 C 963.211 185.816 t 0 r /Helvetica findfont 102.389 sf 0 0 m (60) show NC gr 
 gsave  2268 2180 0 0 C 1202.12 185.816 t 0 r /Helvetica findfont 102.389 sf 0 0 m (80) show NC gr 
 gsave  2268 2180 0 0 C 1418.27 185.816 t 0 r /Helvetica findfont 102.389 sf 0 0 m (100) show NC gr 
 gsave  2268 2180 0 0 C 1660.97 185.816 t 0 r /Helvetica findfont 102.389 sf 0 0 m (120) show NC gr 
 gsave  2268 2180 0 0 C 1903.67 185.816 t 0 r /Helvetica findfont 102.389 sf 0 0 m (140) show NC gr  295 2028 m 1814 X s 295 1976 m 52 Y s 355 2002 m 26 Y s 416 2002 m 26 Y s 476 2002 m 26 Y s 537 1976 m 52 Y s 597 2002 m 26 Y s 658 2002 m 26 Y s 718
 2002 m 26 Y s 779 1976 m 52 Y s 839 2002 m 26 Y s 900 2002 m 26 Y s 960 2002 m 26 Y s 1020 1976 m 52 Y s 1081 2002 m 26 Y s 1141 2002 m 26 Y s 1202 2002 m 26 Y s 1262 1976 m 52 Y s 1323 2002 m 26 Y s 1383 2002 m 26 Y s 1444 2002 m 26 Y s 1504 1976 m
 52 Y s 1565 2002 m 26 Y s 1625 2002 m 26 Y s 1686 2002 m 26 Y s 1746 1976 m 52 Y s 1807 2002 m 26 Y s 1867 2002 m 26 Y s 1928 2002 m 26 Y s 1988 1976 m 52 Y s 1988 1976 m 52 Y s 2049 2002 m 26 Y s 295 283 m 1745 Y s
 gsave  2268 2180 0 0 C 102.389 1368.97 t 90 r /Helvetica findfont 102.389 sf 0 0 m (Events/\( 5.00 \)) show NC gr  349 285 m -54 X s 322 332 m -27 X s 322 380 m -27 X s 322 427 m -27 X s 322 475 m -27 X s 349 522 m -54 X s 322 569 m -27 X s 322 617
 m -27 X s 322 664 m -27 X s 322 712 m -27 X s 349 759 m -54 X s 322 807 m -27 X s 322 854 m -27 X s 322 901 m -27 X s 322 949 m -27 X s 349 996 m -54 X s 322 1044 m -27 X s 322 1091 m -27 X s 322 1139 m -27 X s 322 1186 m -27 X s 349 1233 m -54 X s
 322 1281 m -27 X s 322 1328 m -27 X s 322 1376 m -27 X s 322 1423 m -27 X s 349 1471 m -54 X s 322 1518 m -27 X s 322 1565 m -27 X s 322 1613 m -27 X s 322 1660 m -27 X s 349 1708 m -54 X s 322 1755 m -27 X s 322 1803 m -27 X s 322 1850 m -27 X s
 322 1897 m -27 X s 349 1945 m -54 X s 349 285 m -54 X s 349 1945 m -54 X s 322 1992 m -27 X s
 gsave  2268 2180 0 0 C 227.53 250.283 t 0 r /Helvetica findfont 102.389 sf 0 0 m (0) show NC gr 
 gsave  2268 2180 0 0 C 170.648 485.398 t 0 r /Helvetica findfont 102.389 sf 0 0 m (50) show NC gr 
 gsave  2268 2180 0 0 C 113.765 724.304 t 0 r /Helvetica findfont 102.389 sf 0 0 m (100) show NC gr 
 gsave  2268 2180 0 0 C 113.765 959.419 t 0 r /Helvetica findfont 102.389 sf 0 0 m (150) show NC gr 
 gsave  2268 2180 0 0 C 113.765 1198.33 t 0 r /Helvetica findfont 102.389 sf 0 0 m (200) show NC gr 
 gsave  2268 2180 0 0 C 113.765 1433.44 t 0 r /Helvetica findfont 102.389 sf 0 0 m (250) show NC gr 
 gsave  2268 2180 0 0 C 113.765 1672.35 t 0 r /Helvetica findfont 102.389 sf 0 0 m (300) show NC gr 
 gsave  2268 2180 0 0 C 113.765 1907.46 t 0 r /Helvetica findfont 102.389 sf 0 0 m (350) show NC gr  2109 283 m 1745 Y s 2055 285 m 54 X s 2082 332 m 27 X s 2082 380 m 27 X s 2082 427 m 27 X s 2082 475 m 27 X s 2055 522 m 54 X s 2082 569 m 27 X s
 2082 617 m 27 X s 2082 664 m 27 X s 2082 712 m 27 X s 2055 759 m 54 X s 2082 807 m 27 X s 2082 854 m 27 X s 2082 901 m 27 X s 2082 949 m 27 X s 2055 996 m 54 X s 2082 1044 m 27 X s 2082 1091 m 27 X s 2082 1139 m 27 X s 2082 1186 m 27 X s 2055 1233 m
 54 X s 2082 1281 m 27 X s 2082 1328 m 27 X s 2082 1376 m 27 X s 2082 1423 m 27 X s 2055 1471 m 54 X s 2082 1518 m 27 X s 2082 1565 m 27 X s 2082 1613 m 27 X s 2082 1660 m 27 X s 2055 1708 m 54 X s 2082 1755 m 27 X s 2082 1803 m 27 X s 2082 1850 m 27
 X s 2082 1897 m 27 X s 2055 1945 m 54 X s 2055 285 m 54 X s 2055 1945 m 54 X s 2082 1992 m 27 X s 0 1 1 c 6 lw black 3 lw 0 1 1 c 295 285 m 363 X 1352 Y 60 X -318 Y 61 X -451 Y 60 X -360 Y 61 X -118 Y 60 X -51 Y 60 X -25 Y 61 X -16 Y 60 X -11 Y 61 X
 -2 Y 60 X 5 Y 61 X -6 Y 60 X -1 Y 61 X 2 Y 423 X 3 Y 61 X -3 Y 181 X f 6 lw 295 285 m 363 X 1352 Y 60 X -318 Y 61 X -451 Y 60 X -360 Y 61 X -118 Y 60 X -51 Y 60 X -25 Y 61 X -16 Y 60 X -11 Y 61 X -2 Y 60 X 5 Y 61 X -6 Y 60 X -1 Y 61 X 2 Y 423 X 3 Y
 61 X -3 Y 181 X s 0.6 0.6 1 c 0.999 0.999 0.999 c black 3 lw 0.999 0.999 0.999 c 295 285 m 363 X 109 Y 60 X -28 Y 61 X -15 Y 60 X -40 Y 61 X -8 Y 60 X -13 Y 60 X 1 Y 61 X -4 Y 60 X -2 Y 968 X f 6 lw 0.6 0.6 1 c 0.999 0.999 0.999 c 0.6 0.6 1 c 295
 285 m 363 X 109 Y 60 X -28 Y 61 X -15 Y 60 X -40 Y 61 X -8 Y 60 X -13 Y 60 X 1 Y 61 X -4 Y 60 X -2 Y 968 X s 1 1 1 c black 0.6 0.6 1 c 295 285 m 363 X 109 Y 60 X -28 Y 61 X -15 Y 60 X -40 Y 61 X -8 Y 60 X -13 Y 60 X 1 Y 61 X -4 Y 60 X -2 Y 968 X s
 black 3 lw 0.6 0.6 1 c 295 285 m 363 X 109 Y 60 X -28 Y 61 X -15 Y 60 X -40 Y 61 X -8 Y 60 X -13 Y 60 X 1 Y 61 X -4 Y 60 X -2 Y 968 X f 6 lw 295 285 m 363 X 109 Y 60 X -28 Y 61 X -15 Y 60 X -40 Y 61 X -8 Y 60 X -13 Y 60 X 1 Y 61 X -4 Y 60 X -2 Y 968
 X s black 3 lw 295 283 m 1814 X s 295 336 m -53 Y s 355 310 m -27 Y s 416 310 m -27 Y s 476 310 m -27 Y s 537 336 m -53 Y s 597 310 m -27 Y s 658 310 m -27 Y s 718 310 m -27 Y s 779 336 m -53 Y s 839 310 m -27 Y s 900 310 m -27 Y s 960 310 m -27 Y s
 1020 336 m -53 Y s 1081 310 m -27 Y s 1141 310 m -27 Y s 1202 310 m -27 Y s 1262 336 m -53 Y s 1323 310 m -27 Y s 1383 310 m -27 Y s 1444 310 m -27 Y s 1504 336 m -53 Y s 1565 310 m -27 Y s 1625 310 m -27 Y s 1686 310 m -27 Y s 1746 336 m -53 Y s
 1807 310 m -27 Y s 1867 310 m -27 Y s 1928 310 m -27 Y s 1988 336 m -53 Y s 1988 336 m -53 Y s 2049 310 m -27 Y s 295 2028 m 1814 X s 295 1976 m 52 Y s 355 2002 m 26 Y s 416 2002 m 26 Y s 476 2002 m 26 Y s 537 1976 m 52 Y s 597 2002 m 26 Y s 658
 2002 m 26 Y s 718 2002 m 26 Y s 779 1976 m 52 Y s 839 2002 m 26 Y s 900 2002 m 26 Y s 960 2002 m 26 Y s 1020 1976 m 52 Y s 1081 2002 m 26 Y s 1141 2002 m 26 Y s 1202 2002 m 26 Y s 1262 1976 m 52 Y s 1323 2002 m 26 Y s 1383 2002 m 26 Y s 1444 2002 m
 26 Y s 1504 1976 m 52 Y s 1565 2002 m 26 Y s 1625 2002 m 26 Y s 1686 2002 m 26 Y s 1746 1976 m 52 Y s 1807 2002 m 26 Y s 1867 2002 m 26 Y s 1928 2002 m 26 Y s 1988 1976 m 52 Y s 1988 1976 m 52 Y s 2049 2002 m 26 Y s 295 283 m 1745 Y s 349 285 m -54
 X s 322 332 m -27 X s 322 380 m -27 X s 322 427 m -27 X s 322 475 m -27 X s 349 522 m -54 X s 322 569 m -27 X s 322 617 m -27 X s 322 664 m -27 X s 322 712 m -27 X s 349 759 m -54 X s 322 807 m -27 X s 322 854 m -27 X s 322 901 m -27 X s 322 949 m
 -27 X s 349 996 m -54 X s 322 1044 m -27 X s 322 1091 m -27 X s 322 1139 m -27 X s 322 1186 m -27 X s 349 1233 m -54 X s 322 1281 m -27 X s 322 1328 m -27 X s 322 1376 m -27 X s 322 1423 m -27 X s 349 1471 m -54 X s 322 1518 m -27 X s 322 1565 m -27
 X s 322 1613 m -27 X s 322 1660 m -27 X s 349 1708 m -54 X s 322 1755 m -27 X s 322 1803 m -27 X s 322 1850 m -27 X s 322 1897 m -27 X s 349 1945 m -54 X s 349 285 m -54 X s 349 1945 m -54 X s 322 1992 m -27 X s 2109 283 m 1745 Y s 2055 285 m 54 X s
 2082 332 m 27 X s 2082 380 m 27 X s 2082 427 m 27 X s 2082 475 m 27 X s 2055 522 m 54 X s 2082 569 m 27 X s 2082 617 m 27 X s 2082 664 m 27 X s 2082 712 m 27 X s 2055 759 m 54 X s 2082 807 m 27 X s 2082 854 m 27 X s 2082 901 m 27 X s 2082 949 m 27 X
 s 2055 996 m 54 X s 2082 1044 m 27 X s 2082 1091 m 27 X s 2082 1139 m 27 X s 2082 1186 m 27 X s 2055 1233 m 54 X s 2082 1281 m 27 X s 2082 1328 m 27 X s 2082 1376 m 27 X s 2082 1423 m 27 X s 2055 1471 m 54 X s 2082 1518 m 27 X s 2082 1565 m 27 X s
 2082 1613 m 27 X s 2082 1660 m 27 X s 2055 1708 m 54 X s 2082 1755 m 27 X s 2082 1803 m 27 X s 2082 1850 m 27 X s 2082 1897 m 27 X s 2055 1945 m 54 X s 2055 285 m 54 X s 2055 1945 m 54 X s 2082 1992 m 27 X s 1 1 1 c 567 392 1474 1570 bf black
 gsave  2268 2180 0 0 C 1998.47 1869.54 t 0 r /Helvetica-Bold findfont 72.0512 sf 0 0 m (\)) show NC gr 
 gsave  2268 2180 0 0 C 1968.14 1869.54 t 0 r /Symbol findfont 72.0512 sf 0 0 m (t) show NC gr 
 gsave  2268 2180 0 0 C 1615.46 1869.54 t 0 r /Helvetica-Bold findfont 72.0512 sf 0 0 m (Top \(fake ) show NC gr  0.6 0.6 1 c 1495 1851 m 99 X 92 Y -99 X f 6 lw 1495 1943 m 99 X s 1495 1851 m 99 X s 1594 1851 m 92 Y s 1495 1851 m 92 Y s black
 gsave  2268 2180 0 0 C 1615.46 1736.81 t 0 r /Helvetica-Bold findfont 72.0512 sf 0 0 m (nOS) show NC gr  0 1 1 c 3 lw 1495 1720 m 99 X 92 Y -99 X f 6 lw 1495 1812 m 99 X s 1495 1720 m 99 X s 1594 1720 m 92 Y s 1495 1720 m 92 Y s black
 gsave  2268 2180 0 0 C 1615.46 1607.88 t 0 r /Helvetica-Bold findfont 72.0512 sf 0 0 m (Uncert.) show NC gr  3 lw 1 lw << /PatternType 1 /PaintType 2 /TilingType 1 /BBox [ 0 0 100 100 ] /XStep 100 /YStep 100 /PaintProc { begin gsave 0 0 m 100 100 l
 s gr end } >> [ 0.24 0 0 0.24 0 0 ] makepattern /P04 exch def /cs {[/Pattern /DeviceRGB] setcolorspace} def /FA {f [/DeviceRGB] setcolorspace} def cs 0 0 0 P04 setcolor 1495 1590 m 99 X 91 Y -99 X FA 6 lw 1 1 1 c 1495 1681 m 99 X s 1495 1590 m 99 X
 s 1594 1590 m 91 Y s 1495 1590 m 91 Y s black 1 1 1 c 3 lw black cs 0 0 0 P04 setcolor 295 285 m 60 X -60 X FA 6 lw 3 lw black cs 0 0 0 P04 setcolor 355 285 m 61 X -61 X FA 6 lw 3 lw black cs 0 0 0 P04 setcolor 416 285 m 60 X -60 X FA 6 lw 3 lw
 black cs 0 0 0 P04 setcolor 476 285 m 61 X -61 X FA 6 lw 3 lw black cs 0 0 0 P04 setcolor 537 285 m 60 X -60 X FA 6 lw 3 lw black cs 0 0 0 P04 setcolor 597 285 m 61 X -61 X FA 6 lw 3 lw black cs 0 0 0 P04 setcolor 658 1576 m 60 X 122 Y -60 X FA 6 lw
 3 lw 1 1 1 c /w 2 def /w2 {w 2 div} def /w3 {w 3 div} def 688 1637 m20 6 lw 3 lw black cs 0 0 0 P04 setcolor 718 1266 m 61 X 106 Y -61 X FA 6 lw 3 lw 1 1 1 c 748 1319 m20 6 lw 3 lw black cs 0 0 0 P04 setcolor 779 829 m 60 X 78 Y -60 X FA 6 lw 3 lw 1
 1 1 c 809 868 m20 6 lw 3 lw black cs 0 0 0 P04 setcolor 839 484 m 61 X 48 Y -61 X FA 6 lw 3 lw 1 1 1 c 869 508 m20 6 lw 3 lw black cs 0 0 0 P04 setcolor 900 374 m 60 X 32 Y -60 X FA 6 lw 3 lw 1 1 1 c 930 390 m20 6 lw 3 lw black cs 0 0 0 P04 setcolor
 960 327 m 60 X 23 Y -60 X FA 6 lw 3 lw 1 1 1 c 990 339 m20 6 lw 3 lw black cs 0 0 0 P04 setcolor 1020 305 m 61 X 18 Y -61 X FA 6 lw 3 lw 1 1 1 c 1051 314 m20 6 lw 3 lw black cs 0 0 0 P04 setcolor 1081 291 m 60 X 14 Y -60 X FA 6 lw 3 lw 1 1 1 c 1111
 298 m20 6 lw 3 lw black cs 0 0 0 P04 setcolor 1141 285 m 61 X 5 Y -61 X FA 6 lw 3 lw 1 1 1 c 1172 287 m20 6 lw 3 lw black cs 0 0 0 P04 setcolor 1202 283 m 60 X 5 Y -60 X FA 6 lw 3 lw 1 1 1 c 1232 285 m20 6 lw 3 lw black cs 0 0 0 P04 setcolor 1262
 286 m 61 X 7 Y -61 X FA 6 lw 3 lw 1 1 1 c 1293 290 m20 6 lw 3 lw black cs 0 0 0 P04 setcolor 1323 284 m 60 X 1 Y -60 X FA 6 lw 3 lw 1 1 1 c 1353 284 m20 6 lw 3 lw black cs 0 0 0 P04 setcolor 1383 283 m 61 X 1 Y -61 X FA 6 lw 3 lw 1 1 1 c 1414 283
 m20 6 lw 3 lw black cs 0 0 0 P04 setcolor 1444 285 m 60 X -60 X FA 6 lw 3 lw 1 1 1 c 1474 285 m20 6 lw 3 lw black cs 0 0 0 P04 setcolor 1504 284 m 61 X 1 Y -61 X FA 6 lw 3 lw 1 1 1 c 1534 285 m20 6 lw 3 lw black cs 0 0 0 P04 setcolor 1565 284 m 60 X
 1 Y -60 X FA 6 lw 3 lw 1 1 1 c 1595 285 m20 6 lw 3 lw black cs 0 0 0 P04 setcolor 1625 285 m 61 X -61 X FA 6 lw 3 lw 1 1 1 c 1655 285 m20 6 lw 3 lw black cs 0 0 0 P04 setcolor 1686 285 m 60 X -60 X FA 6 lw 3 lw black cs 0 0 0 P04 setcolor 1746 285 m
 61 X -61 X FA 6 lw 3 lw black cs 0 0 0 P04 setcolor 1807 285 m 60 X -60 X FA 6 lw 3 lw 1 1 1 c 1837 285 m20 6 lw 3 lw black cs 0 0 0 P04 setcolor 1867 285 m 61 X 6 Y -61 X FA 6 lw 3 lw 1 1 1 c 1897 288 m20 6 lw 3 lw black cs 0 0 0 P04 setcolor 1928
 285 m 60 X -60 X FA 6 lw 3 lw 1 1 1 c 1958 285 m20 6 lw 3 lw black cs 0 0 0 P04 setcolor 1988 285 m 61 X -61 X FA 6 lw 3 lw black cs 0 0 0 P04 setcolor 2049 285 m 60 X -60 X FA 6 lw 3 lw 1 1 1 c 2079 285 m20 6 lw
 gr  gr showpage
end
%%EOF
