%!PS-Adobe-2.0 EPSF-2.0
%%BoundingBox:  0 0 567 545
%%Title: hh_3j_bdt_bkg.eps: c2
%%Creator: ROOT Version 5.34/32
%%CreationDate: Sat Nov 25 20:08:48 2017
%%EndComments
%%BeginProlog
80 dict begin
/s {stroke} def /l {lineto} def /m {moveto} def /t {translate} def
/r {rotate} def /rl {roll}  def /R {repeat} def
/d {rlineto} def /rm {rmoveto} def /gr {grestore} def /f {eofill} def
/c {setrgbcolor} def /black {0 setgray} def /sd {setdash} def
/cl {closepath} def /sf {scalefont setfont} def /lw {setlinewidth} def
/box {m dup 0 exch d exch 0 d 0 exch neg d cl} def
/NC{systemdict begin initclip end}def/C{NC box clip newpath}def
/bl {box s} def /bf {gsave box gsave f grestore 1 lw [] 0 sd s grestore} def /Y { 0 exch d} def /X { 0 d} def 
/K {{pop pop 0 moveto} exch kshow} bind def
/ita {/ang 15 def gsave [1 0 ang dup sin exch cos div 1 0 0] concat} def 
/mp {newpath /y exch def /x exch def} def
/side {[w .77 mul w .23 mul] .385 w mul sd w 0 l currentpoint t -144 r} def
/mr {mp x y w2 0 360 arc} def /m24 {mr s} def /m20 {mr f} def
/mb {mp x y w2 add m w2 neg 0 d 0 w neg d w 0 d 0 w d cl} def
/mt {mp x y w2 add m w2 neg w neg d w 0 d cl} def
/m21 {mb f} def /m25 {mb s} def /m22 {mt f} def /m26{mt s} def
/m23 {mp x y w2 sub m w2 w d w neg 0 d cl f} def
/m27 {mp x y w2 add m w3 neg w2 neg d w3 w2 neg d w3 w2 d cl s} def
/m28 {mp x w2 sub y w2 sub w3 add m w3 0 d  0 w3 neg d w3 0 d 0 w3 d w3 0 d  0 w3 d w3 neg 0 d 0 w3 d w3 neg 0 d 0 w3 neg d w3 neg 0 d cl s } def
/m29 {mp gsave x w2 sub y w2 add w3 sub m currentpoint t 4 {side} repeat cl fill gr} def
/m30 {mp gsave x w2 sub y w2 add w3 sub m currentpoint t 4 {side} repeat cl s gr} def
/m31 {mp x y w2 sub m 0 w d x w2 sub y m w 0 d x w2 sub y w2 add m w w neg d x w2 sub y w2 sub m w w d s} def
/m32 {mp x y w2 sub m w2 w d w neg 0 d cl s} def
/m33 {mp x y w2 add m w3 neg w2 neg d w3 w2 neg d w3 w2 d cl f} def
/m34 {mp x w2 sub y w2 sub w3 add m w3 0 d  0 w3 neg d w3 0 d 0 w3 d w3 0 d  0 w3 d w3 neg 0 d 0 w3 d w3 neg 0 d 0 w3 neg d w3 neg 0 d cl f } def
/m2 {mp x y w2 sub m 0 w d x w2 sub y m w 0 d s} def
/m5 {mp x w2 sub y w2 sub m w w d x w2 sub y w2 add m w w neg d s} def
/reEncode {exch findfont dup length dict begin {1 index /FID eq  {pop pop} {def} ifelse } forall /Encoding exch def currentdict end dup /FontName get exch definefont pop } def [/Times-Bold /Times-Italic /Times-BoldItalic /Helvetica /Helvetica-Oblique
 /Helvetica-Bold /Helvetica-BoldOblique /Courier /Courier-Oblique /Courier-Bold /Courier-BoldOblique /Times-Roman /AvantGarde-Book /AvantGarde-BookOblique /AvantGarde-Demi /AvantGarde-DemiOblique /Bookman-Demi /Bookman-DemiItalic /Bookman-Light
 /Bookman-LightItalic /Helvetica-Narrow /Helvetica-Narrow-Bold /Helvetica-Narrow-BoldOblique /Helvetica-Narrow-Oblique /NewCenturySchlbk-Roman /NewCenturySchlbk-Bold /NewCenturySchlbk-BoldItalic /NewCenturySchlbk-Italic /Palatino-Bold
 /Palatino-BoldItalic /Palatino-Italic /Palatino-Roman ] {ISOLatin1Encoding reEncode } forall
%%EndProlog
%%BeginSetup
%%EndSetup
newpath  gsave  .25 .25 scale  gsave  0 0 t black[  ] 0 sd 3 lw 1 1 1 c 2268 2180 0 0 bf black 1 1 1 c 2268 1526 0 654 bf black 1 1 1 c 1814 1420 295 654 bf black 1814 1420 295 654 bl 1 0 0 c[  12 12 ] 0 sd 6 lw 1 1 1 c 1 0 0 c 340 1766 m 33 Y s 340
 1822 m 33 Y s 295 1811 m 34 X s 352 1811 m 34 X s 333 1766 m 15 X s 333 1855 m 15 X s 295 1803 m 15 Y s 386 1803 m 15 Y s[  ] 0 sd 3 lw /w 24 def /w2 {w 2 div} def /w3 {w 3 div} def 340 1811 m20[  12 12 ] 0 sd 6 lw 431 1069 m 17 Y s 431 1108 m 18 Y
 s 386 1097 m 33 X s 442 1097 m 34 X s 423 1069 m 15 X s 423 1126 m 15 X s 386 1090 m 15 Y s 476 1090 m 15 Y s[  ] 0 sd 3 lw 431 1097 m20[  12 12 ] 0 sd 6 lw 522 884 m 8 Y s 522 914 m 8 Y s 476 903 m 34 X s 533 903 m 34 X s 514 884 m 15 X s 514 922 m
 15 X s 476 895 m 15 Y s 567 895 m 15 Y s[  ] 0 sd 3 lw 522 903 m20[  12 12 ] 0 sd 6 lw 612 853 m 7 Y s 612 883 m 7 Y s 567 871 m 34 X s 624 871 m 34 X s 605 853 m 15 X s 605 890 m 15 X s 567 864 m 15 Y s 658 864 m 15 Y s[  ] 0 sd 3 lw 612 871 m20[ 
 12 12 ] 0 sd 6 lw 703 857 m 12 Y s 703 892 m 13 Y s 658 881 m 34 X s 714 881 m 34 X s 695 857 m 16 X s 695 905 m 16 X s 658 873 m 15 Y s 748 873 m 15 Y s[  ] 0 sd 3 lw 703 881 m20[  12 12 ] 0 sd 6 lw 794 828 m 8 Y s 794 858 m 8 Y s 748 847 m 34 X s
 805 847 m 34 X s 786 828 m 15 X s 786 866 m 15 X s 748 839 m 15 Y s 839 839 m 15 Y s[  ] 0 sd 3 lw 794 847 m20[  12 12 ] 0 sd 6 lw 884 768 m 8 Y s 884 799 m 8 Y s 839 788 m 34 X s 896 788 m 34 X s 877 768 m 15 X s 877 807 m 15 X s 839 780 m 15 Y s
 930 780 m 15 Y s[  ] 0 sd 3 lw 884 788 m20[  12 12 ] 0 sd 6 lw 975 776 m 5 Y s 975 804 m 5 Y s 930 793 m 34 X s 986 793 m 34 X s 968 776 m 15 X s 968 809 m 15 X s 930 785 m 15 Y s 1020 785 m 15 Y s[  ] 0 sd 3 lw 975 793 m20[  12 12 ] 0 sd 6 lw 1066
 741 m 2 Y s 1066 766 m 1 Y s 1020 754 m 34 X s 1077 754 m 34 X s 1058 741 m 15 X s 1058 767 m 15 X s 1020 747 m 15 Y s 1111 747 m 15 Y s[  ] 0 sd 3 lw 1066 754 m20[  12 12 ] 0 sd 6 lw 1157 779 m 6 Y s 1157 808 m 6 Y s 1111 797 m 34 X s 1168 797 m 34
 X s 1149 779 m 15 X s 1149 814 m 15 X s 1111 789 m 15 Y s 1202 789 m 15 Y s[  ] 0 sd 3 lw 1157 797 m20[  12 12 ] 0 sd 6 lw 1247 763 m 3 Y s 1247 789 m 3 Y s 1202 777 m 34 X s 1259 777 m 34 X s 1240 763 m 15 X s 1240 792 m 15 X s 1202 770 m 15 Y s
 1293 770 m 15 Y s[  ] 0 sd 3 lw 1247 777 m20[  12 12 ] 0 sd 6 lw 1338 773 m 3 Y s 1338 799 m 3 Y s 1293 788 m 34 X s 1349 788 m 34 X s 1330 773 m 16 X s 1330 802 m 16 X s 1293 780 m 15 Y s 1383 780 m 15 Y s[  ] 0 sd 3 lw 1338 788 m20[  12 12 ] 0 sd
 6 lw 1429 742 m 1 Y s 1429 766 m 2 Y s 1383 755 m 34 X s 1440 755 m 34 X s 1421 742 m 15 X s 1421 768 m 15 X s 1383 747 m 15 Y s 1474 747 m 15 Y s[  ] 0 sd 3 lw 1429 755 m20[  12 12 ] 0 sd 6 lw 1519 746 m 2 Y s 1519 771 m 2 Y s 1474 759 m 34 X s
 1531 759 m 34 X s 1512 746 m 15 X s 1512 773 m 15 X s 1474 752 m 15 Y s 1565 752 m 15 Y s[  ] 0 sd 3 lw 1519 759 m20[  12 12 ] 0 sd 6 lw 1565 741 m 34 X s 1621 741 m 34 X s 1565 733 m 15 Y s 1655 733 m 15 Y s[  ] 0 sd 3 lw 1610 741 m20[  12 12 ] 0
 sd 6 lw 1701 745 m 1 Y s 1701 769 m 1 Y s 1655 757 m 34 X s 1712 757 m 34 X s 1693 745 m 15 X s 1693 770 m 15 X s 1655 750 m 15 Y s 1746 750 m 15 Y s[  ] 0 sd 3 lw 1701 757 m20[  12 12 ] 0 sd 6 lw 1791 716 m 5 Y s 1791 743 m 5 Y s 1746 732 m 34 X s
 1803 732 m 34 X s 1784 716 m 15 X s 1784 748 m 15 X s 1746 724 m 16 Y s 1837 724 m 16 Y s[  ] 0 sd 3 lw 1791 732 m20[  12 12 ] 0 sd 6 lw 1837 689 m 34 X s 1894 689 m 34 X s 1837 682 m 15 Y s 1928 682 m 15 Y s[  ] 0 sd 3 lw 1882 689 m20[  12 12 ] 0
 sd 6 lw 1928 699 m 34 X s 1984 699 m 34 X s 1928 692 m 15 Y s 2018 692 m 15 Y s[  ] 0 sd 3 lw 1973 699 m20[  12 12 ] 0 sd 6 lw 2018 666 m 34 X s 2075 666 m 34 X s 2018 659 m 15 Y s 2109 659 m 15 Y s[  ] 0 sd 3 lw 2064 666 m20[  12 12 ] 0 sd 6 lw
 black[  ] 0 sd 3 lw 295 654 m 1814 X s
 gsave  2268 1526 0 654 C 1755.77 492.982 t 0 r /Helvetica findfont 72.1408 sf 0 0 m (BDT Score) show NC gr  295 691 m -37 Y s 340 672 m -18 Y s 386 672 m -18 Y s 431 672 m -18 Y s 476 691 m -37 Y s 522 672 m -18 Y s 567 672 m -18 Y s 612 672 m -18 Y
 s 658 691 m -37 Y s 703 672 m -18 Y s 748 672 m -18 Y s 794 672 m -18 Y s 839 691 m -37 Y s 884 672 m -18 Y s 930 672 m -18 Y s 975 672 m -18 Y s 1020 691 m -37 Y s 1066 672 m -18 Y s 1111 672 m -18 Y s 1157 672 m -18 Y s 1202 691 m -37 Y s 1247 672
 m -18 Y s 1293 672 m -18 Y s 1338 672 m -18 Y s 1383 691 m -37 Y s 1429 672 m -18 Y s 1474 672 m -18 Y s 1519 672 m -18 Y s 1565 691 m -37 Y s 1610 672 m -18 Y s 1655 672 m -18 Y s 1701 672 m -18 Y s 1746 691 m -37 Y s 1791 672 m -18 Y s 1837 672 m
 -18 Y s 1882 672 m -18 Y s 1928 691 m -37 Y s 1973 672 m -18 Y s 2018 672 m -18 Y s 2064 672 m -18 Y s 2109 691 m -37 Y s 295 691 m -37 Y s 1 1 1 c black 1 1 1 c
 gsave  2268 1526 0 654 C 295.789 587.786 t 0 r /Helvetica findfont 72.1408 sf 0 0 m (1) show NC gr  black 1 1 1 c
 gsave  2268 1526 0 654 C 257.867 587.786 t 0 r /Symbol findfont 72.1408 sf 0 0 m (-) show NC gr  black 1 1 1 c
 gsave  2268 1526 0 654 C 443.684 587.786 t 0 r /Helvetica findfont 72.1408 sf 0 0 m (0.8) show NC gr  black 1 1 1 c
 gsave  2268 1526 0 654 C 401.97 587.786 t 0 r /Symbol findfont 72.1408 sf 0 0 m (-) show NC gr  black 1 1 1 c
 gsave  2268 1526 0 654 C 625.708 587.786 t 0 r /Helvetica findfont 72.1408 sf 0 0 m (0.6) show NC gr  black 1 1 1 c
 gsave  2268 1526 0 654 C 583.994 587.786 t 0 r /Symbol findfont 72.1408 sf 0 0 m (-) show NC gr  black 1 1 1 c
 gsave  2268 1526 0 654 C 807.732 587.786 t 0 r /Helvetica findfont 72.1408 sf 0 0 m (0.4) show NC gr  black 1 1 1 c
 gsave  2268 1526 0 654 C 766.018 587.786 t 0 r /Symbol findfont 72.1408 sf 0 0 m (-) show NC gr  black 1 1 1 c
 gsave  2268 1526 0 654 C 989.756 587.786 t 0 r /Helvetica findfont 72.1408 sf 0 0 m (0.2) show NC gr  black 1 1 1 c
 gsave  2268 1526 0 654 C 948.042 587.786 t 0 r /Symbol findfont 72.1408 sf 0 0 m (-) show NC gr  black 1 1 1 c
 gsave  2268 1526 0 654 C 1179.36 587.786 t 0 r /Helvetica findfont 72.1408 sf 0 0 m (0) show NC gr  black 1 1 1 c
 gsave  2268 1526 0 654 C 1331.05 587.786 t 0 r /Helvetica findfont 72.1408 sf 0 0 m (0.2) show NC gr  black 1 1 1 c
 gsave  2268 1526 0 654 C 1513.08 587.786 t 0 r /Helvetica findfont 72.1408 sf 0 0 m (0.4) show NC gr  black 1 1 1 c
 gsave  2268 1526 0 654 C 1695.1 587.786 t 0 r /Helvetica findfont 72.1408 sf 0 0 m (0.6) show NC gr  black 1 1 1 c
 gsave  2268 1526 0 654 C 1877.12 587.786 t 0 r /Helvetica findfont 72.1408 sf 0 0 m (0.8) show NC gr  black 1 1 1 c
 gsave  2268 1526 0 654 C 2093.28 587.786 t 0 r /Helvetica findfont 72.1408 sf 0 0 m (1) show NC gr  black 295 2074 m 1814 X s 295 2037 m 37 Y s 340 2055 m 19 Y s 386 2055 m 19 Y s 431 2055 m 19 Y s 476 2037 m 37 Y s 522 2055 m 19 Y s 567 2055 m 19 Y
 s 612 2055 m 19 Y s 658 2037 m 37 Y s 703 2055 m 19 Y s 748 2055 m 19 Y s 794 2055 m 19 Y s 839 2037 m 37 Y s 884 2055 m 19 Y s 930 2055 m 19 Y s 975 2055 m 19 Y s 1020 2037 m 37 Y s 1066 2055 m 19 Y s 1111 2055 m 19 Y s 1157 2055 m 19 Y s 1202 2037
 m 37 Y s 1247 2055 m 19 Y s 1293 2055 m 19 Y s 1338 2055 m 19 Y s 1383 2037 m 37 Y s 1429 2055 m 19 Y s 1474 2055 m 19 Y s 1519 2055 m 19 Y s 1565 2037 m 37 Y s 1610 2055 m 19 Y s 1655 2055 m 19 Y s 1701 2055 m 19 Y s 1746 2037 m 37 Y s 1791 2055 m
 19 Y s 1837 2055 m 19 Y s 1882 2055 m 19 Y s 1928 2037 m 37 Y s 1973 2055 m 19 Y s 2018 2055 m 19 Y s 2064 2055 m 19 Y s 2109 2037 m 37 Y s 295 2037 m 37 Y s 295 654 m 1420 Y s 358 654 m -63 X s 326 688 m -31 X s 326 722 m -31 X s 326 755 m -31 X s
 326 789 m -31 X s 358 823 m -63 X s 326 856 m -31 X s 326 890 m -31 X s 326 924 m -31 X s 326 957 m -31 X s 358 991 m -63 X s 326 1025 m -31 X s 326 1059 m -31 X s 326 1092 m -31 X s 326 1126 m -31 X s 358 1160 m -63 X s 326 1193 m -31 X s 326 1227
 m -31 X s 326 1261 m -31 X s 326 1294 m -31 X s 358 1328 m -63 X s 326 1362 m -31 X s 326 1396 m -31 X s 326 1429 m -31 X s 326 1463 m -31 X s 358 1497 m -63 X s 326 1530 m -31 X s 326 1564 m -31 X s 326 1598 m -31 X s 326 1631 m -31 X s 358 1665 m
 -63 X s 326 1699 m -31 X s 326 1733 m -31 X s 326 1766 m -31 X s 326 1800 m -31 X s 358 1834 m -63 X s 326 1867 m -31 X s 326 1901 m -31 X s 326 1935 m -31 X s 326 1968 m -31 X s 358 2002 m -63 X s 358 2002 m -63 X s 326 2036 m -31 X s 326 2070 m
 -31 X s
 gsave  2268 1526 0 654 C 242.699 629.5 t 0 r /Helvetica findfont 72.1408 sf 0 0 m (0) show NC gr 
 gsave  2268 1526 0 654 C 200.985 796.355 t 0 r /Helvetica findfont 72.1408 sf 0 0 m (50) show NC gr 
 gsave  2268 1526 0 654 C 163.063 967.003 t 0 r /Helvetica findfont 72.1408 sf 0 0 m (100) show NC gr 
 gsave  2268 1526 0 654 C 163.063 1133.86 t 0 r /Helvetica findfont 72.1408 sf 0 0 m (150) show NC gr 
 gsave  2268 1526 0 654 C 163.063 1304.51 t 0 r /Helvetica findfont 72.1408 sf 0 0 m (200) show NC gr 
 gsave  2268 1526 0 654 C 163.063 1471.36 t 0 r /Helvetica findfont 72.1408 sf 0 0 m (250) show NC gr 
 gsave  2268 1526 0 654 C 163.063 1642.01 t 0 r /Helvetica findfont 72.1408 sf 0 0 m (300) show NC gr 
 gsave  2268 1526 0 654 C 163.063 1808.86 t 0 r /Helvetica findfont 72.1408 sf 0 0 m (350) show NC gr 
 gsave  2268 1526 0 654 C 163.063 1975.72 t 0 r /Helvetica findfont 72.1408 sf 0 0 m (400) show NC gr  2109 654 m 1420 Y s 2046 654 m 63 X s 2077 688 m 32 X s 2077 722 m 32 X s 2077 755 m 32 X s 2077 789 m 32 X s 2046 823 m 63 X s 2077 856 m 32 X s
 2077 890 m 32 X s 2077 924 m 32 X s 2077 957 m 32 X s 2046 991 m 63 X s 2077 1025 m 32 X s 2077 1059 m 32 X s 2077 1092 m 32 X s 2077 1126 m 32 X s 2046 1160 m 63 X s 2077 1193 m 32 X s 2077 1227 m 32 X s 2077 1261 m 32 X s 2077 1294 m 32 X s 2046
 1328 m 63 X s 2077 1362 m 32 X s 2077 1396 m 32 X s 2077 1429 m 32 X s 2077 1463 m 32 X s 2046 1497 m 63 X s 2077 1530 m 32 X s 2077 1564 m 32 X s 2077 1598 m 32 X s 2077 1631 m 32 X s 2046 1665 m 63 X s 2077 1699 m 32 X s 2077 1733 m 32 X s 2077
 1766 m 32 X s 2077 1800 m 32 X s 2046 1834 m 63 X s 2077 1867 m 32 X s 2077 1901 m 32 X s 2077 1935 m 32 X s 2077 1968 m 32 X s 2046 2002 m 63 X s 2046 2002 m 63 X s 2077 2036 m 32 X s 2077 2070 m 32 X s 0 0 1 c 6 lw 1 1 1 c 0 0 1 c 340 1792 m 34 Y
 s 340 1848 m 34 Y s 295 1837 m 34 X s 352 1837 m 34 X s 333 1792 m 15 X s 333 1882 m 15 X s 295 1829 m 16 Y s 386 1829 m 16 Y s 3 lw 340 1837 m20 6 lw 431 1071 m 16 Y s 431 1109 m 16 Y s 386 1098 m 33 X s 442 1098 m 34 X s 423 1071 m 15 X s 423 1125
 m 15 X s 386 1090 m 16 Y s 476 1090 m 16 Y s 3 lw 431 1098 m20 6 lw 522 932 m 18 Y s 522 972 m 18 Y s 476 961 m 34 X s 533 961 m 34 X s 514 932 m 15 X s 514 990 m 15 X s 476 953 m 16 Y s 567 953 m 16 Y s 3 lw 522 961 m20 6 lw 612 856 m 11 Y s 612
 890 m 11 Y s 567 879 m 34 X s 624 879 m 34 X s 605 856 m 15 X s 605 901 m 15 X s 567 871 m 15 Y s 658 871 m 15 Y s 3 lw 612 879 m20 6 lw 703 831 m 7 Y s 703 860 m 7 Y s 658 849 m 34 X s 714 849 m 34 X s 695 831 m 16 X s 695 867 m 16 X s 658 841 m 15
 Y s 748 841 m 15 Y s 3 lw 703 849 m20 6 lw 794 819 m 7 Y s 794 848 m 8 Y s 748 837 m 34 X s 805 837 m 34 X s 786 819 m 15 X s 786 856 m 15 X s 748 829 m 16 Y s 839 829 m 16 Y s 3 lw 794 837 m20 6 lw 884 801 m 6 Y s 884 830 m 6 Y s 839 818 m 34 X s
 896 818 m 34 X s 877 801 m 15 X s 877 836 m 15 X s 839 811 m 15 Y s 930 811 m 15 Y s 3 lw 884 818 m20 6 lw 975 792 m 4 Y s 975 818 m 4 Y s 930 807 m 34 X s 986 807 m 34 X s 968 792 m 15 X s 968 822 m 15 X s 930 800 m 15 Y s 1020 800 m 15 Y s 3 lw
 975 807 m20 6 lw 1066 760 m 7 Y s 1066 789 m 7 Y s 1020 778 m 34 X s 1077 778 m 34 X s 1058 760 m 15 X s 1058 796 m 15 X s 1020 770 m 16 Y s 1111 770 m 16 Y s 3 lw 1066 778 m20 6 lw 1157 755 m 2 Y s 1157 780 m 3 Y s 1111 769 m 34 X s 1168 769 m 34 X
 s 1149 755 m 15 X s 1149 783 m 15 X s 1111 761 m 15 Y s 1202 761 m 15 Y s 3 lw 1157 769 m20 6 lw 1247 772 m 3 Y s 1247 798 m 3 Y s 1202 787 m 34 X s 1259 787 m 34 X s 1240 772 m 15 X s 1240 801 m 15 X s 1202 779 m 15 Y s 1293 779 m 15 Y s 3 lw 1247
 787 m20 6 lw 1338 737 m 1 Y s 1338 761 m 1 Y s 1293 750 m 34 X s 1349 750 m 34 X s 1330 737 m 16 X s 1330 762 m 16 X s 1293 742 m 15 Y s 1383 742 m 15 Y s 3 lw 1338 750 m20 6 lw 1429 739 m 2 Y s 1429 764 m 1 Y s 1383 752 m 34 X s 1440 752 m 34 X s
 1421 739 m 15 X s 1421 765 m 15 X s 1383 745 m 15 Y s 1474 745 m 15 Y s 3 lw 1429 752 m20 6 lw 1519 747 m 2 Y s 1519 772 m 2 Y s 1474 761 m 34 X s 1531 761 m 34 X s 1512 747 m 15 X s 1512 774 m 15 X s 1474 753 m 15 Y s 1565 753 m 15 Y s 3 lw 1519
 761 m20 6 lw 1610 737 m 1 Y s 1610 760 m 1 Y s 1565 749 m 34 X s 1621 749 m 34 X s 1602 737 m 16 X s 1602 761 m 16 X s 1565 741 m 16 Y s 1655 741 m 16 Y s 3 lw 1610 749 m20 6 lw 1655 728 m 34 X s 1712 728 m 34 X s 1655 720 m 15 Y s 1746 720 m 15 Y s
 3 lw 1701 728 m20 6 lw 1746 705 m 34 X s 1803 705 m 34 X s 1746 697 m 15 Y s 1837 697 m 15 Y s 3 lw 1791 705 m20 6 lw 1882 691 m 3 Y s 1882 716 m 3 Y s 1837 705 m 34 X s 1894 705 m 34 X s 1875 691 m 15 X s 1875 719 m 15 X s 1837 697 m 16 Y s 1928
 697 m 16 Y s 3 lw 1882 705 m20 6 lw 1928 676 m 34 X s 1984 676 m 34 X s 1928 668 m 16 Y s 2018 668 m 16 Y s 3 lw 1973 676 m20 6 lw 2018 661 m 34 X s 2075 661 m 34 X s 2018 654 m 14 Y s 2109 654 m 14 Y s 3 lw 2064 661 m20 6 lw black
 gsave  2268 1526 0 654 C 1289.34 1956.76 t 0 r /Helvetica-Bold findfont 53.1564 sf 0 0 m (Testing Background) show NC gr  1 0 0 c[  12 12 ] 0 sd 869 1971 m 349 X s black
 gsave  2268 1526 0 654 C 1289.34 1842.99 t 0 r /Helvetica-Bold findfont 53.1564 sf 0 0 m (Training Background) show NC gr  0 0 1 c[  ] 0 sd 869 1856 m 349 X s black
 gsave  2268 1526 0 654 C 1471.36 1725.44 t 0 r /Helvetica findfont 56.9533 sf 0 0 m (Kol = 0.262842) show NC gr  3 lw 1 1 1 c black 1 1 1 c 1814 425 295 229 bf black 1814 425 295 229 bl 295 229 m 1814 X s[ 4 8] 0 sd 295 654 m -425 Y s 476 654 m -425
 Y s 658 654 m -425 Y s 839 654 m -425 Y s 1020 654 m -425 Y s 1202 654 m -425 Y s 1383 654 m -425 Y s 1565 654 m -425 Y s 1746 654 m -425 Y s 1928 654 m -425 Y s 2109 654 m -425 Y s 295 654 m -425 Y s[  ] 0 sd 295 654 m 1814 X s 295 229 m 425 Y s[ 4
 8] 0 sd 2109 229 m -1814 X s 2109 335 m -1814 X s 2109 442 m -1814 X s 2109 548 m -1814 X s 2109 654 m -1814 X s[  ] 0 sd 2109 229 m 425 Y s 6 lw 1 1 1 c black 295 437 m 34 X s 352 437 m 34 X s 3 lw 340 437 m20 6 lw 431 422 m 8 Y s 431 453 m 7 Y s
 386 441 m 33 X s 442 441 m 34 X s 3 lw 431 441 m20 6 lw 522 380 m 10 Y s 522 413 m 9 Y s 476 401 m 34 X s 533 401 m 34 X s 3 lw 522 401 m20 6 lw 612 408 m 15 Y s 612 446 m 16 Y s 567 435 m 34 X s 624 435 m 34 X s 3 lw 612 435 m20 6 lw 703 442 m 23 Y
 s 703 488 m 23 Y s 658 476 m 34 X s 714 476 m 34 X s 3 lw 703 476 m20 6 lw 794 421 m 21 Y s 794 464 m 21 Y s 748 453 m 34 X s 805 453 m 34 X s 3 lw 794 453 m20 6 lw 884 371 m 20 Y s 884 413 m 20 Y s 839 402 m 34 X s 896 402 m 34 X s 3 lw 884 402 m20
 6 lw 975 392 m 18 Y s 975 433 m 18 Y s 930 421 m 34 X s 986 421 m 34 X s 3 lw 975 421 m20 6 lw 1066 368 m 22 Y s 1066 412 m 22 Y s 1020 401 m 34 X s 1077 401 m 34 X s 3 lw 1066 401 m20 6 lw 1157 448 m 34 Y s 1157 505 m 35 Y s 1111 494 m 34 X s 1168
 494 m 34 X s 3 lw 1157 494 m20 6 lw 1247 394 m 21 Y s 1247 438 m 21 Y s 1202 427 m 34 X s 1259 427 m 34 X s 3 lw 1247 427 m20 6 lw 1338 476 m 39 Y s 1338 538 m 39 Y s 1293 526 m 34 X s 1349 526 m 34 X s 3 lw 1338 526 m20 6 lw 1429 407 m 29 Y s 1429
 458 m 29 Y s 1383 447 m 34 X s 1440 447 m 34 X s 3 lw 1429 447 m20 6 lw 1519 401 m 27 Y s 1519 451 m 27 Y s 1474 439 m 34 X s 1531 439 m 34 X s 3 lw 1519 439 m20 6 lw 1610 387 m 25 Y s 1610 434 m 25 Y s 1565 423 m 34 X s 1621 423 m 34 X s 3 lw 1610
 423 m20 6 lw 1701 473 m 43 Y s 1701 538 m 43 Y s 1655 527 m 34 X s 1712 527 m 34 X s 3 lw 1701 527 m20 6 lw 1791 468 m 76 Y s 1791 567 m 76 Y s 1746 556 m 34 X s 1803 556 m 34 X s 3 lw 1791 556 m20 6 lw 1882 321 m 43 Y s 1882 387 m 43 Y s 1837 376 m
 34 X s 1894 376 m 34 X s 3 lw 1882 376 m20 6 lw 2064 415 m 196 Y s 2064 633 m 21 Y s 2018 622 m 34 X s 2075 622 m 34 X s 3 lw 2064 622 m20 6 lw 3 lw 295 229 m 1814 X s
 gsave  2268 654 0 0 C 1664.76 56.8825 t 0 r /Helvetica findfont 91.2766 sf 0 0 m (BDT Score) show NC gr  295 245 m -16 Y s 340 237 m -8 Y s 386 237 m -8 Y s 431 237 m -8 Y s 476 245 m -16 Y s 522 237 m -8 Y s 567 237 m -8 Y s 612 237 m -8 Y s 658
 245 m -16 Y s 703 237 m -8 Y s 748 237 m -8 Y s 794 237 m -8 Y s 839 245 m -16 Y s 884 237 m -8 Y s 930 237 m -8 Y s 975 237 m -8 Y s 1020 245 m -16 Y s 1066 237 m -8 Y s 1111 237 m -8 Y s 1157 237 m -8 Y s 1202 245 m -16 Y s 1247 237 m -8 Y s 1293
 237 m -8 Y s 1338 237 m -8 Y s 1383 245 m -16 Y s 1429 237 m -8 Y s 1474 237 m -8 Y s 1519 237 m -8 Y s 1565 245 m -16 Y s 1610 237 m -8 Y s 1655 237 m -8 Y s 1701 237 m -8 Y s 1746 245 m -16 Y s 1791 237 m -8 Y s 1837 237 m -8 Y s 1882 237 m -8 Y s
 1928 245 m -16 Y s 1973 237 m -8 Y s 2018 237 m -8 Y s 2064 237 m -8 Y s 2109 245 m -16 Y s 295 245 m -16 Y s
 gsave  2268 654 0 0 C 295.789 163.063 t 0 r /Helvetica findfont 72.2607 sf 0 0 m (1) show NC gr 
 gsave  2268 654 0 0 C 257.867 163.063 t 0 r /Symbol findfont 72.2607 sf 0 0 m (-) show NC gr 
 gsave  2268 654 0 0 C 443.684 163.063 t 0 r /Helvetica findfont 72.2607 sf 0 0 m (0.8) show NC gr 
 gsave  2268 654 0 0 C 401.97 163.063 t 0 r /Symbol findfont 72.2607 sf 0 0 m (-) show NC gr 
 gsave  2268 654 0 0 C 625.708 163.063 t 0 r /Helvetica findfont 72.2607 sf 0 0 m (0.6) show NC gr 
 gsave  2268 654 0 0 C 583.994 163.063 t 0 r /Symbol findfont 72.2607 sf 0 0 m (-) show NC gr 
 gsave  2268 654 0 0 C 807.732 163.063 t 0 r /Helvetica findfont 72.2607 sf 0 0 m (0.4) show NC gr 
 gsave  2268 654 0 0 C 766.018 163.063 t 0 r /Symbol findfont 72.2607 sf 0 0 m (-) show NC gr 
 gsave  2268 654 0 0 C 989.756 163.063 t 0 r /Helvetica findfont 72.2607 sf 0 0 m (0.2) show NC gr 
 gsave  2268 654 0 0 C 948.042 163.063 t 0 r /Symbol findfont 72.2607 sf 0 0 m (-) show NC gr 
 gsave  2268 654 0 0 C 1179.36 163.063 t 0 r /Helvetica findfont 72.2607 sf 0 0 m (0) show NC gr 
 gsave  2268 654 0 0 C 1331.05 163.063 t 0 r /Helvetica findfont 72.2607 sf 0 0 m (0.2) show NC gr 
 gsave  2268 654 0 0 C 1513.08 163.063 t 0 r /Helvetica findfont 72.2607 sf 0 0 m (0.4) show NC gr 
 gsave  2268 654 0 0 C 1695.1 163.063 t 0 r /Helvetica findfont 72.2607 sf 0 0 m (0.6) show NC gr 
 gsave  2268 654 0 0 C 1877.12 163.063 t 0 r /Helvetica findfont 72.2607 sf 0 0 m (0.8) show NC gr 
 gsave  2268 654 0 0 C 2093.28 163.063 t 0 r /Helvetica findfont 72.2607 sf 0 0 m (1) show NC gr  295 654 m 1814 X s 295 638 m 16 Y s 340 646 m 8 Y s 386 646 m 8 Y s 431 646 m 8 Y s 476 638 m 16 Y s 522 646 m 8 Y s 567 646 m 8 Y s 612 646 m 8 Y s 658
 638 m 16 Y s 703 646 m 8 Y s 748 646 m 8 Y s 794 646 m 8 Y s 839 638 m 16 Y s 884 646 m 8 Y s 930 646 m 8 Y s 975 646 m 8 Y s 1020 638 m 16 Y s 1066 646 m 8 Y s 1111 646 m 8 Y s 1157 646 m 8 Y s 1202 638 m 16 Y s 1247 646 m 8 Y s 1293 646 m 8 Y s
 1338 646 m 8 Y s 1383 638 m 16 Y s 1429 646 m 8 Y s 1474 646 m 8 Y s 1519 646 m 8 Y s 1565 638 m 16 Y s 1610 646 m 8 Y s 1655 646 m 8 Y s 1701 646 m 8 Y s 1746 638 m 16 Y s 1791 646 m 8 Y s 1837 646 m 8 Y s 1882 646 m 8 Y s 1928 638 m 16 Y s 1973
 646 m 8 Y s 2018 646 m 8 Y s 2064 646 m 8 Y s 2109 638 m 16 Y s 295 638 m 16 Y s 295 229 m 425 Y s
 gsave  2268 654 0 0 C 151.687 246.491 t 90 r /Helvetica findfont 68.4575 sf 0 0 m (Test/Training) show NC gr  339 229 m -44 X s 317 250 m -22 X s 317 271 m -22 X s 317 293 m -22 X s 317 314 m -22 X s 339 335 m -44 X s 317 357 m -22 X s 317 378 m -22
 X s 317 399 m -22 X s 317 420 m -22 X s 339 442 m -44 X s 317 463 m -22 X s 317 484 m -22 X s 317 505 m -22 X s 317 527 m -22 X s 339 548 m -44 X s 317 569 m -22 X s 317 590 m -22 X s 317 612 m -22 X s 317 633 m -22 X s 339 654 m -44 X s
 gsave  2268 654 0 0 C 242.699 204.777 t 0 r /Helvetica findfont 72.2607 sf 0 0 m (0) show NC gr 
 gsave  2268 654 0 0 C 182.024 310.958 t 0 r /Helvetica findfont 72.2607 sf 0 0 m (0.5) show NC gr 
 gsave  2268 654 0 0 C 254.075 413.346 t 0 r /Helvetica findfont 72.2607 sf 0 0 m (1) show NC gr 
 gsave  2268 654 0 0 C 182.024 523.319 t 0 r /Helvetica findfont 72.2607 sf 0 0 m (1.5) show NC gr 
 gsave  2268 654 0 0 C 242.699 625.708 t 0 r /Helvetica findfont 72.2607 sf 0 0 m (2) show NC gr  2109 229 m 425 Y s 2065 229 m 44 X s 2087 250 m 22 X s 2087 271 m 22 X s 2087 293 m 22 X s 2087 314 m 22 X s 2065 335 m 44 X s 2087 357 m 22 X s 2087
 378 m 22 X s 2087 399 m 22 X s 2087 420 m 22 X s 2065 442 m 44 X s 2087 463 m 22 X s 2087 484 m 22 X s 2087 505 m 22 X s 2087 527 m 22 X s 2065 548 m 44 X s 2087 569 m 22 X s 2087 590 m 22 X s 2087 612 m 22 X s 2087 633 m 22 X s 2065 654 m 44 X s 1
 0 0 c 295 442 m 1814 X s
 gr  gr showpage
end
%%EOF
