%!PS-Adobe-2.0 EPSF-2.0
%%BoundingBox:  0 0 567 545
%%Title: hh_3j_bdt_sig.eps: c1
%%Creator: ROOT Version 5.34/32
%%CreationDate: Sat Nov 25 20:08:48 2017
%%EndComments
%%BeginProlog
80 dict begin
/s {stroke} def /l {lineto} def /m {moveto} def /t {translate} def
/r {rotate} def /rl {roll}  def /R {repeat} def
/d {rlineto} def /rm {rmoveto} def /gr {grestore} def /f {eofill} def
/c {setrgbcolor} def /black {0 setgray} def /sd {setdash} def
/cl {closepath} def /sf {scalefont setfont} def /lw {setlinewidth} def
/box {m dup 0 exch d exch 0 d 0 exch neg d cl} def
/NC{systemdict begin initclip end}def/C{NC box clip newpath}def
/bl {box s} def /bf {gsave box gsave f grestore 1 lw [] 0 sd s grestore} def /Y { 0 exch d} def /X { 0 d} def 
/K {{pop pop 0 moveto} exch kshow} bind def
/ita {/ang 15 def gsave [1 0 ang dup sin exch cos div 1 0 0] concat} def 
/mp {newpath /y exch def /x exch def} def
/side {[w .77 mul w .23 mul] .385 w mul sd w 0 l currentpoint t -144 r} def
/mr {mp x y w2 0 360 arc} def /m24 {mr s} def /m20 {mr f} def
/mb {mp x y w2 add m w2 neg 0 d 0 w neg d w 0 d 0 w d cl} def
/mt {mp x y w2 add m w2 neg w neg d w 0 d cl} def
/m21 {mb f} def /m25 {mb s} def /m22 {mt f} def /m26{mt s} def
/m23 {mp x y w2 sub m w2 w d w neg 0 d cl f} def
/m27 {mp x y w2 add m w3 neg w2 neg d w3 w2 neg d w3 w2 d cl s} def
/m28 {mp x w2 sub y w2 sub w3 add m w3 0 d  0 w3 neg d w3 0 d 0 w3 d w3 0 d  0 w3 d w3 neg 0 d 0 w3 d w3 neg 0 d 0 w3 neg d w3 neg 0 d cl s } def
/m29 {mp gsave x w2 sub y w2 add w3 sub m currentpoint t 4 {side} repeat cl fill gr} def
/m30 {mp gsave x w2 sub y w2 add w3 sub m currentpoint t 4 {side} repeat cl s gr} def
/m31 {mp x y w2 sub m 0 w d x w2 sub y m w 0 d x w2 sub y w2 add m w w neg d x w2 sub y w2 sub m w w d s} def
/m32 {mp x y w2 sub m w2 w d w neg 0 d cl s} def
/m33 {mp x y w2 add m w3 neg w2 neg d w3 w2 neg d w3 w2 d cl f} def
/m34 {mp x w2 sub y w2 sub w3 add m w3 0 d  0 w3 neg d w3 0 d 0 w3 d w3 0 d  0 w3 d w3 neg 0 d 0 w3 d w3 neg 0 d 0 w3 neg d w3 neg 0 d cl f } def
/m2 {mp x y w2 sub m 0 w d x w2 sub y m w 0 d s} def
/m5 {mp x w2 sub y w2 sub m w w d x w2 sub y w2 add m w w neg d s} def
/reEncode {exch findfont dup length dict begin {1 index /FID eq  {pop pop} {def} ifelse } forall /Encoding exch def currentdict end dup /FontName get exch definefont pop } def [/Times-Bold /Times-Italic /Times-BoldItalic /Helvetica /Helvetica-Oblique
 /Helvetica-Bold /Helvetica-BoldOblique /Courier /Courier-Oblique /Courier-Bold /Courier-BoldOblique /Times-Roman /AvantGarde-Book /AvantGarde-BookOblique /AvantGarde-Demi /AvantGarde-DemiOblique /Bookman-Demi /Bookman-DemiItalic /Bookman-Light
 /Bookman-LightItalic /Helvetica-Narrow /Helvetica-Narrow-Bold /Helvetica-Narrow-BoldOblique /Helvetica-Narrow-Oblique /NewCenturySchlbk-Roman /NewCenturySchlbk-Bold /NewCenturySchlbk-BoldItalic /NewCenturySchlbk-Italic /Palatino-Bold
 /Palatino-BoldItalic /Palatino-Italic /Palatino-Roman ] {ISOLatin1Encoding reEncode } forall
%%EndProlog
%%BeginSetup
%%EndSetup
newpath  gsave  .25 .25 scale  gsave  0 0 t black[  ] 0 sd 3 lw 1 1 1 c 2268 2180 0 0 bf black 1 1 1 c 2268 1526 0 654 bf black 1 1 1 c 1814 1420 295 654 bf black 1814 1420 295 654 bl 1 0 0 c[  12 12 ] 0 sd 6 lw 1 1 1 c 1 0 0 c 340 710 m 15 Y s 340
 747 m 15 Y s 295 736 m 34 X s 352 736 m 34 X s 333 710 m 15 X s 333 762 m 15 X s 295 728 m 16 Y s 386 728 m 16 Y s[  ] 0 sd 3 lw /w 24 def /w2 {w 2 div} def /w3 {w 3 div} def 340 736 m20[  12 12 ] 0 sd 6 lw 431 690 m 15 Y s 431 727 m 15 Y s 386 716
 m 33 X s 442 716 m 34 X s 423 690 m 15 X s 423 742 m 15 X s 386 708 m 16 Y s 476 708 m 16 Y s[  ] 0 sd 3 lw 431 716 m20[  12 12 ] 0 sd 6 lw 522 700 m 24 Y s 522 747 m 24 Y s 476 735 m 34 X s 533 735 m 34 X s 514 700 m 15 X s 514 771 m 15 X s 476 728
 m 15 Y s 567 728 m 15 Y s[  ] 0 sd 3 lw 522 735 m20[  12 12 ] 0 sd 6 lw 612 737 m 33 Y s 612 793 m 32 Y s 567 781 m 34 X s 624 781 m 34 X s 605 737 m 15 X s 605 825 m 15 X s 567 774 m 15 Y s 658 774 m 15 Y s[  ] 0 sd 3 lw 612 781 m20[  12 12 ] 0 sd
 6 lw 703 676 m 10 Y s 703 709 m 10 Y s 658 697 m 34 X s 714 697 m 34 X s 695 676 m 16 X s 695 719 m 16 X s 658 690 m 15 Y s 748 690 m 15 Y s[  ] 0 sd 3 lw 703 697 m20[  12 12 ] 0 sd 6 lw 794 699 m 21 Y s 794 742 m 20 Y s 748 731 m 34 X s 805 731 m
 34 X s 786 699 m 15 X s 786 762 m 15 X s 748 723 m 15 Y s 839 723 m 15 Y s[  ] 0 sd 3 lw 794 731 m20[  12 12 ] 0 sd 6 lw 884 750 m 30 Y s 884 803 m 30 Y s 839 791 m 34 X s 896 791 m 34 X s 877 750 m 15 X s 877 833 m 15 X s 839 784 m 15 Y s 930 784 m
 15 Y s[  ] 0 sd 3 lw 884 791 m20[  12 12 ] 0 sd 6 lw 975 723 m 18 Y s 975 764 m 19 Y s 930 753 m 34 X s 986 753 m 34 X s 968 723 m 15 X s 968 783 m 15 X s 930 745 m 15 Y s 1020 745 m 15 Y s[  ] 0 sd 3 lw 975 753 m20[  12 12 ] 0 sd 6 lw 1066 820 m 26
 Y s 1066 869 m 26 Y s 1020 857 m 34 X s 1077 857 m 34 X s 1058 820 m 15 X s 1058 895 m 15 X s 1020 850 m 15 Y s 1111 850 m 15 Y s[  ] 0 sd 3 lw 1066 857 m20[  12 12 ] 0 sd 6 lw 1157 758 m 29 Y s 1157 810 m 29 Y s 1111 799 m 34 X s 1168 799 m 34 X s
 1149 758 m 15 X s 1149 839 m 15 X s 1111 791 m 15 Y s 1202 791 m 15 Y s[  ] 0 sd 3 lw 1157 799 m20[  12 12 ] 0 sd 6 lw 1247 854 m 31 Y s 1247 908 m 32 Y s 1202 897 m 34 X s 1259 897 m 34 X s 1240 854 m 15 X s 1240 940 m 15 X s 1202 889 m 15 Y s 1293
 889 m 15 Y s[  ] 0 sd 3 lw 1247 897 m20[  12 12 ] 0 sd 6 lw 1338 856 m 35 Y s 1338 914 m 35 Y s 1293 902 m 34 X s 1349 902 m 34 X s 1330 856 m 16 X s 1330 949 m 16 X s 1293 895 m 15 Y s 1383 895 m 15 Y s[  ] 0 sd 3 lw 1338 902 m20[  12 12 ] 0 sd 6
 lw 1429 905 m 51 Y s 1429 979 m 51 Y s 1383 967 m 34 X s 1440 967 m 34 X s 1421 905 m 15 X s 1421 1030 m 15 X s 1383 960 m 15 Y s 1474 960 m 15 Y s[  ] 0 sd 3 lw 1429 967 m20[  12 12 ] 0 sd 6 lw 1519 973 m 42 Y s 1519 1038 m 42 Y s 1474 1027 m 34 X
 s 1531 1027 m 34 X s 1512 973 m 15 X s 1512 1080 m 15 X s 1474 1019 m 15 Y s 1565 1019 m 15 Y s[  ] 0 sd 3 lw 1519 1027 m20[  12 12 ] 0 sd 6 lw 1610 1122 m 68 Y s 1610 1213 m 69 Y s 1565 1202 m 34 X s 1621 1202 m 34 X s 1602 1122 m 16 X s 1602 1282
 m 16 X s 1565 1194 m 15 Y s 1655 1194 m 15 Y s[  ] 0 sd 3 lw 1610 1202 m20[  12 12 ] 0 sd 6 lw 1701 1261 m 65 Y s 1701 1349 m 65 Y s 1655 1338 m 34 X s 1712 1338 m 34 X s 1693 1261 m 15 X s 1693 1414 m 15 X s 1655 1330 m 15 Y s 1746 1330 m 15 Y s[ 
 ] 0 sd 3 lw 1701 1338 m20[  12 12 ] 0 sd 6 lw 1791 1201 m 61 Y s 1791 1285 m 61 Y s 1746 1274 m 34 X s 1803 1274 m 34 X s 1784 1201 m 15 X s 1784 1346 m 15 X s 1746 1266 m 15 Y s 1837 1266 m 15 Y s[  ] 0 sd 3 lw 1791 1274 m20[  12 12 ] 0 sd 6 lw
 1882 1410 m 67 Y s 1882 1500 m 67 Y s 1837 1489 m 34 X s 1894 1489 m 34 X s 1875 1410 m 15 X s 1875 1567 m 15 X s 1837 1481 m 15 Y s 1928 1481 m 15 Y s[  ] 0 sd 3 lw 1882 1489 m20[  12 12 ] 0 sd 6 lw 1973 1588 m 83 Y s 1973 1694 m 83 Y s 1928 1683 m
 34 X s 1984 1683 m 34 X s 1965 1588 m 15 X s 1965 1777 m 15 X s 1928 1675 m 15 Y s 2018 1675 m 15 Y s[  ] 0 sd 3 lw 1973 1683 m20[  12 12 ] 0 sd 6 lw 2064 1447 m 82 Y s 2064 1552 m 82 Y s 2018 1541 m 34 X s 2075 1541 m 34 X s 2056 1447 m 15 X s 2056
 1634 m 15 X s 2018 1533 m 15 Y s 2109 1533 m 15 Y s[  ] 0 sd 3 lw 2064 1541 m20[  12 12 ] 0 sd 6 lw black[  ] 0 sd 3 lw 295 654 m 1814 X s 295 691 m -37 Y s 340 672 m -18 Y s 386 672 m -18 Y s 431 672 m -18 Y s 476 691 m -37 Y s 522 672 m -18 Y s
 567 672 m -18 Y s 612 672 m -18 Y s 658 691 m -37 Y s 703 672 m -18 Y s 748 672 m -18 Y s 794 672 m -18 Y s 839 691 m -37 Y s 884 672 m -18 Y s 930 672 m -18 Y s 975 672 m -18 Y s 1020 691 m -37 Y s 1066 672 m -18 Y s 1111 672 m -18 Y s 1157 672 m
 -18 Y s 1202 691 m -37 Y s 1247 672 m -18 Y s 1293 672 m -18 Y s 1338 672 m -18 Y s 1383 691 m -37 Y s 1429 672 m -18 Y s 1474 672 m -18 Y s 1519 672 m -18 Y s 1565 691 m -37 Y s 1610 672 m -18 Y s 1655 672 m -18 Y s 1701 672 m -18 Y s 1746 691 m
 -37 Y s 1791 672 m -18 Y s 1837 672 m -18 Y s 1882 672 m -18 Y s 1928 691 m -37 Y s 1973 672 m -18 Y s 2018 672 m -18 Y s 2064 672 m -18 Y s 2109 691 m -37 Y s 295 691 m -37 Y s 1 1 1 c black 1 1 1 c
 gsave  2268 1526 0 654 C 295.789 587.786 t 0 r /Helvetica findfont 72.1408 sf 0 0 m (1) show NC gr  black 1 1 1 c
 gsave  2268 1526 0 654 C 257.867 587.786 t 0 r /Symbol findfont 72.1408 sf 0 0 m (-) show NC gr  black 1 1 1 c
 gsave  2268 1526 0 654 C 443.684 587.786 t 0 r /Helvetica findfont 72.1408 sf 0 0 m (0.8) show NC gr  black 1 1 1 c
 gsave  2268 1526 0 654 C 401.97 587.786 t 0 r /Symbol findfont 72.1408 sf 0 0 m (-) show NC gr  black 1 1 1 c
 gsave  2268 1526 0 654 C 625.708 587.786 t 0 r /Helvetica findfont 72.1408 sf 0 0 m (0.6) show NC gr  black 1 1 1 c
 gsave  2268 1526 0 654 C 583.994 587.786 t 0 r /Symbol findfont 72.1408 sf 0 0 m (-) show NC gr  black 1 1 1 c
 gsave  2268 1526 0 654 C 807.732 587.786 t 0 r /Helvetica findfont 72.1408 sf 0 0 m (0.4) show NC gr  black 1 1 1 c
 gsave  2268 1526 0 654 C 766.018 587.786 t 0 r /Symbol findfont 72.1408 sf 0 0 m (-) show NC gr  black 1 1 1 c
 gsave  2268 1526 0 654 C 989.756 587.786 t 0 r /Helvetica findfont 72.1408 sf 0 0 m (0.2) show NC gr  black 1 1 1 c
 gsave  2268 1526 0 654 C 948.042 587.786 t 0 r /Symbol findfont 72.1408 sf 0 0 m (-) show NC gr  black 1 1 1 c
 gsave  2268 1526 0 654 C 1179.36 587.786 t 0 r /Helvetica findfont 72.1408 sf 0 0 m (0) show NC gr  black 1 1 1 c
 gsave  2268 1526 0 654 C 1331.05 587.786 t 0 r /Helvetica findfont 72.1408 sf 0 0 m (0.2) show NC gr  black 1 1 1 c
 gsave  2268 1526 0 654 C 1513.08 587.786 t 0 r /Helvetica findfont 72.1408 sf 0 0 m (0.4) show NC gr  black 1 1 1 c
 gsave  2268 1526 0 654 C 1695.1 587.786 t 0 r /Helvetica findfont 72.1408 sf 0 0 m (0.6) show NC gr  black 1 1 1 c
 gsave  2268 1526 0 654 C 1877.12 587.786 t 0 r /Helvetica findfont 72.1408 sf 0 0 m (0.8) show NC gr  black 1 1 1 c
 gsave  2268 1526 0 654 C 2093.28 587.786 t 0 r /Helvetica findfont 72.1408 sf 0 0 m (1) show NC gr  black 295 2074 m 1814 X s 295 2037 m 37 Y s 340 2055 m 19 Y s 386 2055 m 19 Y s 431 2055 m 19 Y s 476 2037 m 37 Y s 522 2055 m 19 Y s 567 2055 m 19 Y
 s 612 2055 m 19 Y s 658 2037 m 37 Y s 703 2055 m 19 Y s 748 2055 m 19 Y s 794 2055 m 19 Y s 839 2037 m 37 Y s 884 2055 m 19 Y s 930 2055 m 19 Y s 975 2055 m 19 Y s 1020 2037 m 37 Y s 1066 2055 m 19 Y s 1111 2055 m 19 Y s 1157 2055 m 19 Y s 1202 2037
 m 37 Y s 1247 2055 m 19 Y s 1293 2055 m 19 Y s 1338 2055 m 19 Y s 1383 2037 m 37 Y s 1429 2055 m 19 Y s 1474 2055 m 19 Y s 1519 2055 m 19 Y s 1565 2037 m 37 Y s 1610 2055 m 19 Y s 1655 2055 m 19 Y s 1701 2055 m 19 Y s 1746 2037 m 37 Y s 1791 2055 m
 19 Y s 1837 2055 m 19 Y s 1882 2055 m 19 Y s 1928 2037 m 37 Y s 1973 2055 m 19 Y s 2018 2055 m 19 Y s 2064 2055 m 19 Y s 2109 2037 m 37 Y s 295 2037 m 37 Y s 295 654 m 1420 Y s 358 654 m -63 X s 326 702 m -31 X s 326 750 m -31 X s 326 797 m -31 X s
 326 845 m -31 X s 358 893 m -63 X s 326 940 m -31 X s 326 988 m -31 X s 326 1036 m -31 X s 326 1083 m -31 X s 358 1131 m -63 X s 326 1179 m -31 X s 326 1227 m -31 X s 326 1274 m -31 X s 326 1322 m -31 X s 358 1370 m -63 X s 326 1417 m -31 X s 326
 1465 m -31 X s 326 1513 m -31 X s 326 1560 m -31 X s 358 1608 m -63 X s 326 1656 m -31 X s 326 1704 m -31 X s 326 1751 m -31 X s 326 1799 m -31 X s 358 1847 m -63 X s 358 1847 m -63 X s 326 1894 m -31 X s 326 1942 m -31 X s 326 1990 m -31 X s 326
 2037 m -31 X s
 gsave  2268 1526 0 654 C 242.699 629.5 t 0 r /Helvetica findfont 72.1408 sf 0 0 m (0) show NC gr 
 gsave  2268 1526 0 654 C 254.075 864.614 t 0 r /Helvetica findfont 72.1408 sf 0 0 m (1) show NC gr 
 gsave  2268 1526 0 654 C 242.699 1103.52 t 0 r /Helvetica findfont 72.1408 sf 0 0 m (2) show NC gr 
 gsave  2268 1526 0 654 C 242.699 1346.22 t 0 r /Helvetica findfont 72.1408 sf 0 0 m (3) show NC gr 
 gsave  2268 1526 0 654 C 242.699 1581.33 t 0 r /Helvetica findfont 72.1408 sf 0 0 m (4) show NC gr 
 gsave  2268 1526 0 654 C 242.699 1820.24 t 0 r /Helvetica findfont 72.1408 sf 0 0 m (5) show NC gr  2109 654 m 1420 Y s 2046 654 m 63 X s 2077 702 m 32 X s 2077 750 m 32 X s 2077 797 m 32 X s 2077 845 m 32 X s 2046 893 m 63 X s 2077 940 m 32 X s
 2077 988 m 32 X s 2077 1036 m 32 X s 2077 1083 m 32 X s 2046 1131 m 63 X s 2077 1179 m 32 X s 2077 1227 m 32 X s 2077 1274 m 32 X s 2077 1322 m 32 X s 2046 1370 m 63 X s 2077 1417 m 32 X s 2077 1465 m 32 X s 2077 1513 m 32 X s 2077 1560 m 32 X s
 2046 1608 m 63 X s 2077 1656 m 32 X s 2077 1704 m 32 X s 2077 1751 m 32 X s 2077 1799 m 32 X s 2046 1847 m 63 X s 2046 1847 m 63 X s 2077 1894 m 32 X s 2077 1942 m 32 X s 2077 1990 m 32 X s 2077 2037 m 32 X s 0 0 1 c 6 lw 1 1 1 c 0 0 1 c 295 656 m
 34 X s 352 656 m 34 X s 295 654 m 10 Y s 386 654 m 10 Y s 3 lw 340 656 m20 6 lw 431 669 m 14 Y s 431 706 m 14 Y s 386 694 m 33 X s 442 694 m 34 X s 423 669 m 15 X s 423 720 m 15 X s 386 687 m 15 Y s 476 687 m 15 Y s 3 lw 431 694 m20 6 lw 522 680 m
 11 Y s 522 713 m 11 Y s 476 702 m 34 X s 533 702 m 34 X s 514 680 m 15 X s 514 724 m 15 X s 476 694 m 15 Y s 567 694 m 15 Y s 3 lw 522 702 m20 6 lw 612 670 m 16 Y s 567 659 m 34 X s 624 659 m 34 X s 605 686 m 15 X s 567 654 m 13 Y s 658 654 m 13 Y s
 3 lw 612 659 m20 6 lw 703 719 m 18 Y s 703 760 m 19 Y s 658 749 m 34 X s 714 749 m 34 X s 695 719 m 16 X s 695 779 m 16 X s 658 741 m 15 Y s 748 741 m 15 Y s 3 lw 703 749 m20 6 lw 884 686 m 23 Y s 884 731 m 23 Y s 839 720 m 34 X s 896 720 m 34 X s
 877 686 m 15 X s 877 754 m 15 X s 839 712 m 15 Y s 930 712 m 15 Y s 3 lw 884 720 m20 6 lw 975 725 m 35 Y s 975 782 m 36 Y s 930 771 m 34 X s 986 771 m 34 X s 968 725 m 15 X s 968 818 m 15 X s 930 763 m 16 Y s 1020 763 m 16 Y s 3 lw 975 771 m20 6 lw
 1066 780 m 25 Y s 1066 828 m 25 Y s 1020 817 m 34 X s 1077 817 m 34 X s 1058 780 m 15 X s 1058 853 m 15 X s 1020 809 m 15 Y s 1111 809 m 15 Y s 3 lw 1066 817 m20 6 lw 1157 768 m 33 Y s 1157 824 m 33 Y s 1111 812 m 34 X s 1168 812 m 34 X s 1149 768 m
 15 X s 1149 857 m 15 X s 1111 805 m 15 Y s 1202 805 m 15 Y s 3 lw 1157 812 m20 6 lw 1247 853 m 28 Y s 1247 904 m 28 Y s 1202 893 m 34 X s 1259 893 m 34 X s 1240 853 m 15 X s 1240 932 m 15 X s 1202 885 m 15 Y s 1293 885 m 15 Y s 3 lw 1247 893 m20 6
 lw 1338 899 m 32 Y s 1338 954 m 33 Y s 1293 943 m 34 X s 1349 943 m 34 X s 1330 899 m 16 X s 1330 987 m 16 X s 1293 935 m 15 Y s 1383 935 m 15 Y s 3 lw 1338 943 m20 6 lw 1429 980 m 42 Y s 1429 1044 m 42 Y s 1383 1033 m 34 X s 1440 1033 m 34 X s 1421
 980 m 15 X s 1421 1086 m 15 X s 1383 1025 m 16 Y s 1474 1025 m 16 Y s 3 lw 1429 1033 m20 6 lw 1519 1042 m 50 Y s 1519 1115 m 49 Y s 1474 1103 m 34 X s 1531 1103 m 34 X s 1512 1042 m 15 X s 1512 1164 m 15 X s 1474 1096 m 15 Y s 1565 1096 m 15 Y s 3
 lw 1519 1103 m20 6 lw 1610 1148 m 58 Y s 1610 1229 m 58 Y s 1565 1217 m 34 X s 1621 1217 m 34 X s 1602 1148 m 16 X s 1602 1287 m 16 X s 1565 1210 m 15 Y s 1655 1210 m 15 Y s 3 lw 1610 1217 m20 6 lw 1701 1164 m 67 Y s 1701 1254 m 67 Y s 1655 1243 m
 34 X s 1712 1243 m 34 X s 1693 1164 m 15 X s 1693 1321 m 15 X s 1655 1235 m 15 Y s 1746 1235 m 15 Y s 3 lw 1701 1243 m20 6 lw 1791 1357 m 69 Y s 1791 1449 m 69 Y s 1746 1438 m 34 X s 1803 1438 m 34 X s 1784 1357 m 15 X s 1784 1518 m 15 X s 1746 1430
 m 15 Y s 1837 1430 m 15 Y s 3 lw 1791 1438 m20 6 lw 1882 1406 m 75 Y s 1882 1504 m 74 Y s 1837 1492 m 34 X s 1894 1492 m 34 X s 1875 1406 m 15 X s 1875 1578 m 15 X s 1837 1485 m 15 Y s 1928 1485 m 15 Y s 3 lw 1882 1492 m20 6 lw 1973 1723 m 103 Y s
 1973 1848 m 103 Y s 1928 1837 m 34 X s 1984 1837 m 34 X s 1965 1723 m 15 X s 1965 1951 m 15 X s 1928 1829 m 16 Y s 2018 1829 m 16 Y s 3 lw 1973 1837 m20 6 lw 2064 1417 m 66 Y s 2064 1506 m 66 Y s 2018 1495 m 34 X s 2075 1495 m 34 X s 2056 1417 m 15
 X s 2056 1572 m 15 X s 2018 1487 m 15 Y s 2109 1487 m 15 Y s 3 lw 2064 1495 m20 6 lw black
 gsave  2268 1526 0 654 C 838.069 1956.76 t 0 r /Helvetica-Bold findfont 53.1564 sf 0 0 m (Testing Signal) show NC gr  1 0 0 c[  12 12 ] 0 sd 415 1971 m 349 X s black
 gsave  2268 1526 0 654 C 838.069 1842.99 t 0 r /Helvetica-Bold findfont 53.1564 sf 0 0 m (Training Signal) show NC gr  0 0 1 c[  ] 0 sd 415 1856 m 349 X s black
 gsave  2268 1526 0 654 C 451.268 1725.44 t 0 r /Helvetica findfont 56.9533 sf 0 0 m (Kol = 0.188270) show NC gr  3 lw 1 1 1 c black 1 1 1 c 1814 425 295 229 bf black 1814 425 295 229 bl 295 229 m 1814 X s[ 4 8] 0 sd 295 654 m -425 Y s 476 654 m -425
 Y s 658 654 m -425 Y s 839 654 m -425 Y s 1020 654 m -425 Y s 1202 654 m -425 Y s 1383 654 m -425 Y s 1565 654 m -425 Y s 1746 654 m -425 Y s 1928 654 m -425 Y s 2109 654 m -425 Y s 295 654 m -425 Y s[  ] 0 sd 295 654 m 1814 X s 295 229 m 425 Y s[ 4
 8] 0 sd 2109 229 m -1814 X s 2109 335 m -1814 X s 2109 442 m -1814 X s 2109 548 m -1814 X s 2109 654 m -1814 X s[  ] 0 sd 2109 229 m 425 Y s 6 lw 1 1 1 c black 431 307 m 238 Y s 431 568 m 86 Y s 386 557 m 33 X s 442 557 m 34 X s 3 lw 431 557 m20 6
 lw 522 361 m 218 Y s 522 601 m 53 Y s 476 590 m 34 X s 533 590 m 34 X s 3 lw 522 590 m20 6 lw 703 268 m 46 Y s 703 337 m 46 Y s 658 326 m 34 X s 714 326 m 34 X s 3 lw 703 326 m20 6 lw 975 318 m 79 Y s 975 420 m 78 Y s 930 408 m 34 X s 986 408 m 34 X
 s 3 lw 975 408 m20 6 lw 1066 417 m 66 Y s 1066 506 m 67 Y s 1020 495 m 34 X s 1077 495 m 34 X s 3 lw 1066 495 m20 6 lw 1157 346 m 66 Y s 1157 434 m 66 Y s 1111 423 m 34 X s 1168 423 m 34 X s 3 lw 1157 423 m20 6 lw 1247 393 m 41 Y s 1247 456 m 42 Y s
 1202 445 m 34 X s 1259 445 m 34 X s 3 lw 1247 445 m20 6 lw 1338 368 m 33 Y s 1338 423 m 33 Y s 1293 412 m 34 X s 1349 412 m 34 X s 3 lw 1338 412 m20 6 lw 1429 362 m 31 Y s 1429 416 m 32 Y s 1383 405 m 34 X s 1440 405 m 34 X s 3 lw 1429 405 m20 6 lw
 1519 371 m 23 Y s 1519 417 m 23 Y s 1474 405 m 34 X s 1531 405 m 34 X s 3 lw 1519 405 m20 6 lw 1610 396 m 28 Y s 1610 447 m 28 Y s 1565 436 m 34 X s 1621 436 m 34 X s 3 lw 1610 436 m20 6 lw 1701 433 m 31 Y s 1701 487 m 32 Y s 1655 476 m 34 X s 1712
 476 m 34 X s 3 lw 1701 476 m20 6 lw 1791 371 m 15 Y s 1791 408 m 15 Y s 1746 397 m 34 X s 1803 397 m 34 X s 3 lw 1791 397 m20 6 lw 1882 411 m 18 Y s 1882 452 m 18 Y s 1837 441 m 34 X s 1894 441 m 34 X s 3 lw 1882 441 m20 6 lw 1973 389 m 13 Y s 1973
 425 m 13 Y s 1928 414 m 34 X s 1984 414 m 34 X s 3 lw 1973 414 m20 6 lw 2064 422 m 20 Y s 2064 465 m 20 Y s 2018 453 m 34 X s 2075 453 m 34 X s 3 lw 2064 453 m20 6 lw 3 lw 295 229 m 1814 X s
 gsave  2268 654 0 0 C 1664.76 56.8825 t 0 r /Helvetica findfont 91.2766 sf 0 0 m (BDT Score) show NC gr  295 245 m -16 Y s 340 237 m -8 Y s 386 237 m -8 Y s 431 237 m -8 Y s 476 245 m -16 Y s 522 237 m -8 Y s 567 237 m -8 Y s 612 237 m -8 Y s 658
 245 m -16 Y s 703 237 m -8 Y s 748 237 m -8 Y s 794 237 m -8 Y s 839 245 m -16 Y s 884 237 m -8 Y s 930 237 m -8 Y s 975 237 m -8 Y s 1020 245 m -16 Y s 1066 237 m -8 Y s 1111 237 m -8 Y s 1157 237 m -8 Y s 1202 245 m -16 Y s 1247 237 m -8 Y s 1293
 237 m -8 Y s 1338 237 m -8 Y s 1383 245 m -16 Y s 1429 237 m -8 Y s 1474 237 m -8 Y s 1519 237 m -8 Y s 1565 245 m -16 Y s 1610 237 m -8 Y s 1655 237 m -8 Y s 1701 237 m -8 Y s 1746 245 m -16 Y s 1791 237 m -8 Y s 1837 237 m -8 Y s 1882 237 m -8 Y s
 1928 245 m -16 Y s 1973 237 m -8 Y s 2018 237 m -8 Y s 2064 237 m -8 Y s 2109 245 m -16 Y s 295 245 m -16 Y s
 gsave  2268 654 0 0 C 295.789 163.063 t 0 r /Helvetica findfont 72.2607 sf 0 0 m (1) show NC gr 
 gsave  2268 654 0 0 C 257.867 163.063 t 0 r /Symbol findfont 72.2607 sf 0 0 m (-) show NC gr 
 gsave  2268 654 0 0 C 443.684 163.063 t 0 r /Helvetica findfont 72.2607 sf 0 0 m (0.8) show NC gr 
 gsave  2268 654 0 0 C 401.97 163.063 t 0 r /Symbol findfont 72.2607 sf 0 0 m (-) show NC gr 
 gsave  2268 654 0 0 C 625.708 163.063 t 0 r /Helvetica findfont 72.2607 sf 0 0 m (0.6) show NC gr 
 gsave  2268 654 0 0 C 583.994 163.063 t 0 r /Symbol findfont 72.2607 sf 0 0 m (-) show NC gr 
 gsave  2268 654 0 0 C 807.732 163.063 t 0 r /Helvetica findfont 72.2607 sf 0 0 m (0.4) show NC gr 
 gsave  2268 654 0 0 C 766.018 163.063 t 0 r /Symbol findfont 72.2607 sf 0 0 m (-) show NC gr 
 gsave  2268 654 0 0 C 989.756 163.063 t 0 r /Helvetica findfont 72.2607 sf 0 0 m (0.2) show NC gr 
 gsave  2268 654 0 0 C 948.042 163.063 t 0 r /Symbol findfont 72.2607 sf 0 0 m (-) show NC gr 
 gsave  2268 654 0 0 C 1179.36 163.063 t 0 r /Helvetica findfont 72.2607 sf 0 0 m (0) show NC gr 
 gsave  2268 654 0 0 C 1331.05 163.063 t 0 r /Helvetica findfont 72.2607 sf 0 0 m (0.2) show NC gr 
 gsave  2268 654 0 0 C 1513.08 163.063 t 0 r /Helvetica findfont 72.2607 sf 0 0 m (0.4) show NC gr 
 gsave  2268 654 0 0 C 1695.1 163.063 t 0 r /Helvetica findfont 72.2607 sf 0 0 m (0.6) show NC gr 
 gsave  2268 654 0 0 C 1877.12 163.063 t 0 r /Helvetica findfont 72.2607 sf 0 0 m (0.8) show NC gr 
 gsave  2268 654 0 0 C 2093.28 163.063 t 0 r /Helvetica findfont 72.2607 sf 0 0 m (1) show NC gr  295 654 m 1814 X s 295 638 m 16 Y s 340 646 m 8 Y s 386 646 m 8 Y s 431 646 m 8 Y s 476 638 m 16 Y s 522 646 m 8 Y s 567 646 m 8 Y s 612 646 m 8 Y s 658
 638 m 16 Y s 703 646 m 8 Y s 748 646 m 8 Y s 794 646 m 8 Y s 839 638 m 16 Y s 884 646 m 8 Y s 930 646 m 8 Y s 975 646 m 8 Y s 1020 638 m 16 Y s 1066 646 m 8 Y s 1111 646 m 8 Y s 1157 646 m 8 Y s 1202 638 m 16 Y s 1247 646 m 8 Y s 1293 646 m 8 Y s
 1338 646 m 8 Y s 1383 638 m 16 Y s 1429 646 m 8 Y s 1474 646 m 8 Y s 1519 646 m 8 Y s 1565 638 m 16 Y s 1610 646 m 8 Y s 1655 646 m 8 Y s 1701 646 m 8 Y s 1746 638 m 16 Y s 1791 646 m 8 Y s 1837 646 m 8 Y s 1882 646 m 8 Y s 1928 638 m 16 Y s 1973
 646 m 8 Y s 2018 646 m 8 Y s 2064 646 m 8 Y s 2109 638 m 16 Y s 295 638 m 16 Y s 295 229 m 425 Y s
 gsave  2268 654 0 0 C 151.687 246.491 t 90 r /Helvetica findfont 68.4575 sf 0 0 m (Test/Training) show NC gr  339 229 m -44 X s 317 250 m -22 X s 317 271 m -22 X s 317 293 m -22 X s 317 314 m -22 X s 339 335 m -44 X s 317 357 m -22 X s 317 378 m -22
 X s 317 399 m -22 X s 317 420 m -22 X s 339 442 m -44 X s 317 463 m -22 X s 317 484 m -22 X s 317 505 m -22 X s 317 527 m -22 X s 339 548 m -44 X s 317 569 m -22 X s 317 590 m -22 X s 317 612 m -22 X s 317 633 m -22 X s 339 654 m -44 X s
 gsave  2268 654 0 0 C 242.699 204.777 t 0 r /Helvetica findfont 72.2607 sf 0 0 m (0) show NC gr 
 gsave  2268 654 0 0 C 182.024 310.958 t 0 r /Helvetica findfont 72.2607 sf 0 0 m (0.5) show NC gr 
 gsave  2268 654 0 0 C 254.075 413.346 t 0 r /Helvetica findfont 72.2607 sf 0 0 m (1) show NC gr 
 gsave  2268 654 0 0 C 182.024 523.319 t 0 r /Helvetica findfont 72.2607 sf 0 0 m (1.5) show NC gr 
 gsave  2268 654 0 0 C 242.699 625.708 t 0 r /Helvetica findfont 72.2607 sf 0 0 m (2) show NC gr  2109 229 m 425 Y s 2065 229 m 44 X s 2087 250 m 22 X s 2087 271 m 22 X s 2087 293 m 22 X s 2087 314 m 22 X s 2065 335 m 44 X s 2087 357 m 22 X s 2087
 378 m 22 X s 2087 399 m 22 X s 2087 420 m 22 X s 2065 442 m 44 X s 2087 463 m 22 X s 2087 484 m 22 X s 2087 505 m 22 X s 2087 527 m 22 X s 2065 548 m 44 X s 2087 569 m 22 X s 2087 590 m 22 X s 2087 612 m 22 X s 2087 633 m 22 X s 2065 654 m 44 X s 1
 0 0 c 295 442 m 1814 X s
 gr  gr showpage
end
%%EOF
