%!PS-Adobe-2.0 EPSF-2.0
%%BoundingBox:  0 0 567 545
%%Title: hh_4j_bdt_sig.eps: c1
%%Creator: ROOT Version 5.34/32
%%CreationDate: Sat Nov 25 20:13:33 2017
%%EndComments
%%BeginProlog
80 dict begin
/s {stroke} def /l {lineto} def /m {moveto} def /t {translate} def
/r {rotate} def /rl {roll}  def /R {repeat} def
/d {rlineto} def /rm {rmoveto} def /gr {grestore} def /f {eofill} def
/c {setrgbcolor} def /black {0 setgray} def /sd {setdash} def
/cl {closepath} def /sf {scalefont setfont} def /lw {setlinewidth} def
/box {m dup 0 exch d exch 0 d 0 exch neg d cl} def
/NC{systemdict begin initclip end}def/C{NC box clip newpath}def
/bl {box s} def /bf {gsave box gsave f grestore 1 lw [] 0 sd s grestore} def /Y { 0 exch d} def /X { 0 d} def 
/K {{pop pop 0 moveto} exch kshow} bind def
/ita {/ang 15 def gsave [1 0 ang dup sin exch cos div 1 0 0] concat} def 
/mp {newpath /y exch def /x exch def} def
/side {[w .77 mul w .23 mul] .385 w mul sd w 0 l currentpoint t -144 r} def
/mr {mp x y w2 0 360 arc} def /m24 {mr s} def /m20 {mr f} def
/mb {mp x y w2 add m w2 neg 0 d 0 w neg d w 0 d 0 w d cl} def
/mt {mp x y w2 add m w2 neg w neg d w 0 d cl} def
/m21 {mb f} def /m25 {mb s} def /m22 {mt f} def /m26{mt s} def
/m23 {mp x y w2 sub m w2 w d w neg 0 d cl f} def
/m27 {mp x y w2 add m w3 neg w2 neg d w3 w2 neg d w3 w2 d cl s} def
/m28 {mp x w2 sub y w2 sub w3 add m w3 0 d  0 w3 neg d w3 0 d 0 w3 d w3 0 d  0 w3 d w3 neg 0 d 0 w3 d w3 neg 0 d 0 w3 neg d w3 neg 0 d cl s } def
/m29 {mp gsave x w2 sub y w2 add w3 sub m currentpoint t 4 {side} repeat cl fill gr} def
/m30 {mp gsave x w2 sub y w2 add w3 sub m currentpoint t 4 {side} repeat cl s gr} def
/m31 {mp x y w2 sub m 0 w d x w2 sub y m w 0 d x w2 sub y w2 add m w w neg d x w2 sub y w2 sub m w w d s} def
/m32 {mp x y w2 sub m w2 w d w neg 0 d cl s} def
/m33 {mp x y w2 add m w3 neg w2 neg d w3 w2 neg d w3 w2 d cl f} def
/m34 {mp x w2 sub y w2 sub w3 add m w3 0 d  0 w3 neg d w3 0 d 0 w3 d w3 0 d  0 w3 d w3 neg 0 d 0 w3 d w3 neg 0 d 0 w3 neg d w3 neg 0 d cl f } def
/m2 {mp x y w2 sub m 0 w d x w2 sub y m w 0 d s} def
/m5 {mp x w2 sub y w2 sub m w w d x w2 sub y w2 add m w w neg d s} def
/reEncode {exch findfont dup length dict begin {1 index /FID eq  {pop pop} {def} ifelse } forall /Encoding exch def currentdict end dup /FontName get exch definefont pop } def [/Times-Bold /Times-Italic /Times-BoldItalic /Helvetica /Helvetica-Oblique
 /Helvetica-Bold /Helvetica-BoldOblique /Courier /Courier-Oblique /Courier-Bold /Courier-BoldOblique /Times-Roman /AvantGarde-Book /AvantGarde-BookOblique /AvantGarde-Demi /AvantGarde-DemiOblique /Bookman-Demi /Bookman-DemiItalic /Bookman-Light
 /Bookman-LightItalic /Helvetica-Narrow /Helvetica-Narrow-Bold /Helvetica-Narrow-BoldOblique /Helvetica-Narrow-Oblique /NewCenturySchlbk-Roman /NewCenturySchlbk-Bold /NewCenturySchlbk-BoldItalic /NewCenturySchlbk-Italic /Palatino-Bold
 /Palatino-BoldItalic /Palatino-Italic /Palatino-Roman ] {ISOLatin1Encoding reEncode } forall
%%EndProlog
%%BeginSetup
%%EndSetup
newpath  gsave  .25 .25 scale  gsave  0 0 t black[  ] 0 sd 3 lw 1 1 1 c 2268 2180 0 0 bf black 1 1 1 c 2268 1526 0 654 bf black 1 1 1 c 1814 1420 295 654 bf black 1814 1420 295 654 bl 1 0 0 c[  12 12 ] 0 sd 6 lw 1 1 1 c 1 0 0 c 340 688 m s 340 711 m
 s 295 700 m 34 X s 352 700 m 34 X s 333 688 m 15 X s 333 711 m 15 X s 295 692 m 15 Y s 386 692 m 15 Y s[  ] 0 sd 3 lw /w 24 def /w2 {w 2 div} def /w3 {w 3 div} def 340 700 m20[  12 12 ] 0 sd 6 lw 431 693 m 4 Y s 431 720 m 3 Y s 386 708 m 33 X s 442
 708 m 34 X s 423 693 m 15 X s 423 723 m 15 X s 386 701 m 15 Y s 476 701 m 15 Y s[  ] 0 sd 3 lw 431 708 m20[  12 12 ] 0 sd 6 lw 522 687 m 3 Y s 522 713 m 2 Y s 476 701 m 34 X s 533 701 m 34 X s 514 687 m 15 X s 514 715 m 15 X s 476 694 m 15 Y s 567
 694 m 15 Y s[  ] 0 sd 3 lw 522 701 m20[  12 12 ] 0 sd 6 lw 612 718 m 6 Y s 612 747 m 5 Y s 567 735 m 34 X s 624 735 m 34 X s 605 718 m 15 X s 605 752 m 15 X s 567 728 m 15 Y s 658 728 m 15 Y s[  ] 0 sd 3 lw 612 735 m20[  12 12 ] 0 sd 6 lw 703 717 m
 12 Y s 703 751 m 12 Y s 658 740 m 34 X s 714 740 m 34 X s 695 717 m 16 X s 695 763 m 16 X s 658 732 m 15 Y s 748 732 m 15 Y s[  ] 0 sd 3 lw 703 740 m20[  12 12 ] 0 sd 6 lw 794 737 m 10 Y s 794 770 m 10 Y s 748 759 m 34 X s 805 759 m 34 X s 786 737 m
 15 X s 786 780 m 15 X s 748 751 m 15 Y s 839 751 m 15 Y s[  ] 0 sd 3 lw 794 759 m20[  12 12 ] 0 sd 6 lw 884 761 m 16 Y s 884 800 m 16 Y s 839 788 m 34 X s 896 788 m 34 X s 877 761 m 15 X s 877 816 m 15 X s 839 781 m 15 Y s 930 781 m 15 Y s[  ] 0 sd
 3 lw 884 788 m20[  12 12 ] 0 sd 6 lw 975 778 m 12 Y s 975 813 m 12 Y s 930 801 m 34 X s 986 801 m 34 X s 968 778 m 15 X s 968 825 m 15 X s 930 794 m 15 Y s 1020 794 m 15 Y s[  ] 0 sd 3 lw 975 801 m20[  12 12 ] 0 sd 6 lw 1066 801 m 20 Y s 1066 844 m
 20 Y s 1020 833 m 34 X s 1077 833 m 34 X s 1058 801 m 15 X s 1058 864 m 15 X s 1020 825 m 15 Y s 1111 825 m 15 Y s[  ] 0 sd 3 lw 1066 833 m20[  12 12 ] 0 sd 6 lw 1157 874 m 21 Y s 1157 917 m 20 Y s 1111 906 m 34 X s 1168 906 m 34 X s 1149 874 m 15 X
 s 1149 937 m 15 X s 1111 898 m 16 Y s 1202 898 m 16 Y s[  ] 0 sd 3 lw 1157 906 m20[  12 12 ] 0 sd 6 lw 1247 900 m 21 Y s 1247 944 m 21 Y s 1202 933 m 34 X s 1259 933 m 34 X s 1240 900 m 15 X s 1240 965 m 15 X s 1202 925 m 15 Y s 1293 925 m 15 Y s[ 
 ] 0 sd 3 lw 1247 933 m20[  12 12 ] 0 sd 6 lw 1338 931 m 23 Y s 1338 976 m 23 Y s 1293 965 m 34 X s 1349 965 m 34 X s 1330 931 m 16 X s 1330 999 m 16 X s 1293 957 m 16 Y s 1383 957 m 16 Y s[  ] 0 sd 3 lw 1338 965 m20[  12 12 ] 0 sd 6 lw 1429 974 m 24
 Y s 1429 1021 m 23 Y s 1383 1009 m 34 X s 1440 1009 m 34 X s 1421 974 m 15 X s 1421 1044 m 15 X s 1383 1002 m 15 Y s 1474 1002 m 15 Y s[  ] 0 sd 3 lw 1429 1009 m20[  12 12 ] 0 sd 6 lw 1519 1060 m 32 Y s 1519 1115 m 32 Y s 1474 1104 m 34 X s 1531
 1104 m 34 X s 1512 1060 m 15 X s 1512 1147 m 15 X s 1474 1096 m 15 Y s 1565 1096 m 15 Y s[  ] 0 sd 3 lw 1519 1104 m20[  12 12 ] 0 sd 6 lw 1610 1205 m 32 Y s 1610 1260 m 32 Y s 1565 1248 m 34 X s 1621 1248 m 34 X s 1602 1205 m 16 X s 1602 1292 m 16 X
 s 1565 1241 m 15 Y s 1655 1241 m 15 Y s[  ] 0 sd 3 lw 1610 1248 m20[  12 12 ] 0 sd 6 lw 1701 1252 m 36 Y s 1701 1311 m 36 Y s 1655 1299 m 34 X s 1712 1299 m 34 X s 1693 1252 m 15 X s 1693 1347 m 15 X s 1655 1292 m 15 Y s 1746 1292 m 15 Y s[  ] 0 sd
 3 lw 1701 1299 m20[  12 12 ] 0 sd 6 lw 1791 1499 m 44 Y s 1791 1565 m 44 Y s 1746 1554 m 34 X s 1803 1554 m 34 X s 1784 1499 m 15 X s 1784 1609 m 15 X s 1746 1546 m 16 Y s 1837 1546 m 16 Y s[  ] 0 sd 3 lw 1791 1554 m20[  12 12 ] 0 sd 6 lw 1882 1598
 m 53 Y s 1882 1674 m 53 Y s 1837 1662 m 34 X s 1894 1662 m 34 X s 1875 1598 m 15 X s 1875 1727 m 15 X s 1837 1655 m 15 Y s 1928 1655 m 15 Y s[  ] 0 sd 3 lw 1882 1662 m20[  12 12 ] 0 sd 6 lw 1973 1765 m 52 Y s 1973 1840 m 52 Y s 1928 1829 m 34 X s
 1984 1829 m 34 X s 1965 1765 m 15 X s 1965 1892 m 15 X s 1928 1821 m 15 Y s 2018 1821 m 15 Y s[  ] 0 sd 3 lw 1973 1829 m20[  12 12 ] 0 sd 6 lw 2064 1313 m 39 Y s 2064 1374 m 39 Y s 2018 1363 m 34 X s 2075 1363 m 34 X s 2056 1313 m 15 X s 2056 1413 m
 15 X s 2018 1355 m 16 Y s 2109 1355 m 16 Y s[  ] 0 sd 3 lw 2064 1363 m20[  12 12 ] 0 sd 6 lw black[  ] 0 sd 3 lw 295 654 m 1814 X s 295 691 m -37 Y s 340 672 m -18 Y s 386 672 m -18 Y s 431 672 m -18 Y s 476 691 m -37 Y s 522 672 m -18 Y s 567 672 m
 -18 Y s 612 672 m -18 Y s 658 691 m -37 Y s 703 672 m -18 Y s 748 672 m -18 Y s 794 672 m -18 Y s 839 691 m -37 Y s 884 672 m -18 Y s 930 672 m -18 Y s 975 672 m -18 Y s 1020 691 m -37 Y s 1066 672 m -18 Y s 1111 672 m -18 Y s 1157 672 m -18 Y s
 1202 691 m -37 Y s 1247 672 m -18 Y s 1293 672 m -18 Y s 1338 672 m -18 Y s 1383 691 m -37 Y s 1429 672 m -18 Y s 1474 672 m -18 Y s 1519 672 m -18 Y s 1565 691 m -37 Y s 1610 672 m -18 Y s 1655 672 m -18 Y s 1701 672 m -18 Y s 1746 691 m -37 Y s
 1791 672 m -18 Y s 1837 672 m -18 Y s 1882 672 m -18 Y s 1928 691 m -37 Y s 1973 672 m -18 Y s 2018 672 m -18 Y s 2064 672 m -18 Y s 2109 691 m -37 Y s 295 691 m -37 Y s 1 1 1 c black 1 1 1 c
 gsave  2268 1526 0 654 C 295.789 587.786 t 0 r /Helvetica findfont 72.1408 sf 0 0 m (1) show NC gr  black 1 1 1 c
 gsave  2268 1526 0 654 C 257.867 587.786 t 0 r /Symbol findfont 72.1408 sf 0 0 m (-) show NC gr  black 1 1 1 c
 gsave  2268 1526 0 654 C 443.684 587.786 t 0 r /Helvetica findfont 72.1408 sf 0 0 m (0.8) show NC gr  black 1 1 1 c
 gsave  2268 1526 0 654 C 401.97 587.786 t 0 r /Symbol findfont 72.1408 sf 0 0 m (-) show NC gr  black 1 1 1 c
 gsave  2268 1526 0 654 C 625.708 587.786 t 0 r /Helvetica findfont 72.1408 sf 0 0 m (0.6) show NC gr  black 1 1 1 c
 gsave  2268 1526 0 654 C 583.994 587.786 t 0 r /Symbol findfont 72.1408 sf 0 0 m (-) show NC gr  black 1 1 1 c
 gsave  2268 1526 0 654 C 807.732 587.786 t 0 r /Helvetica findfont 72.1408 sf 0 0 m (0.4) show NC gr  black 1 1 1 c
 gsave  2268 1526 0 654 C 766.018 587.786 t 0 r /Symbol findfont 72.1408 sf 0 0 m (-) show NC gr  black 1 1 1 c
 gsave  2268 1526 0 654 C 989.756 587.786 t 0 r /Helvetica findfont 72.1408 sf 0 0 m (0.2) show NC gr  black 1 1 1 c
 gsave  2268 1526 0 654 C 948.042 587.786 t 0 r /Symbol findfont 72.1408 sf 0 0 m (-) show NC gr  black 1 1 1 c
 gsave  2268 1526 0 654 C 1179.36 587.786 t 0 r /Helvetica findfont 72.1408 sf 0 0 m (0) show NC gr  black 1 1 1 c
 gsave  2268 1526 0 654 C 1331.05 587.786 t 0 r /Helvetica findfont 72.1408 sf 0 0 m (0.2) show NC gr  black 1 1 1 c
 gsave  2268 1526 0 654 C 1513.08 587.786 t 0 r /Helvetica findfont 72.1408 sf 0 0 m (0.4) show NC gr  black 1 1 1 c
 gsave  2268 1526 0 654 C 1695.1 587.786 t 0 r /Helvetica findfont 72.1408 sf 0 0 m (0.6) show NC gr  black 1 1 1 c
 gsave  2268 1526 0 654 C 1877.12 587.786 t 0 r /Helvetica findfont 72.1408 sf 0 0 m (0.8) show NC gr  black 1 1 1 c
 gsave  2268 1526 0 654 C 2093.28 587.786 t 0 r /Helvetica findfont 72.1408 sf 0 0 m (1) show NC gr  black 295 2074 m 1814 X s 295 2037 m 37 Y s 340 2055 m 19 Y s 386 2055 m 19 Y s 431 2055 m 19 Y s 476 2037 m 37 Y s 522 2055 m 19 Y s 567 2055 m 19 Y
 s 612 2055 m 19 Y s 658 2037 m 37 Y s 703 2055 m 19 Y s 748 2055 m 19 Y s 794 2055 m 19 Y s 839 2037 m 37 Y s 884 2055 m 19 Y s 930 2055 m 19 Y s 975 2055 m 19 Y s 1020 2037 m 37 Y s 1066 2055 m 19 Y s 1111 2055 m 19 Y s 1157 2055 m 19 Y s 1202 2037
 m 37 Y s 1247 2055 m 19 Y s 1293 2055 m 19 Y s 1338 2055 m 19 Y s 1383 2037 m 37 Y s 1429 2055 m 19 Y s 1474 2055 m 19 Y s 1519 2055 m 19 Y s 1565 2037 m 37 Y s 1610 2055 m 19 Y s 1655 2055 m 19 Y s 1701 2055 m 19 Y s 1746 2037 m 37 Y s 1791 2055 m
 19 Y s 1837 2055 m 19 Y s 1882 2055 m 19 Y s 1928 2037 m 37 Y s 1973 2055 m 19 Y s 2018 2055 m 19 Y s 2064 2055 m 19 Y s 2109 2037 m 37 Y s 295 2037 m 37 Y s 295 654 m 1420 Y s 358 654 m -63 X s 326 693 m -31 X s 326 732 m -31 X s 326 771 m -31 X s
 358 810 m -63 X s 326 849 m -31 X s 326 888 m -31 X s 326 928 m -31 X s 358 967 m -63 X s 326 1006 m -31 X s 326 1045 m -31 X s 326 1084 m -31 X s 358 1123 m -63 X s 326 1162 m -31 X s 326 1201 m -31 X s 326 1240 m -31 X s 358 1279 m -63 X s 326
 1318 m -31 X s 326 1357 m -31 X s 326 1396 m -31 X s 358 1435 m -63 X s 326 1474 m -31 X s 326 1513 m -31 X s 326 1552 m -31 X s 358 1591 m -63 X s 326 1630 m -31 X s 326 1670 m -31 X s 326 1709 m -31 X s 358 1748 m -63 X s 326 1787 m -31 X s 326
 1826 m -31 X s 326 1865 m -31 X s 358 1904 m -63 X s 326 1943 m -31 X s 326 1982 m -31 X s 326 2021 m -31 X s 358 2060 m -63 X s 358 2060 m -63 X s
 gsave  2268 1526 0 654 C 242.699 629.5 t 0 r /Helvetica findfont 72.1408 sf 0 0 m (0) show NC gr 
 gsave  2268 1526 0 654 C 242.699 781.187 t 0 r /Helvetica findfont 72.1408 sf 0 0 m (2) show NC gr 
 gsave  2268 1526 0 654 C 242.699 936.666 t 0 r /Helvetica findfont 72.1408 sf 0 0 m (4) show NC gr 
 gsave  2268 1526 0 654 C 242.699 1099.73 t 0 r /Helvetica findfont 72.1408 sf 0 0 m (6) show NC gr 
 gsave  2268 1526 0 654 C 242.699 1255.21 t 0 r /Helvetica findfont 72.1408 sf 0 0 m (8) show NC gr 
 gsave  2268 1526 0 654 C 200.985 1410.69 t 0 r /Helvetica findfont 72.1408 sf 0 0 m (10) show NC gr 
 gsave  2268 1526 0 654 C 200.985 1562.37 t 0 r /Helvetica findfont 72.1408 sf 0 0 m (12) show NC gr 
 gsave  2268 1526 0 654 C 200.985 1717.85 t 0 r /Helvetica findfont 72.1408 sf 0 0 m (14) show NC gr 
 gsave  2268 1526 0 654 C 200.985 1880.92 t 0 r /Helvetica findfont 72.1408 sf 0 0 m (16) show NC gr 
 gsave  2268 1526 0 654 C 200.985 2036.39 t 0 r /Helvetica findfont 72.1408 sf 0 0 m (18) show NC gr  2109 654 m 1420 Y s 2046 654 m 63 X s 2077 693 m 32 X s 2077 732 m 32 X s 2077 771 m 32 X s 2046 810 m 63 X s 2077 849 m 32 X s 2077 888 m 32 X s
 2077 928 m 32 X s 2046 967 m 63 X s 2077 1006 m 32 X s 2077 1045 m 32 X s 2077 1084 m 32 X s 2046 1123 m 63 X s 2077 1162 m 32 X s 2077 1201 m 32 X s 2077 1240 m 32 X s 2046 1279 m 63 X s 2077 1318 m 32 X s 2077 1357 m 32 X s 2077 1396 m 32 X s 2046
 1435 m 63 X s 2077 1474 m 32 X s 2077 1513 m 32 X s 2077 1552 m 32 X s 2046 1591 m 63 X s 2077 1630 m 32 X s 2077 1670 m 32 X s 2077 1709 m 32 X s 2046 1748 m 63 X s 2077 1787 m 32 X s 2077 1826 m 32 X s 2077 1865 m 32 X s 2046 1904 m 63 X s 2077
 1943 m 32 X s 2077 1982 m 32 X s 2077 2021 m 32 X s 2046 2060 m 63 X s 2046 2060 m 63 X s 0 0 1 c 6 lw 1 1 1 c 0 0 1 c 340 681 m s 340 704 m s 295 692 m 34 X s 352 692 m 34 X s 333 681 m 15 X s 333 704 m 15 X s 295 685 m 15 Y s 386 685 m 15 Y s 3 lw
 340 692 m20 6 lw 431 668 m 2 Y s 431 692 m 2 Y s 386 681 m 33 X s 442 681 m 34 X s 423 668 m 15 X s 423 694 m 15 X s 386 673 m 16 Y s 476 673 m 16 Y s 3 lw 431 681 m20 6 lw 522 724 m 4 Y s 522 751 m 3 Y s 476 739 m 34 X s 533 739 m 34 X s 514 724 m
 15 X s 514 754 m 15 X s 476 732 m 15 Y s 567 732 m 15 Y s 3 lw 522 739 m20 6 lw 612 705 m 5 Y s 612 732 m 5 Y s 567 721 m 34 X s 624 721 m 34 X s 605 705 m 15 X s 605 737 m 15 X s 567 713 m 15 Y s 658 713 m 15 Y s 3 lw 612 721 m20 6 lw 703 707 m 8 Y
 s 703 738 m 7 Y s 658 726 m 34 X s 714 726 m 34 X s 695 707 m 16 X s 695 745 m 16 X s 658 719 m 15 Y s 748 719 m 15 Y s 3 lw 703 726 m20 6 lw 794 683 m 12 Y s 794 717 m 12 Y s 748 706 m 34 X s 805 706 m 34 X s 786 683 m 15 X s 786 729 m 15 X s 748
 698 m 16 Y s 839 698 m 16 Y s 3 lw 794 706 m20 6 lw 884 750 m 15 Y s 884 787 m 15 Y s 839 776 m 34 X s 896 776 m 34 X s 877 750 m 15 X s 877 802 m 15 X s 839 768 m 16 Y s 930 768 m 16 Y s 3 lw 884 776 m20 6 lw 975 816 m 13 Y s 975 851 m 13 Y s 930
 840 m 34 X s 986 840 m 34 X s 968 816 m 15 X s 968 864 m 15 X s 930 832 m 16 Y s 1020 832 m 16 Y s 3 lw 975 840 m20 6 lw 1066 797 m 20 Y s 1066 839 m 19 Y s 1020 828 m 34 X s 1077 828 m 34 X s 1058 797 m 15 X s 1058 858 m 15 X s 1020 820 m 16 Y s
 1111 820 m 16 Y s 3 lw 1066 828 m20 6 lw 1157 821 m 17 Y s 1157 860 m 17 Y s 1111 849 m 34 X s 1168 849 m 34 X s 1149 821 m 15 X s 1149 877 m 15 X s 1111 841 m 16 Y s 1202 841 m 16 Y s 3 lw 1157 849 m20 6 lw 1247 895 m 18 Y s 1247 936 m 18 Y s 1202
 924 m 34 X s 1259 924 m 34 X s 1240 895 m 15 X s 1240 954 m 15 X s 1202 917 m 15 Y s 1293 917 m 15 Y s 3 lw 1247 924 m20 6 lw 1338 963 m 30 Y s 1338 1015 m 30 Y s 1293 1004 m 34 X s 1349 1004 m 34 X s 1330 963 m 16 X s 1330 1045 m 16 X s 1293 996 m
 16 Y s 1383 996 m 16 Y s 3 lw 1338 1004 m20 6 lw 1429 1001 m 26 Y s 1429 1049 m 26 Y s 1383 1038 m 34 X s 1440 1038 m 34 X s 1421 1001 m 15 X s 1421 1075 m 15 X s 1383 1031 m 15 Y s 1474 1031 m 15 Y s 3 lw 1429 1038 m20 6 lw 1519 1051 m 27 Y s 1519
 1100 m 27 Y s 1474 1089 m 34 X s 1531 1089 m 34 X s 1512 1051 m 15 X s 1512 1127 m 15 X s 1474 1081 m 16 Y s 1565 1081 m 16 Y s 3 lw 1519 1089 m20 6 lw 1610 1237 m 37 Y s 1610 1297 m 37 Y s 1565 1285 m 34 X s 1621 1285 m 34 X s 1602 1237 m 16 X s
 1602 1334 m 16 X s 1565 1278 m 15 Y s 1655 1278 m 15 Y s 3 lw 1610 1285 m20 6 lw 1701 1267 m 35 Y s 1701 1325 m 36 Y s 1655 1314 m 34 X s 1712 1314 m 34 X s 1693 1267 m 15 X s 1693 1361 m 15 X s 1655 1306 m 15 Y s 1746 1306 m 15 Y s 3 lw 1701 1314
 m20 6 lw 1791 1470 m 49 Y s 1791 1541 m 48 Y s 1746 1530 m 34 X s 1803 1530 m 34 X s 1784 1470 m 15 X s 1784 1589 m 15 X s 1746 1522 m 15 Y s 1837 1522 m 15 Y s 3 lw 1791 1530 m20 6 lw 1882 1610 m 50 Y s 1882 1683 m 49 Y s 1837 1671 m 34 X s 1894
 1671 m 34 X s 1875 1610 m 15 X s 1875 1732 m 15 X s 1837 1664 m 15 Y s 1928 1664 m 15 Y s 3 lw 1882 1671 m20 6 lw 1973 1774 m 52 Y s 1973 1848 m 52 Y s 1928 1837 m 34 X s 1984 1837 m 34 X s 1965 1774 m 15 X s 1965 1900 m 15 X s 1928 1829 m 16 Y s
 2018 1829 m 16 Y s 3 lw 1973 1837 m20 6 lw 2064 1335 m 39 Y s 2064 1397 m 39 Y s 2018 1385 m 34 X s 2075 1385 m 34 X s 2056 1335 m 15 X s 2056 1436 m 15 X s 2018 1378 m 15 Y s 2109 1378 m 15 Y s 3 lw 2064 1385 m20 6 lw black
 gsave  2268 1526 0 654 C 838.069 1956.76 t 0 r /Helvetica-Bold findfont 53.1564 sf 0 0 m (Testing Signal) show NC gr  1 0 0 c[  12 12 ] 0 sd 415 1971 m 349 X s black
 gsave  2268 1526 0 654 C 838.069 1842.99 t 0 r /Helvetica-Bold findfont 53.1564 sf 0 0 m (Training Signal) show NC gr  0 0 1 c[  ] 0 sd 415 1856 m 349 X s black
 gsave  2268 1526 0 654 C 451.268 1725.44 t 0 r /Helvetica findfont 56.9533 sf 0 0 m (Kol = 0.958616) show NC gr  3 lw 1 1 1 c black 1 1 1 c 1814 425 295 229 bf black 1814 425 295 229 bl 295 229 m 1814 X s[ 4 8] 0 sd 295 654 m -425 Y s 476 654 m -425
 Y s 658 654 m -425 Y s 839 654 m -425 Y s 1020 654 m -425 Y s 1202 654 m -425 Y s 1383 654 m -425 Y s 1565 654 m -425 Y s 1746 654 m -425 Y s 1928 654 m -425 Y s 2109 654 m -425 Y s 295 654 m -425 Y s[  ] 0 sd 295 654 m 1814 X s 295 229 m 425 Y s[ 4
 8] 0 sd 2109 229 m -1814 X s 2109 335 m -1814 X s 2109 442 m -1814 X s 2109 548 m -1814 X s 2109 654 m -1814 X s[  ] 0 sd 2109 229 m 425 Y s 6 lw 1 1 1 c black 340 383 m 88 Y s 340 494 m 88 Y s 295 483 m 34 X s 352 483 m 34 X s 3 lw 340 483 m20 6 lw
 522 306 m 29 Y s 522 358 m 29 Y s 476 347 m 34 X s 533 347 m 34 X s 3 lw 522 347 m20 6 lw 612 404 m 72 Y s 612 499 m 71 Y s 567 487 m 34 X s 624 487 m 34 X s 3 lw 612 487 m20 6 lw 703 386 m 84 Y s 703 493 m 84 Y s 658 482 m 34 X s 714 482 m 34 X s 3
 lw 703 482 m20 6 lw 884 394 m 58 Y s 884 475 m 58 Y s 839 463 m 34 X s 896 463 m 34 X s 3 lw 884 463 m20 6 lw 975 363 m 23 Y s 975 409 m 23 Y s 930 398 m 34 X s 986 398 m 34 X s 3 lw 975 398 m20 6 lw 1066 393 m 43 Y s 1066 459 m 43 Y s 1020 447 m 34
 X s 1077 447 m 34 X s 3 lw 1066 447 m20 6 lw 1157 451 m 41 Y s 1157 515 m 41 Y s 1111 504 m 34 X s 1168 504 m 34 X s 3 lw 1157 504 m20 6 lw 1247 413 m 24 Y s 1247 459 m 24 Y s 1202 448 m 34 X s 1259 448 m 34 X s 3 lw 1247 448 m20 6 lw 1338 387 m 19
 Y s 1338 429 m 19 Y s 1293 418 m 34 X s 1349 418 m 34 X s 3 lw 1338 418 m20 6 lw 1429 398 m 16 Y s 1429 437 m 16 Y s 1383 426 m 34 X s 1440 426 m 34 X s 3 lw 1429 426 m20 6 lw 1519 420 m 17 Y s 1519 460 m 17 Y s 1474 449 m 34 X s 1531 449 m 34 X s 3
 lw 1519 449 m20 6 lw 1610 408 m 10 Y s 1610 440 m 10 Y s 1565 429 m 34 X s 1621 429 m 34 X s 3 lw 1610 429 m20 6 lw 1701 416 m 9 Y s 1701 448 m 10 Y s 1655 437 m 34 X s 1712 437 m 34 X s 3 lw 1701 437 m20 6 lw 1791 427 m 9 Y s 1791 459 m 8 Y s 1746
 447 m 34 X s 1803 447 m 34 X s 3 lw 1791 447 m20 6 lw 1882 421 m 7 Y s 1882 451 m 7 Y s 1837 440 m 34 X s 1894 440 m 34 X s 3 lw 1882 440 m20 6 lw 1973 424 m 5 Y s 1973 451 m 5 Y s 1928 440 m 34 X s 1984 440 m 34 X s 3 lw 1973 440 m20 6 lw 2064 415
 m 9 Y s 2064 446 m 9 Y s 2018 435 m 34 X s 2075 435 m 34 X s 3 lw 2064 435 m20 6 lw 3 lw 295 229 m 1814 X s
 gsave  2268 654 0 0 C 1664.76 56.8825 t 0 r /Helvetica findfont 91.2766 sf 0 0 m (BDT Score) show NC gr  295 245 m -16 Y s 340 237 m -8 Y s 386 237 m -8 Y s 431 237 m -8 Y s 476 245 m -16 Y s 522 237 m -8 Y s 567 237 m -8 Y s 612 237 m -8 Y s 658
 245 m -16 Y s 703 237 m -8 Y s 748 237 m -8 Y s 794 237 m -8 Y s 839 245 m -16 Y s 884 237 m -8 Y s 930 237 m -8 Y s 975 237 m -8 Y s 1020 245 m -16 Y s 1066 237 m -8 Y s 1111 237 m -8 Y s 1157 237 m -8 Y s 1202 245 m -16 Y s 1247 237 m -8 Y s 1293
 237 m -8 Y s 1338 237 m -8 Y s 1383 245 m -16 Y s 1429 237 m -8 Y s 1474 237 m -8 Y s 1519 237 m -8 Y s 1565 245 m -16 Y s 1610 237 m -8 Y s 1655 237 m -8 Y s 1701 237 m -8 Y s 1746 245 m -16 Y s 1791 237 m -8 Y s 1837 237 m -8 Y s 1882 237 m -8 Y s
 1928 245 m -16 Y s 1973 237 m -8 Y s 2018 237 m -8 Y s 2064 237 m -8 Y s 2109 245 m -16 Y s 295 245 m -16 Y s
 gsave  2268 654 0 0 C 295.789 163.063 t 0 r /Helvetica findfont 72.2607 sf 0 0 m (1) show NC gr 
 gsave  2268 654 0 0 C 257.867 163.063 t 0 r /Symbol findfont 72.2607 sf 0 0 m (-) show NC gr 
 gsave  2268 654 0 0 C 443.684 163.063 t 0 r /Helvetica findfont 72.2607 sf 0 0 m (0.8) show NC gr 
 gsave  2268 654 0 0 C 401.97 163.063 t 0 r /Symbol findfont 72.2607 sf 0 0 m (-) show NC gr 
 gsave  2268 654 0 0 C 625.708 163.063 t 0 r /Helvetica findfont 72.2607 sf 0 0 m (0.6) show NC gr 
 gsave  2268 654 0 0 C 583.994 163.063 t 0 r /Symbol findfont 72.2607 sf 0 0 m (-) show NC gr 
 gsave  2268 654 0 0 C 807.732 163.063 t 0 r /Helvetica findfont 72.2607 sf 0 0 m (0.4) show NC gr 
 gsave  2268 654 0 0 C 766.018 163.063 t 0 r /Symbol findfont 72.2607 sf 0 0 m (-) show NC gr 
 gsave  2268 654 0 0 C 989.756 163.063 t 0 r /Helvetica findfont 72.2607 sf 0 0 m (0.2) show NC gr 
 gsave  2268 654 0 0 C 948.042 163.063 t 0 r /Symbol findfont 72.2607 sf 0 0 m (-) show NC gr 
 gsave  2268 654 0 0 C 1179.36 163.063 t 0 r /Helvetica findfont 72.2607 sf 0 0 m (0) show NC gr 
 gsave  2268 654 0 0 C 1331.05 163.063 t 0 r /Helvetica findfont 72.2607 sf 0 0 m (0.2) show NC gr 
 gsave  2268 654 0 0 C 1513.08 163.063 t 0 r /Helvetica findfont 72.2607 sf 0 0 m (0.4) show NC gr 
 gsave  2268 654 0 0 C 1695.1 163.063 t 0 r /Helvetica findfont 72.2607 sf 0 0 m (0.6) show NC gr 
 gsave  2268 654 0 0 C 1877.12 163.063 t 0 r /Helvetica findfont 72.2607 sf 0 0 m (0.8) show NC gr 
 gsave  2268 654 0 0 C 2093.28 163.063 t 0 r /Helvetica findfont 72.2607 sf 0 0 m (1) show NC gr  295 654 m 1814 X s 295 638 m 16 Y s 340 646 m 8 Y s 386 646 m 8 Y s 431 646 m 8 Y s 476 638 m 16 Y s 522 646 m 8 Y s 567 646 m 8 Y s 612 646 m 8 Y s 658
 638 m 16 Y s 703 646 m 8 Y s 748 646 m 8 Y s 794 646 m 8 Y s 839 638 m 16 Y s 884 646 m 8 Y s 930 646 m 8 Y s 975 646 m 8 Y s 1020 638 m 16 Y s 1066 646 m 8 Y s 1111 646 m 8 Y s 1157 646 m 8 Y s 1202 638 m 16 Y s 1247 646 m 8 Y s 1293 646 m 8 Y s
 1338 646 m 8 Y s 1383 638 m 16 Y s 1429 646 m 8 Y s 1474 646 m 8 Y s 1519 646 m 8 Y s 1565 638 m 16 Y s 1610 646 m 8 Y s 1655 646 m 8 Y s 1701 646 m 8 Y s 1746 638 m 16 Y s 1791 646 m 8 Y s 1837 646 m 8 Y s 1882 646 m 8 Y s 1928 638 m 16 Y s 1973
 646 m 8 Y s 2018 646 m 8 Y s 2064 646 m 8 Y s 2109 638 m 16 Y s 295 638 m 16 Y s 295 229 m 425 Y s
 gsave  2268 654 0 0 C 151.687 246.491 t 90 r /Helvetica findfont 68.4575 sf 0 0 m (Test/Training) show NC gr  339 229 m -44 X s 317 250 m -22 X s 317 271 m -22 X s 317 293 m -22 X s 317 314 m -22 X s 339 335 m -44 X s 317 357 m -22 X s 317 378 m -22
 X s 317 399 m -22 X s 317 420 m -22 X s 339 442 m -44 X s 317 463 m -22 X s 317 484 m -22 X s 317 505 m -22 X s 317 527 m -22 X s 339 548 m -44 X s 317 569 m -22 X s 317 590 m -22 X s 317 612 m -22 X s 317 633 m -22 X s 339 654 m -44 X s
 gsave  2268 654 0 0 C 242.699 204.777 t 0 r /Helvetica findfont 72.2607 sf 0 0 m (0) show NC gr 
 gsave  2268 654 0 0 C 182.024 310.958 t 0 r /Helvetica findfont 72.2607 sf 0 0 m (0.5) show NC gr 
 gsave  2268 654 0 0 C 254.075 413.346 t 0 r /Helvetica findfont 72.2607 sf 0 0 m (1) show NC gr 
 gsave  2268 654 0 0 C 182.024 523.319 t 0 r /Helvetica findfont 72.2607 sf 0 0 m (1.5) show NC gr 
 gsave  2268 654 0 0 C 242.699 625.708 t 0 r /Helvetica findfont 72.2607 sf 0 0 m (2) show NC gr  2109 229 m 425 Y s 2065 229 m 44 X s 2087 250 m 22 X s 2087 271 m 22 X s 2087 293 m 22 X s 2087 314 m 22 X s 2065 335 m 44 X s 2087 357 m 22 X s 2087
 378 m 22 X s 2087 399 m 22 X s 2087 420 m 22 X s 2065 442 m 44 X s 2087 463 m 22 X s 2087 484 m 22 X s 2087 505 m 22 X s 2087 527 m 22 X s 2065 548 m 44 X s 2087 569 m 22 X s 2087 590 m 22 X s 2087 612 m 22 X s 2087 633 m 22 X s 2065 654 m 44 X s 1
 0 0 c 295 442 m 1814 X s
 gr  gr showpage
end
%%EOF
