%!PS-Adobe-2.0 EPSF-2.0
%%BoundingBox:  0 0 567 545
%%Title: hh_4j_bdt_bkg.eps: c2
%%Creator: ROOT Version 5.34/32
%%CreationDate: Sat Nov 25 20:13:33 2017
%%EndComments
%%BeginProlog
80 dict begin
/s {stroke} def /l {lineto} def /m {moveto} def /t {translate} def
/r {rotate} def /rl {roll}  def /R {repeat} def
/d {rlineto} def /rm {rmoveto} def /gr {grestore} def /f {eofill} def
/c {setrgbcolor} def /black {0 setgray} def /sd {setdash} def
/cl {closepath} def /sf {scalefont setfont} def /lw {setlinewidth} def
/box {m dup 0 exch d exch 0 d 0 exch neg d cl} def
/NC{systemdict begin initclip end}def/C{NC box clip newpath}def
/bl {box s} def /bf {gsave box gsave f grestore 1 lw [] 0 sd s grestore} def /Y { 0 exch d} def /X { 0 d} def 
/K {{pop pop 0 moveto} exch kshow} bind def
/ita {/ang 15 def gsave [1 0 ang dup sin exch cos div 1 0 0] concat} def 
/mp {newpath /y exch def /x exch def} def
/side {[w .77 mul w .23 mul] .385 w mul sd w 0 l currentpoint t -144 r} def
/mr {mp x y w2 0 360 arc} def /m24 {mr s} def /m20 {mr f} def
/mb {mp x y w2 add m w2 neg 0 d 0 w neg d w 0 d 0 w d cl} def
/mt {mp x y w2 add m w2 neg w neg d w 0 d cl} def
/m21 {mb f} def /m25 {mb s} def /m22 {mt f} def /m26{mt s} def
/m23 {mp x y w2 sub m w2 w d w neg 0 d cl f} def
/m27 {mp x y w2 add m w3 neg w2 neg d w3 w2 neg d w3 w2 d cl s} def
/m28 {mp x w2 sub y w2 sub w3 add m w3 0 d  0 w3 neg d w3 0 d 0 w3 d w3 0 d  0 w3 d w3 neg 0 d 0 w3 d w3 neg 0 d 0 w3 neg d w3 neg 0 d cl s } def
/m29 {mp gsave x w2 sub y w2 add w3 sub m currentpoint t 4 {side} repeat cl fill gr} def
/m30 {mp gsave x w2 sub y w2 add w3 sub m currentpoint t 4 {side} repeat cl s gr} def
/m31 {mp x y w2 sub m 0 w d x w2 sub y m w 0 d x w2 sub y w2 add m w w neg d x w2 sub y w2 sub m w w d s} def
/m32 {mp x y w2 sub m w2 w d w neg 0 d cl s} def
/m33 {mp x y w2 add m w3 neg w2 neg d w3 w2 neg d w3 w2 d cl f} def
/m34 {mp x w2 sub y w2 sub w3 add m w3 0 d  0 w3 neg d w3 0 d 0 w3 d w3 0 d  0 w3 d w3 neg 0 d 0 w3 d w3 neg 0 d 0 w3 neg d w3 neg 0 d cl f } def
/m2 {mp x y w2 sub m 0 w d x w2 sub y m w 0 d s} def
/m5 {mp x w2 sub y w2 sub m w w d x w2 sub y w2 add m w w neg d s} def
/reEncode {exch findfont dup length dict begin {1 index /FID eq  {pop pop} {def} ifelse } forall /Encoding exch def currentdict end dup /FontName get exch definefont pop } def [/Times-Bold /Times-Italic /Times-BoldItalic /Helvetica /Helvetica-Oblique
 /Helvetica-Bold /Helvetica-BoldOblique /Courier /Courier-Oblique /Courier-Bold /Courier-BoldOblique /Times-Roman /AvantGarde-Book /AvantGarde-BookOblique /AvantGarde-Demi /AvantGarde-DemiOblique /Bookman-Demi /Bookman-DemiItalic /Bookman-Light
 /Bookman-LightItalic /Helvetica-Narrow /Helvetica-Narrow-Bold /Helvetica-Narrow-BoldOblique /Helvetica-Narrow-Oblique /NewCenturySchlbk-Roman /NewCenturySchlbk-Bold /NewCenturySchlbk-BoldItalic /NewCenturySchlbk-Italic /Palatino-Bold
 /Palatino-BoldItalic /Palatino-Italic /Palatino-Roman ] {ISOLatin1Encoding reEncode } forall
%%EndProlog
%%BeginSetup
%%EndSetup
newpath  gsave  .25 .25 scale  gsave  0 0 t black[  ] 0 sd 3 lw 1 1 1 c 2268 2180 0 0 bf black 1 1 1 c 2268 1526 0 654 bf black 1 1 1 c 1814 1420 295 654 bf black 1814 1420 295 654 bl 1 0 0 c[  12 12 ] 0 sd 6 lw 1 1 1 c 1 0 0 c 340 1747 m 39 Y s 340
 1808 m 40 Y s 295 1797 m 34 X s 352 1797 m 34 X s 333 1747 m 15 X s 333 1848 m 15 X s 295 1790 m 15 Y s 386 1790 m 15 Y s[  ] 0 sd 3 lw /w 24 def /w2 {w 2 div} def /w3 {w 3 div} def 340 1797 m20[  12 12 ] 0 sd 6 lw 431 1224 m 25 Y s 431 1272 m 26 Y
 s 386 1261 m 33 X s 442 1261 m 34 X s 423 1224 m 15 X s 423 1298 m 15 X s 386 1253 m 15 Y s 476 1253 m 15 Y s[  ] 0 sd 3 lw 431 1261 m20[  12 12 ] 0 sd 6 lw 522 964 m 16 Y s 522 1003 m 16 Y s 476 992 m 34 X s 533 992 m 34 X s 514 964 m 15 X s 514
 1019 m 15 X s 476 984 m 15 Y s 567 984 m 15 Y s[  ] 0 sd 3 lw 522 992 m20[  12 12 ] 0 sd 6 lw 612 941 m 14 Y s 612 977 m 14 Y s 567 966 m 34 X s 624 966 m 34 X s 605 941 m 15 X s 605 991 m 15 X s 567 958 m 16 Y s 658 958 m 16 Y s[  ] 0 sd 3 lw 612
 966 m20[  12 12 ] 0 sd 6 lw 703 884 m 12 Y s 703 919 m 11 Y s 658 907 m 34 X s 714 907 m 34 X s 695 884 m 16 X s 695 930 m 16 X s 658 900 m 15 Y s 748 900 m 15 Y s[  ] 0 sd 3 lw 703 907 m20[  12 12 ] 0 sd 6 lw 794 853 m 10 Y s 794 886 m 10 Y s 748
 874 m 34 X s 805 874 m 34 X s 786 853 m 15 X s 786 896 m 15 X s 748 867 m 15 Y s 839 867 m 15 Y s[  ] 0 sd 3 lw 794 874 m20[  12 12 ] 0 sd 6 lw 884 820 m 9 Y s 884 851 m 9 Y s 839 840 m 34 X s 896 840 m 34 X s 877 820 m 15 X s 877 860 m 15 X s 839
 832 m 15 Y s 930 832 m 15 Y s[  ] 0 sd 3 lw 884 840 m20[  12 12 ] 0 sd 6 lw 975 839 m 11 Y s 975 873 m 11 Y s 930 862 m 34 X s 986 862 m 34 X s 968 839 m 15 X s 968 884 m 15 X s 930 854 m 15 Y s 1020 854 m 15 Y s[  ] 0 sd 3 lw 975 862 m20[  12 12 ]
 0 sd 6 lw 1066 798 m 7 Y s 1066 828 m 7 Y s 1020 816 m 34 X s 1077 816 m 34 X s 1058 798 m 15 X s 1058 835 m 15 X s 1020 809 m 15 Y s 1111 809 m 15 Y s[  ] 0 sd 3 lw 1066 816 m20[  12 12 ] 0 sd 6 lw 1157 866 m 12 Y s 1157 901 m 12 Y s 1111 889 m 34
 X s 1168 889 m 34 X s 1149 866 m 15 X s 1149 913 m 15 X s 1111 882 m 15 Y s 1202 882 m 15 Y s[  ] 0 sd 3 lw 1157 889 m20[  12 12 ] 0 sd 6 lw 1247 825 m 12 Y s 1247 860 m 13 Y s 1202 849 m 34 X s 1259 849 m 34 X s 1240 825 m 15 X s 1240 873 m 15 X s
 1202 841 m 15 Y s 1293 841 m 15 Y s[  ] 0 sd 3 lw 1247 849 m20[  12 12 ] 0 sd 6 lw 1338 778 m 6 Y s 1338 807 m 6 Y s 1293 796 m 34 X s 1349 796 m 34 X s 1330 778 m 16 X s 1330 813 m 16 X s 1293 788 m 15 Y s 1383 788 m 15 Y s[  ] 0 sd 3 lw 1338 796
 m20[  12 12 ] 0 sd 6 lw 1429 781 m 7 Y s 1429 811 m 6 Y s 1383 799 m 34 X s 1440 799 m 34 X s 1421 781 m 15 X s 1421 817 m 15 X s 1383 792 m 15 Y s 1474 792 m 15 Y s[  ] 0 sd 3 lw 1429 799 m20[  12 12 ] 0 sd 6 lw 1519 802 m 8 Y s 1519 833 m 8 Y s
 1474 821 m 34 X s 1531 821 m 34 X s 1512 802 m 15 X s 1512 841 m 15 X s 1474 814 m 15 Y s 1565 814 m 15 Y s[  ] 0 sd 3 lw 1519 821 m20[  12 12 ] 0 sd 6 lw 1610 788 m 7 Y s 1610 818 m 8 Y s 1565 807 m 34 X s 1621 807 m 34 X s 1602 788 m 16 X s 1602
 826 m 16 X s 1565 799 m 15 Y s 1655 799 m 15 Y s[  ] 0 sd 3 lw 1610 807 m20[  12 12 ] 0 sd 6 lw 1701 760 m 4 Y s 1701 787 m 4 Y s 1655 775 m 34 X s 1712 775 m 34 X s 1693 760 m 15 X s 1693 791 m 15 X s 1655 768 m 15 Y s 1746 768 m 15 Y s[  ] 0 sd 3
 lw 1701 775 m20[  12 12 ] 0 sd 6 lw 1791 733 m 1 Y s 1791 757 m 1 Y s 1746 745 m 34 X s 1803 745 m 34 X s 1784 733 m 15 X s 1784 758 m 15 X s 1746 738 m 15 Y s 1837 738 m 15 Y s[  ] 0 sd 3 lw 1791 745 m20[  12 12 ] 0 sd 6 lw 1882 732 m 2 Y s 1882
 757 m 1 Y s 1837 745 m 34 X s 1894 745 m 34 X s 1875 732 m 15 X s 1875 758 m 15 X s 1837 738 m 15 Y s 1928 738 m 15 Y s[  ] 0 sd 3 lw 1882 745 m20[  12 12 ] 0 sd 6 lw 1973 712 m s 1973 735 m 1 Y s 1928 724 m 34 X s 1984 724 m 34 X s 1965 712 m 15 X
 s 1965 736 m 15 X s 1928 716 m 15 Y s 2018 716 m 15 Y s[  ] 0 sd 3 lw 1973 724 m20[  12 12 ] 0 sd 6 lw 2018 662 m 34 X s 2075 662 m 34 X s 2018 654 m 16 Y s 2109 654 m 16 Y s[  ] 0 sd 3 lw 2064 662 m20[  12 12 ] 0 sd 6 lw black[  ] 0 sd 3 lw 295 654
 m 1814 X s
 gsave  2268 1526 0 654 C 1755.77 492.982 t 0 r /Helvetica findfont 72.1408 sf 0 0 m (BDT Score) show NC gr  295 691 m -37 Y s 340 672 m -18 Y s 386 672 m -18 Y s 431 672 m -18 Y s 476 691 m -37 Y s 522 672 m -18 Y s 567 672 m -18 Y s 612 672 m -18 Y
 s 658 691 m -37 Y s 703 672 m -18 Y s 748 672 m -18 Y s 794 672 m -18 Y s 839 691 m -37 Y s 884 672 m -18 Y s 930 672 m -18 Y s 975 672 m -18 Y s 1020 691 m -37 Y s 1066 672 m -18 Y s 1111 672 m -18 Y s 1157 672 m -18 Y s 1202 691 m -37 Y s 1247 672
 m -18 Y s 1293 672 m -18 Y s 1338 672 m -18 Y s 1383 691 m -37 Y s 1429 672 m -18 Y s 1474 672 m -18 Y s 1519 672 m -18 Y s 1565 691 m -37 Y s 1610 672 m -18 Y s 1655 672 m -18 Y s 1701 672 m -18 Y s 1746 691 m -37 Y s 1791 672 m -18 Y s 1837 672 m
 -18 Y s 1882 672 m -18 Y s 1928 691 m -37 Y s 1973 672 m -18 Y s 2018 672 m -18 Y s 2064 672 m -18 Y s 2109 691 m -37 Y s 295 691 m -37 Y s 1 1 1 c black 1 1 1 c
 gsave  2268 1526 0 654 C 295.789 587.786 t 0 r /Helvetica findfont 72.1408 sf 0 0 m (1) show NC gr  black 1 1 1 c
 gsave  2268 1526 0 654 C 257.867 587.786 t 0 r /Symbol findfont 72.1408 sf 0 0 m (-) show NC gr  black 1 1 1 c
 gsave  2268 1526 0 654 C 443.684 587.786 t 0 r /Helvetica findfont 72.1408 sf 0 0 m (0.8) show NC gr  black 1 1 1 c
 gsave  2268 1526 0 654 C 401.97 587.786 t 0 r /Symbol findfont 72.1408 sf 0 0 m (-) show NC gr  black 1 1 1 c
 gsave  2268 1526 0 654 C 625.708 587.786 t 0 r /Helvetica findfont 72.1408 sf 0 0 m (0.6) show NC gr  black 1 1 1 c
 gsave  2268 1526 0 654 C 583.994 587.786 t 0 r /Symbol findfont 72.1408 sf 0 0 m (-) show NC gr  black 1 1 1 c
 gsave  2268 1526 0 654 C 807.732 587.786 t 0 r /Helvetica findfont 72.1408 sf 0 0 m (0.4) show NC gr  black 1 1 1 c
 gsave  2268 1526 0 654 C 766.018 587.786 t 0 r /Symbol findfont 72.1408 sf 0 0 m (-) show NC gr  black 1 1 1 c
 gsave  2268 1526 0 654 C 989.756 587.786 t 0 r /Helvetica findfont 72.1408 sf 0 0 m (0.2) show NC gr  black 1 1 1 c
 gsave  2268 1526 0 654 C 948.042 587.786 t 0 r /Symbol findfont 72.1408 sf 0 0 m (-) show NC gr  black 1 1 1 c
 gsave  2268 1526 0 654 C 1179.36 587.786 t 0 r /Helvetica findfont 72.1408 sf 0 0 m (0) show NC gr  black 1 1 1 c
 gsave  2268 1526 0 654 C 1331.05 587.786 t 0 r /Helvetica findfont 72.1408 sf 0 0 m (0.2) show NC gr  black 1 1 1 c
 gsave  2268 1526 0 654 C 1513.08 587.786 t 0 r /Helvetica findfont 72.1408 sf 0 0 m (0.4) show NC gr  black 1 1 1 c
 gsave  2268 1526 0 654 C 1695.1 587.786 t 0 r /Helvetica findfont 72.1408 sf 0 0 m (0.6) show NC gr  black 1 1 1 c
 gsave  2268 1526 0 654 C 1877.12 587.786 t 0 r /Helvetica findfont 72.1408 sf 0 0 m (0.8) show NC gr  black 1 1 1 c
 gsave  2268 1526 0 654 C 2093.28 587.786 t 0 r /Helvetica findfont 72.1408 sf 0 0 m (1) show NC gr  black 295 2074 m 1814 X s 295 2037 m 37 Y s 340 2055 m 19 Y s 386 2055 m 19 Y s 431 2055 m 19 Y s 476 2037 m 37 Y s 522 2055 m 19 Y s 567 2055 m 19 Y
 s 612 2055 m 19 Y s 658 2037 m 37 Y s 703 2055 m 19 Y s 748 2055 m 19 Y s 794 2055 m 19 Y s 839 2037 m 37 Y s 884 2055 m 19 Y s 930 2055 m 19 Y s 975 2055 m 19 Y s 1020 2037 m 37 Y s 1066 2055 m 19 Y s 1111 2055 m 19 Y s 1157 2055 m 19 Y s 1202 2037
 m 37 Y s 1247 2055 m 19 Y s 1293 2055 m 19 Y s 1338 2055 m 19 Y s 1383 2037 m 37 Y s 1429 2055 m 19 Y s 1474 2055 m 19 Y s 1519 2055 m 19 Y s 1565 2037 m 37 Y s 1610 2055 m 19 Y s 1655 2055 m 19 Y s 1701 2055 m 19 Y s 1746 2037 m 37 Y s 1791 2055 m
 19 Y s 1837 2055 m 19 Y s 1882 2055 m 19 Y s 1928 2037 m 37 Y s 1973 2055 m 19 Y s 2018 2055 m 19 Y s 2064 2055 m 19 Y s 2109 2037 m 37 Y s 295 2037 m 37 Y s 295 654 m 1420 Y s 358 654 m -63 X s 326 708 m -31 X s 326 762 m -31 X s 326 815 m -31 X s
 326 869 m -31 X s 358 923 m -63 X s 326 977 m -31 X s 326 1031 m -31 X s 326 1084 m -31 X s 326 1138 m -31 X s 358 1192 m -63 X s 326 1246 m -31 X s 326 1299 m -31 X s 326 1353 m -31 X s 326 1407 m -31 X s 358 1461 m -63 X s 326 1514 m -31 X s 326
 1568 m -31 X s 326 1622 m -31 X s 326 1676 m -31 X s 358 1730 m -63 X s 326 1783 m -31 X s 326 1837 m -31 X s 326 1891 m -31 X s 326 1945 m -31 X s 358 1998 m -63 X s 358 1998 m -63 X s 326 2052 m -31 X s
 gsave  2268 1526 0 654 C 242.699 629.5 t 0 r /Helvetica findfont 72.1408 sf 0 0 m (0) show NC gr 
 gsave  2268 1526 0 654 C 200.985 898.744 t 0 r /Helvetica findfont 72.1408 sf 0 0 m (50) show NC gr 
 gsave  2268 1526 0 654 C 163.063 1167.99 t 0 r /Helvetica findfont 72.1408 sf 0 0 m (100) show NC gr 
 gsave  2268 1526 0 654 C 163.063 1437.23 t 0 r /Helvetica findfont 72.1408 sf 0 0 m (150) show NC gr 
 gsave  2268 1526 0 654 C 163.063 1706.48 t 0 r /Helvetica findfont 72.1408 sf 0 0 m (200) show NC gr 
 gsave  2268 1526 0 654 C 163.063 1971.93 t 0 r /Helvetica findfont 72.1408 sf 0 0 m (250) show NC gr  2109 654 m 1420 Y s 2046 654 m 63 X s 2077 708 m 32 X s 2077 762 m 32 X s 2077 815 m 32 X s 2077 869 m 32 X s 2046 923 m 63 X s 2077 977 m 32 X s
 2077 1031 m 32 X s 2077 1084 m 32 X s 2077 1138 m 32 X s 2046 1192 m 63 X s 2077 1246 m 32 X s 2077 1299 m 32 X s 2077 1353 m 32 X s 2077 1407 m 32 X s 2046 1461 m 63 X s 2077 1514 m 32 X s 2077 1568 m 32 X s 2077 1622 m 32 X s 2077 1676 m 32 X s
 2046 1730 m 63 X s 2077 1783 m 32 X s 2077 1837 m 32 X s 2077 1891 m 32 X s 2077 1945 m 32 X s 2046 1998 m 63 X s 2046 1998 m 63 X s 2077 2052 m 32 X s 0 0 1 c 6 lw 1 1 1 c 0 0 1 c 340 1785 m 41 Y s 340 1848 m 41 Y s 295 1837 m 34 X s 352 1837 m 34
 X s 333 1785 m 15 X s 333 1889 m 15 X s 295 1829 m 16 Y s 386 1829 m 16 Y s 3 lw 340 1837 m20 6 lw 431 1224 m 25 Y s 431 1272 m 26 Y s 386 1261 m 33 X s 442 1261 m 34 X s 423 1224 m 15 X s 423 1298 m 15 X s 386 1253 m 15 Y s 476 1253 m 15 Y s 3 lw
 431 1261 m20 6 lw 522 999 m 17 Y s 522 1039 m 17 Y s 476 1028 m 34 X s 533 1028 m 34 X s 514 999 m 15 X s 514 1056 m 15 X s 476 1020 m 15 Y s 567 1020 m 15 Y s 3 lw 522 1028 m20 6 lw 612 921 m 13 Y s 612 956 m 13 Y s 567 945 m 34 X s 624 945 m 34 X
 s 605 921 m 15 X s 605 969 m 15 X s 567 937 m 16 Y s 658 937 m 16 Y s 3 lw 612 945 m20 6 lw 703 909 m 15 Y s 703 946 m 15 Y s 658 935 m 34 X s 714 935 m 34 X s 695 909 m 16 X s 695 961 m 16 X s 658 928 m 15 Y s 748 928 m 15 Y s 3 lw 703 935 m20 6 lw
 794 901 m 16 Y s 794 940 m 16 Y s 748 928 m 34 X s 805 928 m 34 X s 786 901 m 15 X s 786 956 m 15 X s 748 921 m 15 Y s 839 921 m 15 Y s 3 lw 794 928 m20 6 lw 884 845 m 11 Y s 884 879 m 11 Y s 839 868 m 34 X s 896 868 m 34 X s 877 845 m 15 X s 877
 890 m 15 X s 839 860 m 15 Y s 930 860 m 15 Y s 3 lw 884 868 m20 6 lw 975 810 m 7 Y s 975 840 m 8 Y s 930 829 m 34 X s 986 829 m 34 X s 968 810 m 15 X s 968 848 m 15 X s 930 821 m 15 Y s 1020 821 m 15 Y s 3 lw 975 829 m20 6 lw 1066 830 m 9 Y s 1066
 862 m 8 Y s 1020 850 m 34 X s 1077 850 m 34 X s 1058 830 m 15 X s 1058 870 m 15 X s 1020 843 m 15 Y s 1111 843 m 15 Y s 3 lw 1066 850 m20 6 lw 1157 843 m 10 Y s 1157 876 m 10 Y s 1111 864 m 34 X s 1168 864 m 34 X s 1149 843 m 15 X s 1149 886 m 15 X
 s 1111 857 m 15 Y s 1202 857 m 15 Y s 3 lw 1157 864 m20 6 lw 1247 821 m 10 Y s 1247 854 m 9 Y s 1202 842 m 34 X s 1259 842 m 34 X s 1240 821 m 15 X s 1240 863 m 15 X s 1202 835 m 15 Y s 1293 835 m 15 Y s 3 lw 1247 842 m20 6 lw 1338 796 m 8 Y s 1338
 827 m 7 Y s 1293 815 m 34 X s 1349 815 m 34 X s 1330 796 m 16 X s 1330 834 m 16 X s 1293 808 m 15 Y s 1383 808 m 15 Y s 3 lw 1338 815 m20 6 lw 1429 779 m 6 Y s 1429 807 m 6 Y s 1383 796 m 34 X s 1440 796 m 34 X s 1421 779 m 15 X s 1421 813 m 15 X s
 1383 788 m 16 Y s 1474 788 m 16 Y s 3 lw 1429 796 m20 6 lw 1519 773 m 7 Y s 1519 802 m 7 Y s 1474 791 m 34 X s 1531 791 m 34 X s 1512 773 m 15 X s 1512 809 m 15 X s 1474 783 m 16 Y s 1565 783 m 16 Y s 3 lw 1519 791 m20 6 lw 1610 759 m 4 Y s 1610 786
 m 4 Y s 1565 775 m 34 X s 1621 775 m 34 X s 1602 759 m 16 X s 1602 790 m 16 X s 1565 767 m 15 Y s 1655 767 m 15 Y s 3 lw 1610 775 m20 6 lw 1701 744 m 4 Y s 1701 770 m 4 Y s 1655 759 m 34 X s 1712 759 m 34 X s 1693 744 m 15 X s 1693 774 m 15 X s 1655
 752 m 15 Y s 1746 752 m 15 Y s 3 lw 1701 759 m20 6 lw 1791 719 m s 1791 742 m s 1746 731 m 34 X s 1803 731 m 34 X s 1784 719 m 15 X s 1784 742 m 15 X s 1746 723 m 15 Y s 1837 723 m 15 Y s 3 lw 1791 731 m20 6 lw 1837 722 m 34 X s 1894 722 m 34 X s
 1837 715 m 15 Y s 1928 715 m 15 Y s 3 lw 1882 722 m20 6 lw 1928 693 m 34 X s 1984 693 m 34 X s 1928 685 m 15 Y s 2018 685 m 15 Y s 3 lw 1973 693 m20 6 lw 2018 659 m 34 X s 2075 659 m 34 X s 2018 654 m 13 Y s 2109 654 m 13 Y s 3 lw 2064 659 m20 6 lw
 black
 gsave  2268 1526 0 654 C 1289.34 1956.76 t 0 r /Helvetica-Bold findfont 53.1564 sf 0 0 m (Testing Background) show NC gr  1 0 0 c[  12 12 ] 0 sd 869 1971 m 349 X s black
 gsave  2268 1526 0 654 C 1289.34 1842.99 t 0 r /Helvetica-Bold findfont 53.1564 sf 0 0 m (Training Background) show NC gr  0 0 1 c[  ] 0 sd 869 1856 m 349 X s black
 gsave  2268 1526 0 654 C 1471.36 1725.44 t 0 r /Helvetica findfont 56.9533 sf 0 0 m (Kol = 0.155973) show NC gr  3 lw 1 1 1 c black 1 1 1 c 1814 425 295 229 bf black 1814 425 295 229 bl 295 229 m 1814 X s[ 4 8] 0 sd 295 654 m -425 Y s 476 654 m -425
 Y s 658 654 m -425 Y s 839 654 m -425 Y s 1020 654 m -425 Y s 1202 654 m -425 Y s 1383 654 m -425 Y s 1565 654 m -425 Y s 1746 654 m -425 Y s 1928 654 m -425 Y s 2109 654 m -425 Y s 295 654 m -425 Y s[  ] 0 sd 295 654 m 1814 X s 295 229 m 425 Y s[ 4
 8] 0 sd 2109 229 m -1814 X s 2109 335 m -1814 X s 2109 442 m -1814 X s 2109 548 m -1814 X s 2109 654 m -1814 X s[  ] 0 sd 2109 229 m 425 Y s 6 lw 1 1 1 c black 340 422 m 1 Y s 340 446 m 1 Y s 295 434 m 34 X s 352 434 m 34 X s 3 lw 340 434 m20 6 lw
 431 423 m 7 Y s 431 453 m 7 Y s 386 442 m 33 X s 442 442 m 34 X s 3 lw 431 442 m20 6 lw 522 399 m 11 Y s 522 432 m 11 Y s 476 421 m 34 X s 533 421 m 34 X s 3 lw 522 421 m20 6 lw 612 431 m 15 Y s 612 468 m 15 Y s 567 457 m 34 X s 624 457 m 34 X s 3
 lw 612 457 m20 6 lw 703 395 m 14 Y s 703 432 m 13 Y s 658 420 m 34 X s 714 420 m 34 X s 3 lw 703 420 m20 6 lw 794 376 m 12 Y s 794 411 m 13 Y s 748 400 m 34 X s 805 400 m 34 X s 3 lw 794 400 m20 6 lw 884 386 m 17 Y s 884 425 m 17 Y s 839 414 m 34 X
 s 896 414 m 34 X s 3 lw 884 414 m20 6 lw 975 443 m 27 Y s 975 493 m 27 Y s 930 481 m 34 X s 986 481 m 34 X s 3 lw 975 481 m20 6 lw 1066 378 m 16 Y s 1066 416 m 16 Y s 1020 405 m 34 X s 1077 405 m 34 X s 3 lw 1066 405 m20 6 lw 1157 433 m 23 Y s 1157
 478 m 23 Y s 1111 467 m 34 X s 1168 467 m 34 X s 3 lw 1157 467 m20 6 lw 1247 413 m 25 Y s 1247 461 m 25 Y s 1202 449 m 34 X s 1259 449 m 34 X s 3 lw 1247 449 m20 6 lw 1338 384 m 20 Y s 1338 427 m 21 Y s 1293 416 m 34 X s 1349 416 m 34 X s 3 lw 1338
 416 m20 6 lw 1429 409 m 26 Y s 1429 458 m 26 Y s 1383 447 m 34 X s 1440 447 m 34 X s 3 lw 1429 447 m20 6 lw 1519 443 m 34 Y s 1519 500 m 34 Y s 1474 488 m 34 X s 1531 488 m 34 X s 3 lw 1519 488 m20 6 lw 1610 450 m 37 Y s 1610 510 m 37 Y s 1565 498 m
 34 X s 1621 498 m 34 X s 3 lw 1610 498 m20 6 lw 1701 428 m 35 Y s 1701 486 m 35 Y s 1655 474 m 34 X s 1712 474 m 34 X s 3 lw 1701 474 m20 6 lw 1791 431 m 40 Y s 1791 494 m 40 Y s 1746 483 m 34 X s 1803 483 m 34 X s 3 lw 1791 483 m20 6 lw 1882 454 m
 48 Y s 1882 525 m 48 Y s 1837 513 m 34 X s 1894 513 m 34 X s 3 lw 1882 513 m20 6 lw 1973 510 m 92 Y s 1973 624 m 30 Y s 1928 613 m 34 X s 1984 613 m 34 X s 3 lw 1973 613 m20 6 lw 2064 367 m 186 Y s 2064 576 m 78 Y s 2018 564 m 34 X s 2075 564 m 34 X
 s 3 lw 2064 564 m20 6 lw 3 lw 295 229 m 1814 X s
 gsave  2268 654 0 0 C 1664.76 56.8825 t 0 r /Helvetica findfont 91.2766 sf 0 0 m (BDT Score) show NC gr  295 245 m -16 Y s 340 237 m -8 Y s 386 237 m -8 Y s 431 237 m -8 Y s 476 245 m -16 Y s 522 237 m -8 Y s 567 237 m -8 Y s 612 237 m -8 Y s 658
 245 m -16 Y s 703 237 m -8 Y s 748 237 m -8 Y s 794 237 m -8 Y s 839 245 m -16 Y s 884 237 m -8 Y s 930 237 m -8 Y s 975 237 m -8 Y s 1020 245 m -16 Y s 1066 237 m -8 Y s 1111 237 m -8 Y s 1157 237 m -8 Y s 1202 245 m -16 Y s 1247 237 m -8 Y s 1293
 237 m -8 Y s 1338 237 m -8 Y s 1383 245 m -16 Y s 1429 237 m -8 Y s 1474 237 m -8 Y s 1519 237 m -8 Y s 1565 245 m -16 Y s 1610 237 m -8 Y s 1655 237 m -8 Y s 1701 237 m -8 Y s 1746 245 m -16 Y s 1791 237 m -8 Y s 1837 237 m -8 Y s 1882 237 m -8 Y s
 1928 245 m -16 Y s 1973 237 m -8 Y s 2018 237 m -8 Y s 2064 237 m -8 Y s 2109 245 m -16 Y s 295 245 m -16 Y s
 gsave  2268 654 0 0 C 295.789 163.063 t 0 r /Helvetica findfont 72.2607 sf 0 0 m (1) show NC gr 
 gsave  2268 654 0 0 C 257.867 163.063 t 0 r /Symbol findfont 72.2607 sf 0 0 m (-) show NC gr 
 gsave  2268 654 0 0 C 443.684 163.063 t 0 r /Helvetica findfont 72.2607 sf 0 0 m (0.8) show NC gr 
 gsave  2268 654 0 0 C 401.97 163.063 t 0 r /Symbol findfont 72.2607 sf 0 0 m (-) show NC gr 
 gsave  2268 654 0 0 C 625.708 163.063 t 0 r /Helvetica findfont 72.2607 sf 0 0 m (0.6) show NC gr 
 gsave  2268 654 0 0 C 583.994 163.063 t 0 r /Symbol findfont 72.2607 sf 0 0 m (-) show NC gr 
 gsave  2268 654 0 0 C 807.732 163.063 t 0 r /Helvetica findfont 72.2607 sf 0 0 m (0.4) show NC gr 
 gsave  2268 654 0 0 C 766.018 163.063 t 0 r /Symbol findfont 72.2607 sf 0 0 m (-) show NC gr 
 gsave  2268 654 0 0 C 989.756 163.063 t 0 r /Helvetica findfont 72.2607 sf 0 0 m (0.2) show NC gr 
 gsave  2268 654 0 0 C 948.042 163.063 t 0 r /Symbol findfont 72.2607 sf 0 0 m (-) show NC gr 
 gsave  2268 654 0 0 C 1179.36 163.063 t 0 r /Helvetica findfont 72.2607 sf 0 0 m (0) show NC gr 
 gsave  2268 654 0 0 C 1331.05 163.063 t 0 r /Helvetica findfont 72.2607 sf 0 0 m (0.2) show NC gr 
 gsave  2268 654 0 0 C 1513.08 163.063 t 0 r /Helvetica findfont 72.2607 sf 0 0 m (0.4) show NC gr 
 gsave  2268 654 0 0 C 1695.1 163.063 t 0 r /Helvetica findfont 72.2607 sf 0 0 m (0.6) show NC gr 
 gsave  2268 654 0 0 C 1877.12 163.063 t 0 r /Helvetica findfont 72.2607 sf 0 0 m (0.8) show NC gr 
 gsave  2268 654 0 0 C 2093.28 163.063 t 0 r /Helvetica findfont 72.2607 sf 0 0 m (1) show NC gr  295 654 m 1814 X s 295 638 m 16 Y s 340 646 m 8 Y s 386 646 m 8 Y s 431 646 m 8 Y s 476 638 m 16 Y s 522 646 m 8 Y s 567 646 m 8 Y s 612 646 m 8 Y s 658
 638 m 16 Y s 703 646 m 8 Y s 748 646 m 8 Y s 794 646 m 8 Y s 839 638 m 16 Y s 884 646 m 8 Y s 930 646 m 8 Y s 975 646 m 8 Y s 1020 638 m 16 Y s 1066 646 m 8 Y s 1111 646 m 8 Y s 1157 646 m 8 Y s 1202 638 m 16 Y s 1247 646 m 8 Y s 1293 646 m 8 Y s
 1338 646 m 8 Y s 1383 638 m 16 Y s 1429 646 m 8 Y s 1474 646 m 8 Y s 1519 646 m 8 Y s 1565 638 m 16 Y s 1610 646 m 8 Y s 1655 646 m 8 Y s 1701 646 m 8 Y s 1746 638 m 16 Y s 1791 646 m 8 Y s 1837 646 m 8 Y s 1882 646 m 8 Y s 1928 638 m 16 Y s 1973
 646 m 8 Y s 2018 646 m 8 Y s 2064 646 m 8 Y s 2109 638 m 16 Y s 295 638 m 16 Y s 295 229 m 425 Y s
 gsave  2268 654 0 0 C 151.687 246.491 t 90 r /Helvetica findfont 68.4575 sf 0 0 m (Test/Training) show NC gr  339 229 m -44 X s 317 250 m -22 X s 317 271 m -22 X s 317 293 m -22 X s 317 314 m -22 X s 339 335 m -44 X s 317 357 m -22 X s 317 378 m -22
 X s 317 399 m -22 X s 317 420 m -22 X s 339 442 m -44 X s 317 463 m -22 X s 317 484 m -22 X s 317 505 m -22 X s 317 527 m -22 X s 339 548 m -44 X s 317 569 m -22 X s 317 590 m -22 X s 317 612 m -22 X s 317 633 m -22 X s 339 654 m -44 X s
 gsave  2268 654 0 0 C 242.699 204.777 t 0 r /Helvetica findfont 72.2607 sf 0 0 m (0) show NC gr 
 gsave  2268 654 0 0 C 182.024 310.958 t 0 r /Helvetica findfont 72.2607 sf 0 0 m (0.5) show NC gr 
 gsave  2268 654 0 0 C 254.075 413.346 t 0 r /Helvetica findfont 72.2607 sf 0 0 m (1) show NC gr 
 gsave  2268 654 0 0 C 182.024 523.319 t 0 r /Helvetica findfont 72.2607 sf 0 0 m (1.5) show NC gr 
 gsave  2268 654 0 0 C 242.699 625.708 t 0 r /Helvetica findfont 72.2607 sf 0 0 m (2) show NC gr  2109 229 m 425 Y s 2065 229 m 44 X s 2087 250 m 22 X s 2087 271 m 22 X s 2087 293 m 22 X s 2087 314 m 22 X s 2065 335 m 44 X s 2087 357 m 22 X s 2087
 378 m 22 X s 2087 399 m 22 X s 2087 420 m 22 X s 2065 442 m 44 X s 2087 463 m 22 X s 2087 484 m 22 X s 2087 505 m 22 X s 2087 527 m 22 X s 2065 548 m 44 X s 2087 569 m 22 X s 2087 590 m 22 X s 2087 612 m 22 X s 2087 633 m 22 X s 2065 654 m 44 X s 1
 0 0 c 295 442 m 1814 X s
 gr  gr showpage
end
%%EOF
