%!PS-Adobe-2.0 EPSF-2.0
%%BoundingBox:  0 0 567 545
%%Title: ./c1.eps: c1
%%Creator: ROOT Version 5.34/32
%%CreationDate: Fri Nov 24 11:08:03 2017
%%EndComments
%%BeginProlog
80 dict begin
/s {stroke} def /l {lineto} def /m {moveto} def /t {translate} def
/r {rotate} def /rl {roll}  def /R {repeat} def
/d {rlineto} def /rm {rmoveto} def /gr {grestore} def /f {eofill} def
/c {setrgbcolor} def /black {0 setgray} def /sd {setdash} def
/cl {closepath} def /sf {scalefont setfont} def /lw {setlinewidth} def
/box {m dup 0 exch d exch 0 d 0 exch neg d cl} def
/NC{systemdict begin initclip end}def/C{NC box clip newpath}def
/bl {box s} def /bf {gsave box gsave f grestore 1 lw [] 0 sd s grestore} def /Y { 0 exch d} def /X { 0 d} def 
/K {{pop pop 0 moveto} exch kshow} bind def
/ita {/ang 15 def gsave [1 0 ang dup sin exch cos div 1 0 0] concat} def 
/mp {newpath /y exch def /x exch def} def
/side {[w .77 mul w .23 mul] .385 w mul sd w 0 l currentpoint t -144 r} def
/mr {mp x y w2 0 360 arc} def /m24 {mr s} def /m20 {mr f} def
/mb {mp x y w2 add m w2 neg 0 d 0 w neg d w 0 d 0 w d cl} def
/mt {mp x y w2 add m w2 neg w neg d w 0 d cl} def
/m21 {mb f} def /m25 {mb s} def /m22 {mt f} def /m26{mt s} def
/m23 {mp x y w2 sub m w2 w d w neg 0 d cl f} def
/m27 {mp x y w2 add m w3 neg w2 neg d w3 w2 neg d w3 w2 d cl s} def
/m28 {mp x w2 sub y w2 sub w3 add m w3 0 d  0 w3 neg d w3 0 d 0 w3 d w3 0 d  0 w3 d w3 neg 0 d 0 w3 d w3 neg 0 d 0 w3 neg d w3 neg 0 d cl s } def
/m29 {mp gsave x w2 sub y w2 add w3 sub m currentpoint t 4 {side} repeat cl fill gr} def
/m30 {mp gsave x w2 sub y w2 add w3 sub m currentpoint t 4 {side} repeat cl s gr} def
/m31 {mp x y w2 sub m 0 w d x w2 sub y m w 0 d x w2 sub y w2 add m w w neg d x w2 sub y w2 sub m w w d s} def
/m32 {mp x y w2 sub m w2 w d w neg 0 d cl s} def
/m33 {mp x y w2 add m w3 neg w2 neg d w3 w2 neg d w3 w2 d cl f} def
/m34 {mp x w2 sub y w2 sub w3 add m w3 0 d  0 w3 neg d w3 0 d 0 w3 d w3 0 d  0 w3 d w3 neg 0 d 0 w3 d w3 neg 0 d 0 w3 neg d w3 neg 0 d cl f } def
/m2 {mp x y w2 sub m 0 w d x w2 sub y m w 0 d s} def
/m5 {mp x w2 sub y w2 sub m w w d x w2 sub y w2 add m w w neg d s} def
/reEncode {exch findfont dup length dict begin {1 index /FID eq  {pop pop} {def} ifelse } forall /Encoding exch def currentdict end dup /FontName get exch definefont pop } def [/Times-Bold /Times-Italic /Times-BoldItalic /Helvetica /Helvetica-Oblique
 /Helvetica-Bold /Helvetica-BoldOblique /Courier /Courier-Oblique /Courier-Bold /Courier-BoldOblique /Times-Roman /AvantGarde-Book /AvantGarde-BookOblique /AvantGarde-Demi /AvantGarde-DemiOblique /Bookman-Demi /Bookman-DemiItalic /Bookman-Light
 /Bookman-LightItalic /Helvetica-Narrow /Helvetica-Narrow-Bold /Helvetica-Narrow-BoldOblique /Helvetica-Narrow-Oblique /NewCenturySchlbk-Roman /NewCenturySchlbk-Bold /NewCenturySchlbk-BoldItalic /NewCenturySchlbk-Italic /Palatino-Bold
 /Palatino-BoldItalic /Palatino-Italic /Palatino-Roman ] {ISOLatin1Encoding reEncode } forall
%%EndProlog
%%BeginSetup
%%EndSetup
newpath  gsave  .25 .25 scale  gsave  0 0 t black[  ] 0 sd 3 lw 1 1 1 c 2268 2180 0 0 bf black 1 1 1 c 1814 1745 295 283 bf black 1814 1745 295 283 bl 1 1 1 c 1814 1745 295 283 bf black 1814 1745 295 283 bl 295 283 m 1814 X s
 gsave  2268 2180 0 0 C 1824.03 68.259 t 0 r /Helvetica findfont 102.389 sf 0 0 m ( [GeV]) show NC gr 
 gsave  2268 2180 0 0 C 1782.32 37.9217 t 0 r /Helvetica findfont 68.259 sf 0 0 m (T) show NC gr 
 gsave  2268 2180 0 0 C 1717.85 68.259 t 0 r /Helvetica findfont 102.389 sf 0 0 m (E) show NC gr 
 gsave  2268 2180 0 0 C 1657.18 68.259 t 0 r /Symbol findfont 102.389 sf 0 0 m (S) show NC gr  310 336 m -53 Y s 391 310 m -27 Y s 472 310 m -27 Y s 553 310 m -27 Y s 635 336 m -53 Y s 716 310 m -27 Y s 797 310 m -27 Y s 878 310 m -27 Y s 959 336 m
 -53 Y s 1040 310 m -27 Y s 1121 310 m -27 Y s 1202 310 m -27 Y s 1283 336 m -53 Y s 1364 310 m -27 Y s 1446 310 m -27 Y s 1527 310 m -27 Y s 1608 336 m -53 Y s 1689 310 m -27 Y s 1770 310 m -27 Y s 1851 310 m -27 Y s 1932 336 m -53 Y s 310 336 m -53
 Y s 1932 336 m -53 Y s 2013 310 m -27 Y s 2094 310 m -27 Y s
 gsave  2268 2180 0 0 C 223.738 185.816 t 0 r /Helvetica findfont 102.389 sf 0 0 m (200) show NC gr 
 gsave  2268 2180 0 0 C 549.864 185.816 t 0 r /Helvetica findfont 102.389 sf 0 0 m (400) show NC gr 
 gsave  2268 2180 0 0 C 872.199 185.816 t 0 r /Helvetica findfont 102.389 sf 0 0 m (600) show NC gr 
 gsave  2268 2180 0 0 C 1198.33 185.816 t 0 r /Helvetica findfont 102.389 sf 0 0 m (800) show NC gr 
 gsave  2268 2180 0 0 C 1490.32 185.816 t 0 r /Helvetica findfont 102.389 sf 0 0 m (1000) show NC gr 
 gsave  2268 2180 0 0 C 1816.45 185.816 t 0 r /Helvetica findfont 102.389 sf 0 0 m (1200) show NC gr  295 2028 m 1814 X s 310 1976 m 52 Y s 391 2002 m 26 Y s 472 2002 m 26 Y s 553 2002 m 26 Y s 635 1976 m 52 Y s 716 2002 m 26 Y s 797 2002 m 26 Y s
 878 2002 m 26 Y s 959 1976 m 52 Y s 1040 2002 m 26 Y s 1121 2002 m 26 Y s 1202 2002 m 26 Y s 1283 1976 m 52 Y s 1364 2002 m 26 Y s 1446 2002 m 26 Y s 1527 2002 m 26 Y s 1608 1976 m 52 Y s 1689 2002 m 26 Y s 1770 2002 m 26 Y s 1851 2002 m 26 Y s 1932
 1976 m 52 Y s 310 1976 m 52 Y s 1932 1976 m 52 Y s 2013 2002 m 26 Y s 2094 2002 m 26 Y s 295 283 m 1745 Y s
 gsave  2268 2180 0 0 C 102.389 1710.27 t 90 r /Helvetica findfont 102.389 sf 0 0 m (\) [GeV]) show NC gr 
 gsave  2268 2180 0 0 C 53.0904 1569.96 t 90 r /Helvetica findfont 68.259 sf 0 0 m (miss) show NC gr 
 gsave  2268 2180 0 0 C 155.479 1569.96 t 90 r /Helvetica findfont 68.259 sf 0 0 m (T) show NC gr 
 gsave  2268 2180 0 0 C 102.389 1471.36 t 90 r /Helvetica findfont 102.389 sf 0 0 m (\(E) show NC gr 
 gsave  2268 2180 0 0 C 102.389 1410.69 t 90 r /Symbol findfont 102.389 sf 0 0 m (s) show NC gr  349 493 m -54 X s 322 558 m -27 X s 322 623 m -27 X s 322 688 m -27 X s 349 753 m -54 X s 322 818 m -27 X s 322 883 m -27 X s 322 948 m -27 X s 349 1013
 m -54 X s 322 1078 m -27 X s 322 1142 m -27 X s 322 1207 m -27 X s 349 1272 m -54 X s 322 1337 m -27 X s 322 1402 m -27 X s 322 1467 m -27 X s 349 1532 m -54 X s 322 1597 m -27 X s 322 1662 m -27 X s 322 1727 m -27 X s 349 1792 m -54 X s 349 493 m
 -54 X s 322 428 m -27 X s 322 364 m -27 X s 322 299 m -27 X s 349 1792 m -54 X s 322 1857 m -27 X s 322 1921 m -27 X s 322 1986 m -27 X s
 gsave  2268 2180 0 0 C 170.648 458.852 t 0 r /Helvetica findfont 102.389 sf 0 0 m (20) show NC gr 
 gsave  2268 2180 0 0 C 170.648 712.928 t 0 r /Helvetica findfont 102.389 sf 0 0 m (22) show NC gr 
 gsave  2268 2180 0 0 C 166.855 974.587 t 0 r /Helvetica findfont 102.389 sf 0 0 m (24) show NC gr 
 gsave  2268 2180 0 0 C 170.648 1236.25 t 0 r /Helvetica findfont 102.389 sf 0 0 m (26) show NC gr 
 gsave  2268 2180 0 0 C 170.648 1494.11 t 0 r /Helvetica findfont 102.389 sf 0 0 m (28) show NC gr 
 gsave  2268 2180 0 0 C 170.648 1755.77 t 0 r /Helvetica findfont 102.389 sf 0 0 m (30) show NC gr  2109 283 m 1745 Y s 2055 493 m 54 X s 2082 558 m 27 X s 2082 623 m 27 X s 2082 688 m 27 X s 2055 753 m 54 X s 2082 818 m 27 X s 2082 883 m 27 X s 2082
 948 m 27 X s 2055 1013 m 54 X s 2082 1078 m 27 X s 2082 1142 m 27 X s 2082 1207 m 27 X s 2055 1272 m 54 X s 2082 1337 m 27 X s 2082 1402 m 27 X s 2082 1467 m 27 X s 2055 1532 m 54 X s 2082 1597 m 27 X s 2082 1662 m 27 X s 2082 1727 m 27 X s 2055
 1792 m 54 X s 2055 493 m 54 X s 2082 428 m 27 X s 2082 364 m 27 X s 2082 299 m 27 X s 2055 1792 m 54 X s 2082 1857 m 27 X s 2082 1921 m 27 X s 2082 1986 m 27 X s /w 24 def /w2 {w 2 div} def /w3 {w 3 div} def 446 499 573 727 716 958 872 1109 1034
 1220 1195 1294 1416 1498 1958 1831 8 { m20} R 0 0 1 c 9 lw 0.95 0.95 0.95 c black 0 0 1 c 399 564 m 17 22 d 16 21 d 16 20 d 16 21 d 17 20 d 16 19 d 16 20 d 16 19 d 16 18 d 17 19 d 16 18 d 16 18 d 16 18 d 16 17 d 17 17 d 16 18 d 16 16 d 16 17 d 17 17
 d 16 16 d 16 16 d 16 16 d 16 16 d 17 15 d 16 16 d 16 15 d 16 15 d 17 15 d 16 15 d 16 15 d 16 14 d 16 15 d 17 14 d 16 14 d 16 14 d 16 14 d 17 14 d 16 14 d 16 14 d 16 13 d 16 14 d 17 13 d 16 13 d 16 14 d 16 13 d 16 13 d 17 12 d 16 13 d 16 13 d s 1194
 1347 m 16 13 d 17 12 d 16 13 d 16 12 d 16 12 d 16 12 d 17 13 d 16 12 d 16 12 d 16 11 d 17 12 d 16 12 d 16 12 d 16 11 d 16 12 d 17 12 d 16 11 d 16 11 d 16 12 d 17 11 d 16 11 d 16 11 d 16 11 d 16 12 d 17 10 d 16 11 d 16 11 d 16 11 d 16 11 d 17 11 d 16
 10 d 16 11 d 16 10 d 17 11 d 16 10 d 16 11 d 16 10 d 16 10 d 17 11 d 16 10 d 16 10 d 16 10 d 17 10 d 16 10 d 16 11 d 16 9 d 16 10 d 17 10 d 16 10 d s 1989 1889 m 16 10 d s black 3 lw 446 511 m 59 Y s 438 570 m 16 X s 446 488 m -59 Y s 438 429 m 16 X
 s 573 738 m 8 Y s 566 746 m 15 X s 573 715 m -7 Y s 566 708 m 15 X s 716 969 m 4 Y s 709 973 m 15 X s 716 947 m -4 Y s 709 943 m 15 X s 872 1120 m 6 Y s 865 1126 m 15 X s 872 1097 m -6 Y s 865 1091 m 15 X s 1034 1231 m 12 Y s 1026 1243 m 15 X s 1034
 1209 m -12 Y s 1026 1197 m 15 X s 1195 1305 m 20 Y s 1187 1325 m 15 X s 1195 1283 m -20 Y s 1187 1263 m 15 X s 1416 1509 m 23 Y s 1408 1532 m 15 X s 1416 1486 m -23 Y s 1408 1463 m 15 X s 1958 1842 m 40 Y s 1950 1882 m 15 X s 1958 1819 m -40 Y s
 1950 1779 m 15 X s
 gr  gr showpage
end
%%EOF
