%!PS-Adobe-2.0 EPSF-2.0
%%BoundingBox:  0 0 567 545
%%Title: ./c2.eps: c2
%%Creator: ROOT Version 5.34/32
%%CreationDate: Fri Nov 24 11:06:00 2017
%%EndComments
%%BeginProlog
80 dict begin
/s {stroke} def /l {lineto} def /m {moveto} def /t {translate} def
/r {rotate} def /rl {roll}  def /R {repeat} def
/d {rlineto} def /rm {rmoveto} def /gr {grestore} def /f {eofill} def
/c {setrgbcolor} def /black {0 setgray} def /sd {setdash} def
/cl {closepath} def /sf {scalefont setfont} def /lw {setlinewidth} def
/box {m dup 0 exch d exch 0 d 0 exch neg d cl} def
/NC{systemdict begin initclip end}def/C{NC box clip newpath}def
/bl {box s} def /bf {gsave box gsave f grestore 1 lw [] 0 sd s grestore} def /Y { 0 exch d} def /X { 0 d} def 
/K {{pop pop 0 moveto} exch kshow} bind def
/ita {/ang 15 def gsave [1 0 ang dup sin exch cos div 1 0 0] concat} def 
/mp {newpath /y exch def /x exch def} def
/side {[w .77 mul w .23 mul] .385 w mul sd w 0 l currentpoint t -144 r} def
/mr {mp x y w2 0 360 arc} def /m24 {mr s} def /m20 {mr f} def
/mb {mp x y w2 add m w2 neg 0 d 0 w neg d w 0 d 0 w d cl} def
/mt {mp x y w2 add m w2 neg w neg d w 0 d cl} def
/m21 {mb f} def /m25 {mb s} def /m22 {mt f} def /m26{mt s} def
/m23 {mp x y w2 sub m w2 w d w neg 0 d cl f} def
/m27 {mp x y w2 add m w3 neg w2 neg d w3 w2 neg d w3 w2 d cl s} def
/m28 {mp x w2 sub y w2 sub w3 add m w3 0 d  0 w3 neg d w3 0 d 0 w3 d w3 0 d  0 w3 d w3 neg 0 d 0 w3 d w3 neg 0 d 0 w3 neg d w3 neg 0 d cl s } def
/m29 {mp gsave x w2 sub y w2 add w3 sub m currentpoint t 4 {side} repeat cl fill gr} def
/m30 {mp gsave x w2 sub y w2 add w3 sub m currentpoint t 4 {side} repeat cl s gr} def
/m31 {mp x y w2 sub m 0 w d x w2 sub y m w 0 d x w2 sub y w2 add m w w neg d x w2 sub y w2 sub m w w d s} def
/m32 {mp x y w2 sub m w2 w d w neg 0 d cl s} def
/m33 {mp x y w2 add m w3 neg w2 neg d w3 w2 neg d w3 w2 d cl f} def
/m34 {mp x w2 sub y w2 sub w3 add m w3 0 d  0 w3 neg d w3 0 d 0 w3 d w3 0 d  0 w3 d w3 neg 0 d 0 w3 d w3 neg 0 d 0 w3 neg d w3 neg 0 d cl f } def
/m2 {mp x y w2 sub m 0 w d x w2 sub y m w 0 d s} def
/m5 {mp x w2 sub y w2 sub m w w d x w2 sub y w2 add m w w neg d s} def
/reEncode {exch findfont dup length dict begin {1 index /FID eq  {pop pop} {def} ifelse } forall /Encoding exch def currentdict end dup /FontName get exch definefont pop } def [/Times-Bold /Times-Italic /Times-BoldItalic /Helvetica /Helvetica-Oblique
 /Helvetica-Bold /Helvetica-BoldOblique /Courier /Courier-Oblique /Courier-Bold /Courier-BoldOblique /Times-Roman /AvantGarde-Book /AvantGarde-BookOblique /AvantGarde-Demi /AvantGarde-DemiOblique /Bookman-Demi /Bookman-DemiItalic /Bookman-Light
 /Bookman-LightItalic /Helvetica-Narrow /Helvetica-Narrow-Bold /Helvetica-Narrow-BoldOblique /Helvetica-Narrow-Oblique /NewCenturySchlbk-Roman /NewCenturySchlbk-Bold /NewCenturySchlbk-BoldItalic /NewCenturySchlbk-Italic /Palatino-Bold
 /Palatino-BoldItalic /Palatino-Italic /Palatino-Roman ] {ISOLatin1Encoding reEncode } forall
%%EndProlog
%%BeginSetup
%%EndSetup
newpath  gsave  .25 .25 scale  gsave  0 0 t black[  ] 0 sd 3 lw 1 1 1 c 2268 2180 0 0 bf black 1 1 1 c 1588 1701 340 327 bf black 1588 1701 340 327 bl 1 1 1 c 1588 1701 340 327 bf black 1588 1701 340 327 bl 340 327 m 1588 X s
 gsave  2268 2180 0 0 C 1478.95 125.142 t 0 r /Helvetica findfont 102.389 sf 0 0 m (R\(vis,mis\)) show NC gr 
 gsave  2268 2180 0 0 C 1414.48 125.142 t 0 r /Symbol findfont 102.389 sf 0 0 m (D) show NC gr  340 373 m -46 Y s 380 350 m -23 Y s 420 350 m -23 Y s 459 350 m -23 Y s 499 350 m -23 Y s 539 373 m -46 Y s 578 350 m -23 Y s 618 350 m -23 Y s 658 350 m
 -23 Y s 697 350 m -23 Y s 737 373 m -46 Y s 777 350 m -23 Y s 816 350 m -23 Y s 856 350 m -23 Y s 896 350 m -23 Y s 935 373 m -46 Y s 975 350 m -23 Y s 1015 350 m -23 Y s 1054 350 m -23 Y s 1094 350 m -23 Y s 1134 373 m -46 Y s 1174 350 m -23 Y s
 1213 350 m -23 Y s 1253 350 m -23 Y s 1293 350 m -23 Y s 1332 373 m -46 Y s 1372 350 m -23 Y s 1412 350 m -23 Y s 1451 350 m -23 Y s 1491 350 m -23 Y s 1531 373 m -46 Y s 1570 350 m -23 Y s 1610 350 m -23 Y s 1650 350 m -23 Y s 1689 350 m -23 Y s
 1729 373 m -46 Y s 1769 350 m -23 Y s 1809 350 m -23 Y s 1848 350 m -23 Y s 1888 350 m -23 Y s 1928 373 m -46 Y s
 gsave  2268 2180 0 0 C 310.958 231.322 t 0 r /Helvetica findfont 102.389 sf 0 0 m (0) show NC gr 
 gsave  2268 2180 0 0 C 477.813 231.322 t 0 r /Helvetica findfont 102.389 sf 0 0 m (0.1) show NC gr 
 gsave  2268 2180 0 0 C 663.629 231.322 t 0 r /Helvetica findfont 102.389 sf 0 0 m (0.2) show NC gr 
 gsave  2268 2180 0 0 C 860.822 231.322 t 0 r /Helvetica findfont 102.389 sf 0 0 m (0.3) show NC gr 
 gsave  2268 2180 0 0 C 1061.81 231.322 t 0 r /Helvetica findfont 102.389 sf 0 0 m (0.4) show NC gr 
 gsave  2268 2180 0 0 C 1259 231.322 t 0 r /Helvetica findfont 102.389 sf 0 0 m (0.5) show NC gr 
 gsave  2268 2180 0 0 C 1456.19 231.322 t 0 r /Helvetica findfont 102.389 sf 0 0 m (0.6) show NC gr 
 gsave  2268 2180 0 0 C 1653.39 231.322 t 0 r /Helvetica findfont 102.389 sf 0 0 m (0.7) show NC gr 
 gsave  2268 2180 0 0 C 1854.37 231.322 t 0 r /Helvetica findfont 102.389 sf 0 0 m (0.8) show NC gr  340 327 m 1701 Y s
 gsave  2268 2180 0 0 C 94.8042 1926.42 t 90 r /Helvetica findfont 102.389 sf 0 0 m (R\)) show NC gr 
 gsave  2268 2180 0 0 C 91.012 1861.95 t 90 r /Symbol findfont 102.389 sf 0 0 m (D) show NC gr 
 gsave  2268 2180 0 0 C 91.012 1763.36 t 90 r /Helvetica findfont 102.389 sf 0 0 m (P\() show NC gr  393 327 m -53 X s 367 389 m -27 X s 367 451 m -27 X s 367 514 m -27 X s 393 576 m -53 X s 367 638 m -27 X s 367 700 m -27 X s 367 762 m -27 X s 393
 824 m -53 X s 367 887 m -27 X s 367 949 m -27 X s 367 1011 m -27 X s 393 1073 m -53 X s 367 1135 m -27 X s 367 1197 m -27 X s 367 1260 m -27 X s 393 1322 m -53 X s 367 1384 m -27 X s 367 1446 m -27 X s 367 1508 m -27 X s 393 1570 m -53 X s 367 1632
 m -27 X s 367 1695 m -27 X s 367 1757 m -27 X s 393 1819 m -53 X s 393 1819 m -53 X s 367 1881 m -27 X s 367 1943 m -27 X s 367 2005 m -27 X s
 gsave  2268 2180 0 0 C 273.036 291.997 t 0 r /Helvetica findfont 102.389 sf 0 0 m (0) show NC gr 
 gsave  2268 2180 0 0 C 128.934 538.488 t 0 r /Helvetica findfont 102.389 sf 0 0 m (0.02) show NC gr 
 gsave  2268 2180 0 0 C 128.934 788.771 t 0 r /Helvetica findfont 102.389 sf 0 0 m (0.04) show NC gr 
 gsave  2268 2180 0 0 C 128.934 1035.26 t 0 r /Helvetica findfont 102.389 sf 0 0 m (0.06) show NC gr 
 gsave  2268 2180 0 0 C 128.934 1285.55 t 0 r /Helvetica findfont 102.389 sf 0 0 m (0.08) show NC gr 
 gsave  2268 2180 0 0 C 204.777 1535.83 t 0 r /Helvetica findfont 102.389 sf 0 0 m (0.1) show NC gr 
 gsave  2268 2180 0 0 C 128.934 1782.32 t 0 r /Helvetica findfont 102.389 sf 0 0 m (0.12) show NC gr  0 0 1 c 9 lw black 0 0 1 c 340 343 m cl s 340 343 m 8 18 d 4 14 d 4 20 d 4 26 d 4 34 d 4 43 d 4 53 d 4 65 d 4 76 d 4 89 d 4 99 d 4 110 d 4 117 d 8
 244 d 4 119 d 4 113 d 4 102 d 2 46 d 2 43 d 2 38 d 1 34 d 2 29 d 2 24 d 2 20 d 2 14 d 2 10 d 2 4 d 2 -1 d 2 -6 d 2 -11 d 2 -16 d 2 -20 d 2 -25 d 2 -28 d 2 -32 d 4 -72 d 4 -82 d 8 -174 d 4 -87 d 4 -83 d 4 -77 d 4 -71 d 4 -64 d 4 -57 d 4 -50 d 4 -44 d
 4 -38 d 4 -34 d 8 -57 d 8 -47 d 8 -41 d 8 -36 d 8 -33 d 15 -58 d 16 -47 d 16 -38 d 16 -31 d 16 -25 d 16 -20 d 16 -17 d 16 -13 d 15 -11 d 16 -9 d 16 -8 d 16 -6 d 16 -6 d 16 -5 d 16 -4 d 16 -3 d 15 -3 d 16 -3 d 16 -2 d 16 -2 d 16 -2 d 16 -2 d 16 -1 d
 15 -1 d 16 -1 d 16 -1 d 16 -1 d 16 -1 d 16 -1 d 16 -1 d 16 X 15 -1 d 16 -1 d 16 X 16 -1 d 32 X 16 -1 d 31 X 16 -1 d 32 X 16 -1 d 63 X 16 -1 d 96 X 15 -1 d 159 X 16 -1 d 302 X 16 -1 d s black 3 lw 340 327 m 1588 X s 340 373 m -46 Y s 380 350 m -23 Y
 s 420 350 m -23 Y s 459 350 m -23 Y s 499 350 m -23 Y s 539 373 m -46 Y s 578 350 m -23 Y s 618 350 m -23 Y s 658 350 m -23 Y s 697 350 m -23 Y s 737 373 m -46 Y s 777 350 m -23 Y s 816 350 m -23 Y s 856 350 m -23 Y s 896 350 m -23 Y s 935 373 m -46
 Y s 975 350 m -23 Y s 1015 350 m -23 Y s 1054 350 m -23 Y s 1094 350 m -23 Y s 1134 373 m -46 Y s 1174 350 m -23 Y s 1213 350 m -23 Y s 1253 350 m -23 Y s 1293 350 m -23 Y s 1332 373 m -46 Y s 1372 350 m -23 Y s 1412 350 m -23 Y s 1451 350 m -23 Y s
 1491 350 m -23 Y s 1531 373 m -46 Y s 1570 350 m -23 Y s 1610 350 m -23 Y s 1650 350 m -23 Y s 1689 350 m -23 Y s 1729 373 m -46 Y s 1769 350 m -23 Y s 1809 350 m -23 Y s 1848 350 m -23 Y s 1888 350 m -23 Y s 1928 373 m -46 Y s 340 327 m 1701 Y s
 393 327 m -53 X s 367 389 m -27 X s 367 451 m -27 X s 367 514 m -27 X s 393 576 m -53 X s 367 638 m -27 X s 367 700 m -27 X s 367 762 m -27 X s 393 824 m -53 X s 367 887 m -27 X s 367 949 m -27 X s 367 1011 m -27 X s 393 1073 m -53 X s 367 1135 m
 -27 X s 367 1197 m -27 X s 367 1260 m -27 X s 393 1322 m -53 X s 367 1384 m -27 X s 367 1446 m -27 X s 367 1508 m -27 X s 393 1570 m -53 X s 367 1632 m -27 X s 367 1695 m -27 X s 367 1757 m -27 X s 393 1819 m -53 X s 393 1819 m -53 X s 367 1881 m
 -27 X s 367 1943 m -27 X s 367 2005 m -27 X s
 gr  gr showpage
end
%%EOF
