%!PS-Adobe-2.0 EPSF-2.0
%%BoundingBox:  0 0 567 266
%%Title: ./c2.eps: 
%%Creator: ROOT Version 5.34/32
%%CreationDate: Thu Nov 23 15:10:34 2017
%%EndComments
%%BeginProlog
80 dict begin
/s {stroke} def /l {lineto} def /m {moveto} def /t {translate} def
/r {rotate} def /rl {roll}  def /R {repeat} def
/d {rlineto} def /rm {rmoveto} def /gr {grestore} def /f {eofill} def
/c {setrgbcolor} def /black {0 setgray} def /sd {setdash} def
/cl {closepath} def /sf {scalefont setfont} def /lw {setlinewidth} def
/box {m dup 0 exch d exch 0 d 0 exch neg d cl} def
/NC{systemdict begin initclip end}def/C{NC box clip newpath}def
/bl {box s} def /bf {gsave box gsave f grestore 1 lw [] 0 sd s grestore} def /Y { 0 exch d} def /X { 0 d} def 
/K {{pop pop 0 moveto} exch kshow} bind def
/ita {/ang 15 def gsave [1 0 ang dup sin exch cos div 1 0 0] concat} def 
/mp {newpath /y exch def /x exch def} def
/side {[w .77 mul w .23 mul] .385 w mul sd w 0 l currentpoint t -144 r} def
/mr {mp x y w2 0 360 arc} def /m24 {mr s} def /m20 {mr f} def
/mb {mp x y w2 add m w2 neg 0 d 0 w neg d w 0 d 0 w d cl} def
/mt {mp x y w2 add m w2 neg w neg d w 0 d cl} def
/m21 {mb f} def /m25 {mb s} def /m22 {mt f} def /m26{mt s} def
/m23 {mp x y w2 sub m w2 w d w neg 0 d cl f} def
/m27 {mp x y w2 add m w3 neg w2 neg d w3 w2 neg d w3 w2 d cl s} def
/m28 {mp x w2 sub y w2 sub w3 add m w3 0 d  0 w3 neg d w3 0 d 0 w3 d w3 0 d  0 w3 d w3 neg 0 d 0 w3 d w3 neg 0 d 0 w3 neg d w3 neg 0 d cl s } def
/m29 {mp gsave x w2 sub y w2 add w3 sub m currentpoint t 4 {side} repeat cl fill gr} def
/m30 {mp gsave x w2 sub y w2 add w3 sub m currentpoint t 4 {side} repeat cl s gr} def
/m31 {mp x y w2 sub m 0 w d x w2 sub y m w 0 d x w2 sub y w2 add m w w neg d x w2 sub y w2 sub m w w d s} def
/m32 {mp x y w2 sub m w2 w d w neg 0 d cl s} def
/m33 {mp x y w2 add m w3 neg w2 neg d w3 w2 neg d w3 w2 d cl f} def
/m34 {mp x w2 sub y w2 sub w3 add m w3 0 d  0 w3 neg d w3 0 d 0 w3 d w3 0 d  0 w3 d w3 neg 0 d 0 w3 d w3 neg 0 d 0 w3 neg d w3 neg 0 d cl f } def
/m2 {mp x y w2 sub m 0 w d x w2 sub y m w 0 d s} def
/m5 {mp x w2 sub y w2 sub m w w d x w2 sub y w2 add m w w neg d s} def
/reEncode {exch findfont dup length dict begin {1 index /FID eq  {pop pop} {def} ifelse } forall /Encoding exch def currentdict end dup /FontName get exch definefont pop } def [/Times-Bold /Times-Italic /Times-BoldItalic /Helvetica /Helvetica-Oblique
 /Helvetica-Bold /Helvetica-BoldOblique /Courier /Courier-Oblique /Courier-Bold /Courier-BoldOblique /Times-Roman /AvantGarde-Book /AvantGarde-BookOblique /AvantGarde-Demi /AvantGarde-DemiOblique /Bookman-Demi /Bookman-DemiItalic /Bookman-Light
 /Bookman-LightItalic /Helvetica-Narrow /Helvetica-Narrow-Bold /Helvetica-Narrow-BoldOblique /Helvetica-Narrow-Oblique /NewCenturySchlbk-Roman /NewCenturySchlbk-Bold /NewCenturySchlbk-BoldItalic /NewCenturySchlbk-Italic /Palatino-Bold
 /Palatino-BoldItalic /Palatino-Italic /Palatino-Roman ] {ISOLatin1Encoding reEncode } forall
%%EndProlog
%%BeginSetup
%%EndSetup
newpath  gsave  .25 .25 scale  gsave  0 0 t black[  ] 0 sd 3 lw 1 1 1 c 2268 1064 0 0 bf black 1 1 1 c 1950 426 227 585 bf black 1950 426 227 585 bl 1 1 1 c 1950 426 227 585 bf black 1950 426 227 585 bl 227 585 m 1950 X s[ 4 8] 0 sd 227 1011 m -426 Y
 s 474 1011 m -426 Y s 721 1011 m -426 Y s 967 1011 m -426 Y s 1214 1011 m -426 Y s 1461 1011 m -426 Y s 1708 1011 m -426 Y s 1955 1011 m -426 Y s 1955 1011 m -426 Y s[  ] 0 sd 227 1011 m 1950 X s 227 585 m 426 Y s 2177 585 m 426 Y s 0 0 0.6 c 1 1 1
 c black 0 0 0.6 c 227 798 m 1950 X s black 227 585 m 1950 X s 227 613 m -28 Y s 276 599 m -14 Y s 326 599 m -14 Y s 375 599 m -14 Y s 424 599 m -14 Y s 474 613 m -28 Y s 523 599 m -14 Y s 572 599 m -14 Y s 622 599 m -14 Y s 671 599 m -14 Y s 721 613
 m -28 Y s 770 599 m -14 Y s 819 599 m -14 Y s 869 599 m -14 Y s 918 599 m -14 Y s 967 613 m -28 Y s 1017 599 m -14 Y s 1066 599 m -14 Y s 1115 599 m -14 Y s 1165 599 m -14 Y s 1214 613 m -28 Y s 1264 599 m -14 Y s 1313 599 m -14 Y s 1362 599 m -14 Y
 s 1412 599 m -14 Y s 1461 613 m -28 Y s 1510 599 m -14 Y s 1560 599 m -14 Y s 1609 599 m -14 Y s 1659 599 m -14 Y s 1708 613 m -28 Y s 1757 599 m -14 Y s 1807 599 m -14 Y s 1856 599 m -14 Y s 1905 599 m -14 Y s 1955 613 m -28 Y s 1955 613 m -28 Y s
 2004 599 m -14 Y s 2054 599 m -14 Y s 2103 599 m -14 Y s 2152 599 m -14 Y s 227 1011 m 1950 X s 227 984 m 27 Y s 276 998 m 13 Y s 326 998 m 13 Y s 375 998 m 13 Y s 424 998 m 13 Y s 474 984 m 27 Y s 523 998 m 13 Y s 572 998 m 13 Y s 622 998 m 13 Y s
 671 998 m 13 Y s 721 984 m 27 Y s 770 998 m 13 Y s 819 998 m 13 Y s 869 998 m 13 Y s 918 998 m 13 Y s 967 984 m 27 Y s 1017 998 m 13 Y s 1066 998 m 13 Y s 1115 998 m 13 Y s 1165 998 m 13 Y s 1214 984 m 27 Y s 1264 998 m 13 Y s 1313 998 m 13 Y s 1362
 998 m 13 Y s 1412 998 m 13 Y s 1461 984 m 27 Y s 1510 998 m 13 Y s 1560 998 m 13 Y s 1609 998 m 13 Y s 1659 998 m 13 Y s 1708 984 m 27 Y s 1757 998 m 13 Y s 1807 998 m 13 Y s 1856 998 m 13 Y s 1905 998 m 13 Y s 1955 984 m 27 Y s 1955 984 m 27 Y s
 2004 998 m 13 Y s 2054 998 m 13 Y s 2103 998 m 13 Y s 2152 998 m 13 Y s 227 585 m 426 Y s
 gsave  2268 1064 0 0 C 111.967 857.884 t 90 r /Symbol findfont 34.6939 sf 0 0 m (q) show NC gr 
 gsave  2268 1064 0 0 C 111.967 835.806 t 90 r /Symbol findfont 34.6939 sf 0 0 m (D) show NC gr 
 gsave  2268 1064 0 0 C 111.967 813.729 t 90 r /Helvetica findfont 34.6939 sf 0 0 m (\)/) show NC gr 
 gsave  2268 1064 0 0 C 124.582 801.113 t 90 r /Helvetica findfont 23.6549 sf 0 0 m (0) show NC gr 
 gsave  2268 1064 0 0 C 111.967 783.766 t 90 r /Symbol findfont 34.6939 sf 0 0 m (q) show NC gr 
 gsave  2268 1064 0 0 C 111.967 752.226 t 90 r /Helvetica findfont 34.6939 sf 0 0 m ( \255 ) show NC gr 
 gsave  2268 1064 0 0 C 111.967 734.879 t 90 r /Symbol findfont 34.6939 sf 0 0 m (q) show NC gr  0 lw 88 738 m -4 6 d s 84 744 m 4 7 d s
 gsave  2268 1064 0 0 C 111.967 723.84 t 90 r /Helvetica findfont 34.6939 sf 0 0 m (\() show NC gr  3 lw 254 585 m -27 X s 240 594 m -13 X s 240 602 m -13 X s 240 611 m -13 X s 240 620 m -13 X s 254 628 m -27 X s 240 637 m -13 X s 240 645 m -13 X s
 240 654 m -13 X s 240 662 m -13 X s 254 671 m -27 X s 240 679 m -13 X s 240 688 m -13 X s 240 696 m -13 X s 240 705 m -13 X s 254 713 m -27 X s 240 722 m -13 X s 240 730 m -13 X s 240 739 m -13 X s 240 747 m -13 X s 254 756 m -27 X s 240 764 m -13 X
 s 240 773 m -13 X s 240 781 m -13 X s 240 790 m -13 X s 254 798 m -27 X s 240 807 m -13 X s 240 815 m -13 X s 240 824 m -13 X s 240 832 m -13 X s 254 841 m -27 X s 240 849 m -13 X s 240 858 m -13 X s 240 866 m -13 X s 240 875 m -13 X s 254 884 m -27
 X s 240 892 m -13 X s 240 901 m -13 X s 240 909 m -13 X s 240 918 m -13 X s 254 926 m -27 X s 240 935 m -13 X s 240 943 m -13 X s 240 952 m -13 X s 240 960 m -13 X s 254 969 m -27 X s 240 977 m -13 X s 240 986 m -13 X s 240 994 m -13 X s 240 1003 m
 -13 X s 254 1011 m -27 X s
 gsave  2268 1064 0 0 C 167.161 574.026 t 0 r /Helvetica findfont 34.6939 sf 0 0 m (2.5) show NC gr 
 gsave  2268 1064 0 0 C 148.237 574.026 t 0 r /Symbol findfont 34.6939 sf 0 0 m (-) show NC gr 
 gsave  2268 1064 0 0 C 195.547 615.027 t 0 r /Helvetica findfont 34.6939 sf 0 0 m (2) show NC gr 
 gsave  2268 1064 0 0 C 176.623 615.027 t 0 r /Symbol findfont 34.6939 sf 0 0 m (-) show NC gr 
 gsave  2268 1064 0 0 C 167.161 659.183 t 0 r /Helvetica findfont 34.6939 sf 0 0 m (1.5) show NC gr 
 gsave  2268 1064 0 0 C 148.237 659.183 t 0 r /Symbol findfont 34.6939 sf 0 0 m (-) show NC gr 
 gsave  2268 1064 0 0 C 201.855 700.185 t 0 r /Helvetica findfont 34.6939 sf 0 0 m (1) show NC gr 
 gsave  2268 1064 0 0 C 182.931 700.185 t 0 r /Symbol findfont 34.6939 sf 0 0 m (-) show NC gr 
 gsave  2268 1064 0 0 C 167.161 744.341 t 0 r /Helvetica findfont 34.6939 sf 0 0 m (0.5) show NC gr 
 gsave  2268 1064 0 0 C 148.237 744.341 t 0 r /Symbol findfont 34.6939 sf 0 0 m (-) show NC gr 
 gsave  2268 1064 0 0 C 195.547 786.92 t 0 r /Helvetica findfont 34.6939 sf 0 0 m (0) show NC gr 
 gsave  2268 1064 0 0 C 167.161 829.499 t 0 r /Helvetica findfont 34.6939 sf 0 0 m (0.5) show NC gr 
 gsave  2268 1064 0 0 C 201.855 870.5 t 0 r /Helvetica findfont 34.6939 sf 0 0 m (1) show NC gr 
 gsave  2268 1064 0 0 C 167.161 914.656 t 0 r /Helvetica findfont 34.6939 sf 0 0 m (1.5) show NC gr 
 gsave  2268 1064 0 0 C 195.547 955.658 t 0 r /Helvetica findfont 34.6939 sf 0 0 m (2) show NC gr 
 gsave  2268 1064 0 0 C 167.161 999.814 t 0 r /Helvetica findfont 34.6939 sf 0 0 m (2.5) show NC gr  2177 585 m 426 Y s 2150 585 m 27 X s 2163 594 m 14 X s 2163 602 m 14 X s 2163 611 m 14 X s 2163 620 m 14 X s 2150 628 m 27 X s 2163 637 m 14 X s 2163
 645 m 14 X s 2163 654 m 14 X s 2163 662 m 14 X s 2150 671 m 27 X s 2163 679 m 14 X s 2163 688 m 14 X s 2163 696 m 14 X s 2163 705 m 14 X s 2150 713 m 27 X s 2163 722 m 14 X s 2163 730 m 14 X s 2163 739 m 14 X s 2163 747 m 14 X s 2150 756 m 27 X s
 2163 764 m 14 X s 2163 773 m 14 X s 2163 781 m 14 X s 2163 790 m 14 X s 2150 798 m 27 X s 2163 807 m 14 X s 2163 815 m 14 X s 2163 824 m 14 X s 2163 832 m 14 X s 2150 841 m 27 X s 2163 849 m 14 X s 2163 858 m 14 X s 2163 866 m 14 X s 2163 875 m 14 X
 s 2150 884 m 27 X s 2163 892 m 14 X s 2163 901 m 14 X s 2163 909 m 14 X s 2163 918 m 14 X s 2150 926 m 27 X s 2163 935 m 14 X s 2163 943 m 14 X s 2163 952 m 14 X s 2163 960 m 14 X s 2150 969 m 27 X s 2163 977 m 14 X s 2163 986 m 14 X s 2163 994 m 14
 X s 2163 1003 m 14 X s 2150 1011 m 27 X s 0.6 0.6 1 c 1950 341 227 628 bf black 1 0.6 0.6 c 1950 171 227 713 bf 0.6 0.6 0.6 c[ 20 20] 0 sd 6 lw 227 798 m 1950 X s black[  ] 0 sd 3 lw 227 585 m 1950 X s 227 613 m -28 Y s 276 599 m -14 Y s 326 599 m
 -14 Y s 375 599 m -14 Y s 424 599 m -14 Y s 474 613 m -28 Y s 523 599 m -14 Y s 572 599 m -14 Y s 622 599 m -14 Y s 671 599 m -14 Y s 721 613 m -28 Y s 770 599 m -14 Y s 819 599 m -14 Y s 869 599 m -14 Y s 918 599 m -14 Y s 967 613 m -28 Y s 1017
 599 m -14 Y s 1066 599 m -14 Y s 1115 599 m -14 Y s 1165 599 m -14 Y s 1214 613 m -28 Y s 1264 599 m -14 Y s 1313 599 m -14 Y s 1362 599 m -14 Y s 1412 599 m -14 Y s 1461 613 m -28 Y s 1510 599 m -14 Y s 1560 599 m -14 Y s 1609 599 m -14 Y s 1659
 599 m -14 Y s 1708 613 m -28 Y s 1757 599 m -14 Y s 1807 599 m -14 Y s 1856 599 m -14 Y s 1905 599 m -14 Y s 1955 613 m -28 Y s 1955 613 m -28 Y s 2004 599 m -14 Y s 2054 599 m -14 Y s 2103 599 m -14 Y s 2152 599 m -14 Y s 227 1011 m 1950 X s 227
 984 m 27 Y s 276 998 m 13 Y s 326 998 m 13 Y s 375 998 m 13 Y s 424 998 m 13 Y s 474 984 m 27 Y s 523 998 m 13 Y s 572 998 m 13 Y s 622 998 m 13 Y s 671 998 m 13 Y s 721 984 m 27 Y s 770 998 m 13 Y s 819 998 m 13 Y s 869 998 m 13 Y s 918 998 m 13 Y
 s 967 984 m 27 Y s 1017 998 m 13 Y s 1066 998 m 13 Y s 1115 998 m 13 Y s 1165 998 m 13 Y s 1214 984 m 27 Y s 1264 998 m 13 Y s 1313 998 m 13 Y s 1362 998 m 13 Y s 1412 998 m 13 Y s 1461 984 m 27 Y s 1510 998 m 13 Y s 1560 998 m 13 Y s 1609 998 m 13
 Y s 1659 998 m 13 Y s 1708 984 m 27 Y s 1757 998 m 13 Y s 1807 998 m 13 Y s 1856 998 m 13 Y s 1905 998 m 13 Y s 1955 984 m 27 Y s 1955 984 m 27 Y s 2004 998 m 13 Y s 2054 998 m 13 Y s 2103 998 m 13 Y s 2152 998 m 13 Y s 227 585 m 426 Y s 254 585 m
 -27 X s 240 594 m -13 X s 240 602 m -13 X s 240 611 m -13 X s 240 620 m -13 X s 254 628 m -27 X s 240 637 m -13 X s 240 645 m -13 X s 240 654 m -13 X s 240 662 m -13 X s 254 671 m -27 X s 240 679 m -13 X s 240 688 m -13 X s 240 696 m -13 X s 240 705
 m -13 X s 254 713 m -27 X s 240 722 m -13 X s 240 730 m -13 X s 240 739 m -13 X s 240 747 m -13 X s 254 756 m -27 X s 240 764 m -13 X s 240 773 m -13 X s 240 781 m -13 X s 240 790 m -13 X s 254 798 m -27 X s 240 807 m -13 X s 240 815 m -13 X s 240
 824 m -13 X s 240 832 m -13 X s 254 841 m -27 X s 240 849 m -13 X s 240 858 m -13 X s 240 866 m -13 X s 240 875 m -13 X s 254 884 m -27 X s 240 892 m -13 X s 240 901 m -13 X s 240 909 m -13 X s 240 918 m -13 X s 254 926 m -27 X s 240 935 m -13 X s
 240 943 m -13 X s 240 952 m -13 X s 240 960 m -13 X s 254 969 m -27 X s 240 977 m -13 X s 240 986 m -13 X s 240 994 m -13 X s 240 1003 m -13 X s 254 1011 m -27 X s 2177 585 m 426 Y s 2150 585 m 27 X s 2163 594 m 14 X s 2163 602 m 14 X s 2163 611 m
 14 X s 2163 620 m 14 X s 2150 628 m 27 X s 2163 637 m 14 X s 2163 645 m 14 X s 2163 654 m 14 X s 2163 662 m 14 X s 2150 671 m 27 X s 2163 679 m 14 X s 2163 688 m 14 X s 2163 696 m 14 X s 2163 705 m 14 X s 2150 713 m 27 X s 2163 722 m 14 X s 2163 730
 m 14 X s 2163 739 m 14 X s 2163 747 m 14 X s 2150 756 m 27 X s 2163 764 m 14 X s 2163 773 m 14 X s 2163 781 m 14 X s 2163 790 m 14 X s 2150 798 m 27 X s 2163 807 m 14 X s 2163 815 m 14 X s 2163 824 m 14 X s 2163 832 m 14 X s 2150 841 m 27 X s 2163
 849 m 14 X s 2163 858 m 14 X s 2163 866 m 14 X s 2163 875 m 14 X s 2150 884 m 27 X s 2163 892 m 14 X s 2163 901 m 14 X s 2163 909 m 14 X s 2163 918 m 14 X s 2150 926 m 27 X s 2163 935 m 14 X s 2163 943 m 14 X s 2163 952 m 14 X s 2163 960 m 14 X s
 2150 969 m 27 X s 2163 977 m 14 X s 2163 986 m 14 X s 2163 994 m 14 X s 2163 1003 m 14 X s 2150 1011 m 27 X s 9 lw 251 805 m 23 Y s 251 792 m -23 Y s 276 805 m 25 Y s 276 792 m -28 Y s 301 805 m 29 Y s 301 792 m -29 Y s 326 805 m 27 Y s 326 792 m
 -32 Y s 350 805 m 30 Y s 350 792 m -30 Y s 375 805 m 30 Y s 375 792 m -33 Y s 400 805 m 33 Y s 400 792 m -33 Y s 424 805 m 32 Y s 424 792 m -37 Y s 449 805 m 34 Y s 449 792 m -35 Y s 474 805 m 35 Y s 474 792 m -34 Y s 498 805 m 36 Y s 498 792 m -36
 Y s 523 805 m 35 Y s 523 792 m -38 Y s 548 805 m 34 Y s 548 792 m -40 Y s 572 805 m 37 Y s 572 792 m -38 Y s 597 805 m 39 Y s 597 792 m -39 Y s 622 805 m 39 Y s 622 792 m -39 Y s 646 805 m 40 Y s 646 792 m -39 Y s 671 805 m 42 Y s 671 792 m -39 Y s
 696 805 m 39 Y s 696 792 m -41 Y s 721 805 m 38 Y s 721 792 m -44 Y s 745 805 m 41 Y s 745 792 m -42 Y s 770 805 m 39 Y s 770 792 m -43 Y s 795 805 m 42 Y s 795 792 m -42 Y s 819 805 m 41 Y s 819 792 m -44 Y s 844 805 m 45 Y s 844 792 m -41 Y s 869
 805 m 42 Y s 869 792 m -45 Y s 893 805 m 45 Y s 893 792 m -48 Y s 918 805 m 45 Y s 918 792 m -48 Y s 943 805 m 45 Y s 943 792 m -49 Y s 967 805 m 44 Y s 967 792 m -50 Y s 992 805 m 48 Y s 992 792 m -46 Y s 1017 805 m 49 Y s 1017 792 m -49 Y s 1041
 805 m 49 Y s 1041 792 m -48 Y s 1066 805 m 51 Y s 1066 792 m -51 Y s 1091 805 m 51 Y s 1091 792 m -51 Y s 1115 805 m 52 Y s 1115 792 m -54 Y s 1140 805 m 52 Y s 1140 792 m -61 Y s 1165 805 m 58 Y s 1165 792 m -55 Y s 1190 805 m 57 Y s 1190 792 m -58
 Y s 1214 805 m 61 Y s 1214 792 m -56 Y s 1239 805 m 63 Y s 1239 792 m -55 Y s 1264 805 m 60 Y s 1264 792 m -61 Y s 1288 805 m 58 Y s 1288 792 m -63 Y s 1313 805 m 59 Y s 1313 792 m -63 Y s 1338 805 m 55 Y s 1338 792 m -68 Y s 1362 805 m 73 Y s 1362
 792 m -74 Y s 1387 805 m 76 Y s 1387 792 m -77 Y s 1412 805 m 77 Y s 1412 792 m -77 Y s 1436 805 m 78 Y s 1436 792 m -78 Y s 1461 805 m 78 Y s 1461 792 m -78 Y s 1486 805 m 78 Y s 1486 792 m -79 Y s 1510 805 m 78 Y s 1510 792 m -79 Y s 1535 805 m 78
 Y s 1535 792 m -79 Y s 1560 805 m 78 Y s 1560 792 m -79 Y s 1585 805 m 78 Y s 1585 792 m -79 Y s 1609 805 m 78 Y s 1609 792 m -79 Y s 1634 805 m 78 Y s 1634 792 m -79 Y s 1659 805 m 78 Y s 1659 792 m -79 Y s 1683 805 m 78 Y s 1683 792 m -79 Y s 1708
 805 m 78 Y s 1708 792 m -79 Y s 1733 805 m 79 Y s 1733 792 m -79 Y s 1757 805 m 79 Y s 1757 792 m -79 Y s 1782 805 m 79 Y s 1782 792 m -79 Y s 1807 805 m 79 Y s 1807 792 m -79 Y s 1831 805 m 79 Y s 1831 792 m -79 Y s 1856 805 m 79 Y s 1856 792 m -79
 Y s 1881 805 m 79 Y s 1881 792 m -79 Y s 1905 805 m 79 Y s 1905 792 m -79 Y s 1930 805 m 79 Y s 1930 792 m -79 Y s 1955 805 m 79 Y s 1955 792 m -79 Y s 1980 805 m 79 Y s 1980 792 m -79 Y s 2004 805 m 79 Y s 2004 792 m -79 Y s 2029 805 m 79 Y s 2029
 792 m -79 Y s 2054 805 m 79 Y s 2054 792 m -79 Y s 2078 805 m 79 Y s 2078 792 m -79 Y s 2103 805 m 79 Y s 2103 792 m -79 Y s 2128 805 m 79 Y s 2128 792 m -79 Y s 2152 805 m 79 Y s 2152 792 m -79 Y s 3 lw /w 13 def /w2 {w 2 div} def /w3 {w 3 div} def
 251 798 276 798 301 798 326 798 350 798 375 798 400 798 424 798 449 798 474 798 498 798 523 798 548 798 572 798 597 798 622 798 646 798 671 798 696 798 721 798 745 798 770 798 795 798 819 798 844 798 869 798 893 798 918 798 943 798 967 798 992 798
 1017 798 1041 798 1066 798 1091 798 1115 798 1140 798 1165 798 1190 798 1214 798 1239 798 1264 798 1288 798 1313 798 1338 798 1362 798 1387 798 1412 798 1436 798 1461 798 1486 798 1510 798 1535 798 1560 798 1585 798 1609 798 1634 798 1659 798 1683
 798 1708 798 1733 798 1757 798 1782 798 1807 798 1831 798 1856 798 1881 798 1905 798 1930 798 1955 798 1980 798 2004 798 2029 798 2054 798 2078 798 2103 798 2128 798 2152 798 78 { m21} R 9 lw
 gsave  2268 1064 0 0 C 244.434 564.564 t -74 r /Helvetica findfont 22.0779 sf 0 0 m (THEORY_ME) show NC gr 
 gsave  2268 1064 0 0 C 269.666 564.564 t -74 r /Helvetica findfont 22.0779 sf 0 0 m (THEORY_RADIATION) show NC gr 
 gsave  2268 1064 0 0 C 293.321 564.564 t -74 r /Helvetica findfont 22.0779 sf 0 0 m (NOS_SYS_LH4J) show NC gr 
 gsave  2268 1064 0 0 C 318.553 564.564 t -74 r /Helvetica findfont 22.0779 sf 0 0 m (JET_JES_FLAVOR_COMPOSITION) show NC gr 
 gsave  2268 1064 0 0 C 343.785 564.564 t -74 r /Helvetica findfont 22.0779 sf 0 0 m (JET_JER) show NC gr 
 gsave  2268 1064 0 0 C 367.439 564.564 t -74 r /Helvetica findfont 22.0779 sf 0 0 m (NOS_SYS_LH3J) show NC gr 
 gsave  2268 1064 0 0 C 392.671 564.564 t -74 r /Helvetica findfont 22.0779 sf 0 0 m (THEORY_SHOWER) show NC gr 
 gsave  2268 1064 0 0 C 417.903 564.564 t -74 r /Helvetica findfont 22.0779 sf 0 0 m (JET_JES_PILEUP_OFFSETNPV) show NC gr 
 gsave  2268 1064 0 0 C 441.558 564.564 t -74 r /Helvetica findfont 22.0779 sf 0 0 m (NOS_TOPFRAC_LH) show NC gr 
 gsave  2268 1064 0 0 C 466.79 564.564 t -74 r /Helvetica findfont 22.0779 sf 0 0 m (NOS_SYS_HH3J) show NC gr 
 gsave  2268 1064 0 0 C 492.022 564.564 t -74 r /Helvetica findfont 22.0779 sf 0 0 m (TAU_TES_INSITU) show NC gr 
 gsave  2268 1064 0 0 C 515.677 564.564 t -74 r /Helvetica findfont 22.0779 sf 0 0 m (JET_JES_EFFECTIVENP_1) show NC gr 
 gsave  2268 1064 0 0 C 540.909 564.564 t -74 r /Helvetica findfont 22.0779 sf 0 0 m (JET_JES_PILEUP_RHOTOPOLOGY) show NC gr 
 gsave  2268 1064 0 0 C 566.141 564.564 t -74 r /Helvetica findfont 22.0779 sf 0 0 m (JET_JES_ETAINTERCALIBRATION_MODELLING) show NC gr 
 gsave  2268 1064 0 0 C 589.796 564.564 t -74 r /Helvetica findfont 22.0779 sf 0 0 m (MET_SOFTTRK_RESOPARA) show NC gr 
 gsave  2268 1064 0 0 C 615.027 564.564 t -74 r /Helvetica findfont 22.0779 sf 0 0 m (MET_SOFTTRK_RESOPERP) show NC gr 
 gsave  2268 1064 0 0 C 640.259 564.564 t -74 r /Helvetica findfont 22.0779 sf 0 0 m (JET_JES_FLAVOR_RESPONSE) show NC gr 
 gsave  2268 1064 0 0 C 663.914 564.564 t -74 r /Helvetica findfont 22.0779 sf 0 0 m (JET_JES_PILEUP_PTTERM) show NC gr 
 gsave  2268 1064 0 0 C 689.146 564.564 t -74 r /Helvetica findfont 22.0779 sf 0 0 m (TAU_TES_MODEL) show NC gr 
 gsave  2268 1064 0 0 C 712.801 564.564 t -74 r /Helvetica findfont 22.0779 sf 0 0 m (MET_SOFTTRK_SCALE) show NC gr 
 gsave  2268 1064 0 0 C 738.033 564.564 t -74 r /Helvetica findfont 22.0779 sf 0 0 m (JET_JES_EFFECTIVENP_4) show NC gr 
 gsave  2268 1064 0 0 C 763.265 564.564 t -74 r /Helvetica findfont 22.0779 sf 0 0 m (JET_JES_PILEUP_OFFSETMU) show NC gr 
 gsave  2268 1064 0 0 C 786.92 564.564 t -74 r /Helvetica findfont 22.0779 sf 0 0 m (JET_JES_EFFECTIVENP_5) show NC gr 
 gsave  2268 1064 0 0 C 812.152 564.564 t -74 r /Helvetica findfont 22.0779 sf 0 0 m (JET_JES_EFFECTIVENP_2) show NC gr 
 gsave  2268 1064 0 0 C 837.383 564.564 t -74 r /Helvetica findfont 22.0779 sf 0 0 m (JET_JES_ETAINTERCALIBRATION_NONCLOSURE) show NC gr 
 gsave  2268 1064 0 0 C 861.038 564.564 t -74 r /Helvetica findfont 22.0779 sf 0 0 m (JET_JES_ETAINTERCALIBRATION_TOTALSTAT) show NC gr 
 gsave  2268 1064 0 0 C 886.27 564.564 t -74 r /Helvetica findfont 22.0779 sf 0 0 m (JET_JES_EFFECTIVENP_3) show NC gr 
 gsave  2268 1064 0 0 C 911.502 564.564 t -74 r /Helvetica findfont 22.0779 sf 0 0 m (JET_JES_EFFECTIVENP_7) show NC gr 
 gsave  2268 1064 0 0 C 935.157 564.564 t -74 r /Helvetica findfont 22.0779 sf 0 0 m (JET_JES_EFFECTIVENP_6) show NC gr 
 gsave  2268 1064 0 0 C 960.389 564.564 t -74 r /Helvetica findfont 22.0779 sf 0 0 m (TAU_TES_DETECTOR) show NC gr 
 gsave  2268 1064 0 0 C 985.621 564.564 t -74 r /Helvetica findfont 22.0779 sf 0 0 m (JET_JES_EFFECTIVENP_8RESTTERM) show NC gr 
 gsave  2268 1064 0 0 C 1009.28 564.564 t -74 r /Helvetica findfont 22.0779 sf 0 0 m (NOS_SYS_HH4J) show NC gr 
 gsave  2268 1064 0 0 C 1034.51 564.564 t -74 r /Helvetica findfont 22.0779 sf 0 0 m (JET_JES_PUNCHTHROUGH_MC15) show NC gr 
 gsave  2268 1064 0 0 C 1059.74 564.564 t -74 r /Helvetica findfont 22.0779 sf 0 0 m (JET_JES_BJES_RESPONSE) show NC gr 
 gsave  2268 1064 0 0 C 1083.39 564.564 t -74 r /Helvetica findfont 22.0779 sf 0 0 m (JET_JES_SINGLEPARTICLE_HIGHPT) show NC gr 
 gsave  2268 1064 0 0 C 1108.63 564.564 t -74 r /Helvetica findfont 22.0779 sf 0 0 m (MU_ES_SAGITTA_RHO) show NC gr 
 gsave  2268 1064 0 0 C 1133.86 564.564 t -74 r /Helvetica findfont 22.0779 sf 0 0 m (PU_PRW) show NC gr 
 gsave  2268 1064 0 0 C 1157.51 564.564 t -74 r /Helvetica findfont 22.0779 sf 0 0 m (MU_ES_ID) show NC gr 
 gsave  2268 1064 0 0 C 1182.75 564.564 t -74 r /Helvetica findfont 22.0779 sf 0 0 m (THEORY_MUR_MUF) show NC gr 
 gsave  2268 1064 0 0 C 1207.98 564.564 t -74 r /Helvetica findfont 22.0779 sf 0 0 m (MU_ES_SAGITTA_RESBIAS) show NC gr 
 gsave  2268 1064 0 0 C 1231.63 564.564 t -74 r /Helvetica findfont 22.0779 sf 0 0 m (EL_ES_SCALE) show NC gr 
 gsave  2268 1064 0 0 C 1256.86 564.564 t -74 r /Helvetica findfont 22.0779 sf 0 0 m (EL_ES_SCALE_EXTRA2015PRE) show NC gr 
 gsave  2268 1064 0 0 C 1282.1 564.564 t -74 r /Helvetica findfont 22.0779 sf 0 0 m (MU_ES_MS) show NC gr 
 gsave  2268 1064 0 0 C 1305.75 564.564 t -74 r /Helvetica findfont 22.0779 sf 0 0 m (MU_ES_SCALE) show NC gr 
 gsave  2268 1064 0 0 C 1330.98 564.564 t -74 r /Helvetica findfont 22.0779 sf 0 0 m (EL_ES_RES) show NC gr 
 gsave  2268 1064 0 0 C 1354.64 564.564 t -74 r /Helvetica findfont 22.0779 sf 0 0 m (TAU_EFF_JETID_TOTAL) show NC gr 
 gsave  2268 1064 0 0 C 1379.87 564.564 t -74 r /Helvetica findfont 22.0779 sf 0 0 m (BTAG_LIGHT_0) show NC gr 
 gsave  2268 1064 0 0 C 1405.1 564.564 t -74 r /Helvetica findfont 22.0779 sf 0 0 m (TAU_EFF_RECO_TOTAL) show NC gr 
 gsave  2268 1064 0 0 C 1428.76 564.564 t -74 r /Helvetica findfont 22.0779 sf 0 0 m (LuminosityUncCombined) show NC gr 
 gsave  2268 1064 0 0 C 1453.99 564.564 t -74 r /Helvetica findfont 22.0779 sf 0 0 m (BTAG_B_0) show NC gr 
 gsave  2268 1064 0 0 C 1479.22 564.564 t -74 r /Helvetica findfont 22.0779 sf 0 0 m (TAU_TRIGGER_STATDATA2016) show NC gr 
 gsave  2268 1064 0 0 C 1502.87 564.564 t -74 r /Helvetica findfont 22.0779 sf 0 0 m (THEORY_PDF) show NC gr 
 gsave  2268 1064 0 0 C 1528.11 564.564 t -74 r /Helvetica findfont 22.0779 sf 0 0 m (TAU_EFF_ELEOLR_TRUEHADTAU) show NC gr 
 gsave  2268 1064 0 0 C 1553.34 564.564 t -74 r /Helvetica findfont 22.0779 sf 0 0 m (TAU_TRIGGER_STATMC2016) show NC gr 
 gsave  2268 1064 0 0 C 1576.99 564.564 t -74 r /Helvetica findfont 22.0779 sf 0 0 m (TAU_TRIGGER_SYSTMC2016) show NC gr 
 gsave  2268 1064 0 0 C 1602.23 564.564 t -74 r /Helvetica findfont 22.0779 sf 0 0 m (TAU_TRIGGER_STATDATA2015) show NC gr 
 gsave  2268 1064 0 0 C 1627.46 564.564 t -74 r /Helvetica findfont 22.0779 sf 0 0 m (BTAG_C_1) show NC gr 
 gsave  2268 1064 0 0 C 1651.11 564.564 t -74 r /Helvetica findfont 22.0779 sf 0 0 m (BTAG_LIGHT_1) show NC gr 
 gsave  2268 1064 0 0 C 1676.34 564.564 t -74 r /Helvetica findfont 22.0779 sf 0 0 m (EL_ES_SCALE_E4SCINTILLATOR) show NC gr 
 gsave  2268 1064 0 0 C 1701.58 564.564 t -74 r /Helvetica findfont 22.0779 sf 0 0 m (TAU_EFF_ELEOLR_TRUEELECTRON) show NC gr 
 gsave  2268 1064 0 0 C 1725.23 564.564 t -74 r /Helvetica findfont 22.0779 sf 0 0 m (BTAG_C_0) show NC gr 
 gsave  2268 1064 0 0 C 1750.46 564.564 t -74 r /Helvetica findfont 22.0779 sf 0 0 m (BTAG_B_1) show NC gr 
 gsave  2268 1064 0 0 C 1775.69 564.564 t -74 r /Helvetica findfont 22.0779 sf 0 0 m (BTAG_LIGHT_2) show NC gr 
 gsave  2268 1064 0 0 C 1799.35 564.564 t -74 r /Helvetica findfont 22.0779 sf 0 0 m (JET_fJVTEFF) show NC gr 
 gsave  2268 1064 0 0 C 1824.58 564.564 t -74 r /Helvetica findfont 22.0779 sf 0 0 m (JET_JVTEFF) show NC gr 
 gsave  2268 1064 0 0 C 1849.81 564.564 t -74 r /Helvetica findfont 22.0779 sf 0 0 m (JET_JES_TILECORR) show NC gr 
 gsave  2268 1064 0 0 C 1873.47 564.564 t -74 r /Helvetica findfont 22.0779 sf 0 0 m (BTAG_C_2) show NC gr 
 gsave  2268 1064 0 0 C 1898.7 564.564 t -74 r /Helvetica findfont 22.0779 sf 0 0 m (TAU_EFF_RECO_HIGHPT) show NC gr 
 gsave  2268 1064 0 0 C 1923.93 564.564 t -74 r /Helvetica findfont 22.0779 sf 0 0 m (TAU_EFF_JETID_HIGHPT) show NC gr 
 gsave  2268 1064 0 0 C 1947.59 564.564 t -74 r /Helvetica findfont 22.0779 sf 0 0 m (TAU_TRIGGER_STATMC2015) show NC gr 
 gsave  2268 1064 0 0 C 1972.82 564.564 t -74 r /Helvetica findfont 22.0779 sf 0 0 m (EL_ES_SCALE_LARTEMPERATURE_EXTRA2015PRE) show NC gr 
 gsave  2268 1064 0 0 C 1996.47 564.564 t -74 r /Helvetica findfont 22.0779 sf 0 0 m (TAU_TRIGGER_SYSTMC2015) show NC gr 
 gsave  2268 1064 0 0 C 2021.71 564.564 t -74 r /Helvetica findfont 22.0779 sf 0 0 m (BTAG_EXTRAPOLATION_FROM_CHARM) show NC gr 
 gsave  2268 1064 0 0 C 2046.94 564.564 t -74 r /Helvetica findfont 22.0779 sf 0 0 m (BTAG_B_2) show NC gr 
 gsave  2268 1064 0 0 C 2070.59 564.564 t -74 r /Helvetica findfont 22.0779 sf 0 0 m (BTAG_LIGHT_3) show NC gr 
 gsave  2268 1064 0 0 C 2095.82 564.564 t -74 r /Helvetica findfont 22.0779 sf 0 0 m (BTAG_LIGHT_4) show NC gr 
 gsave  2268 1064 0 0 C 2121.06 564.564 t -74 r /Helvetica findfont 22.0779 sf 0 0 m (EL_ES_SCALE_LARTEMPERATURE_EXTRA2016PRE) show NC gr 
 gsave  2268 1064 0 0 C 2144.71 564.564 t -74 r /Helvetica findfont 22.0779 sf 0 0 m (BTAG_EXTRAPOLATION) show NC gr 
 gr  gr showpage
end
%%EOF
