%!PS-Adobe-2.0 EPSF-2.0
%%BoundingBox:  0 0 567 545
%%Title: eps/fcnc_yearAll_lh_4j_selMVA_MET_SOFTTRK_RESOPERP.eps: can_fcnc_yearAll_lh_4j_selMVA_AllMCmu1_MET_SOFTTRK_RESOPERP_mu1
%%Creator: ROOT Version 5.34/32
%%CreationDate: Thu Nov 23 15:26:50 2017
%%EndComments
%%BeginProlog
80 dict begin
/s {stroke} def /l {lineto} def /m {moveto} def /t {translate} def
/r {rotate} def /rl {roll}  def /R {repeat} def
/d {rlineto} def /rm {rmoveto} def /gr {grestore} def /f {eofill} def
/c {setrgbcolor} def /black {0 setgray} def /sd {setdash} def
/cl {closepath} def /sf {scalefont setfont} def /lw {setlinewidth} def
/box {m dup 0 exch d exch 0 d 0 exch neg d cl} def
/NC{systemdict begin initclip end}def/C{NC box clip newpath}def
/bl {box s} def /bf {gsave box gsave f grestore 1 lw [] 0 sd s grestore} def /Y { 0 exch d} def /X { 0 d} def 
/K {{pop pop 0 moveto} exch kshow} bind def
/ita {/ang 15 def gsave [1 0 ang dup sin exch cos div 1 0 0] concat} def 
/mp {newpath /y exch def /x exch def} def
/side {[w .77 mul w .23 mul] .385 w mul sd w 0 l currentpoint t -144 r} def
/mr {mp x y w2 0 360 arc} def /m24 {mr s} def /m20 {mr f} def
/mb {mp x y w2 add m w2 neg 0 d 0 w neg d w 0 d 0 w d cl} def
/mt {mp x y w2 add m w2 neg w neg d w 0 d cl} def
/m21 {mb f} def /m25 {mb s} def /m22 {mt f} def /m26{mt s} def
/m23 {mp x y w2 sub m w2 w d w neg 0 d cl f} def
/m27 {mp x y w2 add m w3 neg w2 neg d w3 w2 neg d w3 w2 d cl s} def
/m28 {mp x w2 sub y w2 sub w3 add m w3 0 d  0 w3 neg d w3 0 d 0 w3 d w3 0 d  0 w3 d w3 neg 0 d 0 w3 d w3 neg 0 d 0 w3 neg d w3 neg 0 d cl s } def
/m29 {mp gsave x w2 sub y w2 add w3 sub m currentpoint t 4 {side} repeat cl fill gr} def
/m30 {mp gsave x w2 sub y w2 add w3 sub m currentpoint t 4 {side} repeat cl s gr} def
/m31 {mp x y w2 sub m 0 w d x w2 sub y m w 0 d x w2 sub y w2 add m w w neg d x w2 sub y w2 sub m w w d s} def
/m32 {mp x y w2 sub m w2 w d w neg 0 d cl s} def
/m33 {mp x y w2 add m w3 neg w2 neg d w3 w2 neg d w3 w2 d cl f} def
/m34 {mp x w2 sub y w2 sub w3 add m w3 0 d  0 w3 neg d w3 0 d 0 w3 d w3 0 d  0 w3 d w3 neg 0 d 0 w3 d w3 neg 0 d 0 w3 neg d w3 neg 0 d cl f } def
/m2 {mp x y w2 sub m 0 w d x w2 sub y m w 0 d s} def
/m5 {mp x w2 sub y w2 sub m w w d x w2 sub y w2 add m w w neg d s} def
/reEncode {exch findfont dup length dict begin {1 index /FID eq  {pop pop} {def} ifelse } forall /Encoding exch def currentdict end dup /FontName get exch definefont pop } def [/Times-Bold /Times-Italic /Times-BoldItalic /Helvetica /Helvetica-Oblique
 /Helvetica-Bold /Helvetica-BoldOblique /Courier /Courier-Oblique /Courier-Bold /Courier-BoldOblique /Times-Roman /AvantGarde-Book /AvantGarde-BookOblique /AvantGarde-Demi /AvantGarde-DemiOblique /Bookman-Demi /Bookman-DemiItalic /Bookman-Light
 /Bookman-LightItalic /Helvetica-Narrow /Helvetica-Narrow-Bold /Helvetica-Narrow-BoldOblique /Helvetica-Narrow-Oblique /NewCenturySchlbk-Roman /NewCenturySchlbk-Bold /NewCenturySchlbk-BoldItalic /NewCenturySchlbk-Italic /Palatino-Bold
 /Palatino-BoldItalic /Palatino-Italic /Palatino-Roman ] {ISOLatin1Encoding reEncode } forall
%%EndProlog
%%BeginSetup
%%EndSetup
newpath  gsave  .25 .25 scale  gsave  0 0 t black[  ] 0 sd 3 lw 1 1 1 c 2268 2180 0 0 bf black 1 1 1 c 2268 1635 0 545 bf black 1 1 1 c 1814 1506 295 560 bf black 1814 1506 295 560 bl 0 0 0.6 c 6 lw 1 1 1 c black 0 0 0.6 c 295 1815 m 129 X -882 Y 130
 X -147 Y 130 X -58 Y 129 X -38 Y 130 X 2 Y 129 X -71 Y 130 X 2 Y 389 X -6 Y 129 X -10 Y 130 X -8 Y 129 X -27 Y 130 X s black 3 lw 295 560 m 1814 X s
 gsave  2268 1635 0 545 C 1547.2 386.801 t 0 r /Helvetica findfont 75.8874 sf 0 0 m (Final Distribution) show NC gr  360 599 m -39 Y s 424 579 m -19 Y s 489 579 m -19 Y s 554 579 m -19 Y s 619 599 m -39 Y s 684 579 m -19 Y s 748 579 m -19 Y s 813 579
 m -19 Y s 878 599 m -39 Y s 943 579 m -19 Y s 1008 579 m -19 Y s 1072 579 m -19 Y s 1137 599 m -39 Y s 1202 579 m -19 Y s 1267 579 m -19 Y s 1331 579 m -19 Y s 1396 599 m -39 Y s 1461 579 m -19 Y s 1526 579 m -19 Y s 1591 579 m -19 Y s 1655 599 m
 -39 Y s 1720 579 m -19 Y s 1785 579 m -19 Y s 1850 579 m -19 Y s 1915 599 m -39 Y s 360 599 m -39 Y s 295 579 m -19 Y s 1915 599 m -39 Y s 1979 579 m -19 Y s 2044 579 m -19 Y s
 gsave  2268 1635 0 545 C 333.711 489.19 t 0 r /Helvetica findfont 75.8874 sf 0 0 m (0) show NC gr 
 gsave  2268 1635 0 545 C 595.37 489.19 t 0 r /Helvetica findfont 75.8874 sf 0 0 m (2) show NC gr 
 gsave  2268 1635 0 545 C 853.238 489.19 t 0 r /Helvetica findfont 75.8874 sf 0 0 m (4) show NC gr 
 gsave  2268 1635 0 545 C 1111.11 489.19 t 0 r /Helvetica findfont 75.8874 sf 0 0 m (6) show NC gr 
 gsave  2268 1635 0 545 C 1372.76 489.19 t 0 r /Helvetica findfont 75.8874 sf 0 0 m (8) show NC gr 
 gsave  2268 1635 0 545 C 1611.67 489.19 t 0 r /Helvetica findfont 75.8874 sf 0 0 m (10) show NC gr 
 gsave  2268 1635 0 545 C 1869.54 489.19 t 0 r /Helvetica findfont 75.8874 sf 0 0 m (12) show NC gr  295 2066 m 1814 X s 360 2027 m 39 Y s 424 2046 m 20 Y s 489 2046 m 20 Y s 554 2046 m 20 Y s 619 2027 m 39 Y s 684 2046 m 20 Y s 748 2046 m 20 Y s 813
 2046 m 20 Y s 878 2027 m 39 Y s 943 2046 m 20 Y s 1008 2046 m 20 Y s 1072 2046 m 20 Y s 1137 2027 m 39 Y s 1202 2046 m 20 Y s 1267 2046 m 20 Y s 1331 2046 m 20 Y s 1396 2027 m 39 Y s 1461 2046 m 20 Y s 1526 2046 m 20 Y s 1591 2046 m 20 Y s 1655 2027
 m 39 Y s 1720 2046 m 20 Y s 1785 2046 m 20 Y s 1850 2046 m 20 Y s 1915 2027 m 39 Y s 360 2027 m 39 Y s 295 2046 m 20 Y s 1915 2027 m 39 Y s 1979 2046 m 20 Y s 2044 2046 m 20 Y s 295 560 m 1506 Y s
 gsave  2268 1635 0 545 C 94.8042 1642.01 t 90 r /Helvetica findfont 75.8874 sf 0 0 m (Events / \( 1 \)) show NC gr  357 560 m -62 X s 326 599 m -31 X s 326 638 m -31 X s 326 677 m -31 X s 326 716 m -31 X s 357 755 m -62 X s 326 795 m -31 X s 326 834
 m -31 X s 326 873 m -31 X s 326 912 m -31 X s 357 951 m -62 X s 326 990 m -31 X s 326 1029 m -31 X s 326 1068 m -31 X s 326 1108 m -31 X s 357 1147 m -62 X s 326 1186 m -31 X s 326 1225 m -31 X s 326 1264 m -31 X s 326 1303 m -31 X s 357 1342 m -62
 X s 326 1382 m -31 X s 326 1421 m -31 X s 326 1460 m -31 X s 326 1499 m -31 X s 357 1538 m -62 X s 326 1577 m -31 X s 326 1616 m -31 X s 326 1655 m -31 X s 326 1695 m -31 X s 357 1734 m -62 X s 326 1773 m -31 X s 326 1812 m -31 X s 326 1851 m -31 X
 s 326 1890 m -31 X s 357 1929 m -62 X s 357 1929 m -62 X s 326 1968 m -31 X s 326 2008 m -31 X s 326 2047 m -31 X s
 gsave  2268 1635 0 545 C 238.907 530.904 t 0 r /Helvetica findfont 75.8874 sf 0 0 m (0) show NC gr 
 gsave  2268 1635 0 545 C 155.479 728.096 t 0 r /Helvetica findfont 75.8874 sf 0 0 m (500) show NC gr 
 gsave  2268 1635 0 545 C 113.765 921.497 t 0 r /Helvetica findfont 75.8874 sf 0 0 m (1000) show NC gr 
 gsave  2268 1635 0 545 C 113.765 1118.69 t 0 r /Helvetica findfont 75.8874 sf 0 0 m (1500) show NC gr 
 gsave  2268 1635 0 545 C 113.765 1312.09 t 0 r /Helvetica findfont 75.8874 sf 0 0 m (2000) show NC gr 
 gsave  2268 1635 0 545 C 113.765 1509.28 t 0 r /Helvetica findfont 75.8874 sf 0 0 m (2500) show NC gr 
 gsave  2268 1635 0 545 C 113.765 1706.48 t 0 r /Helvetica findfont 75.8874 sf 0 0 m (3000) show NC gr 
 gsave  2268 1635 0 545 C 113.765 1899.88 t 0 r /Helvetica findfont 75.8874 sf 0 0 m (3500) show NC gr  2109 560 m 1506 Y s 2046 560 m 63 X s 2078 599 m 31 X s 2078 638 m 31 X s 2078 677 m 31 X s 2078 716 m 31 X s 2046 755 m 63 X s 2078 795 m 31 X s
 2078 834 m 31 X s 2078 873 m 31 X s 2078 912 m 31 X s 2046 951 m 63 X s 2078 990 m 31 X s 2078 1029 m 31 X s 2078 1068 m 31 X s 2078 1108 m 31 X s 2046 1147 m 63 X s 2078 1186 m 31 X s 2078 1225 m 31 X s 2078 1264 m 31 X s 2078 1303 m 31 X s 2046
 1342 m 63 X s 2078 1382 m 31 X s 2078 1421 m 31 X s 2078 1460 m 31 X s 2078 1499 m 31 X s 2046 1538 m 63 X s 2078 1577 m 31 X s 2078 1616 m 31 X s 2078 1655 m 31 X s 2078 1695 m 31 X s 2046 1734 m 63 X s 2078 1773 m 31 X s 2078 1812 m 31 X s 2078
 1851 m 31 X s 2078 1890 m 31 X s 2046 1929 m 63 X s 2046 1929 m 63 X s 2078 1968 m 31 X s 2078 2008 m 31 X s 2078 2047 m 31 X s 1 0 0 c[  12 12 ] 0 sd 6 lw 1 1 1 c black 1 0 0 c 295 1811 m 129 X -876 Y 130 X -151 Y 130 X -51 Y 129 X -38 Y 130 X -9 Y
 129 X -64 Y 130 X 2 Y 259 X -4 Y 130 X -4 Y 129 X -7 Y 130 X -11 Y 129 X -26 Y 130 X s 0 1 0 c 1 1 1 c black 0 1 0 c 295 1811 m 129 X -876 Y 130 X -151 Y 130 X -51 Y 129 X -38 Y 130 X -9 Y 129 X -64 Y 130 X 2 Y 259 X -4 Y 130 X -4 Y 129 X -7 Y 130 X
 -11 Y 129 X -26 Y 130 X s black
 gsave  2268 1635 0 545 C 1520.66 1937.8 t 0 r /Helvetica findfont 68.2986 sf 0 0 m (=1\) \2550.00, \2550.00%) show NC gr 
 gsave  2268 1635 0 545 C 1478.95 1937.8 t 0 r /Symbol findfont 68.2986 sf 0 0 m (m) show NC gr 
 gsave  2268 1635 0 545 C 337.503 1937.8 t 0 r /Helvetica findfont 68.2986 sf 0 0 m (MET_SOFTTRK_RESOPERP AllMC\() show NC gr 
 gsave  2268 1635 0 545 C 1915.04 1865.75 t 0 r /Helvetica-Bold findfont 75.8874 sf 0 0 m (=1\)) show NC gr 
 gsave  2268 1635 0 545 C 1869.54 1865.75 t 0 r /Symbol findfont 75.8874 sf 0 0 m (m) show NC gr 
 gsave  2268 1635 0 545 C 1630.63 1865.75 t 0 r /Helvetica-Bold findfont 75.8874 sf 0 0 m (AllMC\() show NC gr  0 0 0.6 c[  ] 0 sd 1536 1892 m 80 X s black
 gsave  2268 1635 0 545 C 1672.35 1748.19 t 0 r /Symbol findfont 75.8874 sf 0 0 m (s) show NC gr 
 gsave  2268 1635 0 545 C 1630.63 1748.19 t 0 r /Helvetica-Bold findfont 75.8874 sf 0 0 m (+) show NC gr  1 0 0 c[  12 12 ] 0 sd 1536 1772 m 80 X s black
 gsave  2268 1635 0 545 C 1653.39 1626.84 t 0 r /Symbol findfont 75.8874 sf 0 0 m (s) show NC gr 
 gsave  2268 1635 0 545 C 1630.63 1626.84 t 0 r /Helvetica-Bold findfont 75.8874 sf 0 0 m (\255) show NC gr  0 1 0 c 1536 1652 m 80 X s black[  ] 0 sd 3 lw 1 1 1 c 2268 545 0 0 bf black 1 1 1 c 1814 267 295 273 bf black 1814 267 295 273 bl 1 0 0 c 6
 lw 1 1 1 c black 1 0 0 c 295 414 m 129 X 18 Y 130 X -35 Y 130 X 80 Y 129 X 23 Y 130 X -178 Y 129 X 127 Y 130 X 16 Y 129 X -27 Y 130 X -100 Y 130 X 38 Y 129 X 123 Y 130 X -82 Y 129 X 74 Y 130 X s black 3 lw 295 273 m 1814 X s
 gsave  2268 545 0 0 C 1236.25 163.063 t 0 r /Helvetica findfont 57.1809 sf 0 0 m (obs_x_fcnc_yearAll_lh_4j_selMVA) show NC gr  360 286 m -13 Y s 424 279 m -6 Y s 489 279 m -6 Y s 554 279 m -6 Y s 619 286 m -13 Y s 684 279 m -6 Y s 748 279 m -6 Y s
 813 279 m -6 Y s 878 286 m -13 Y s 943 279 m -6 Y s 1008 279 m -6 Y s 1072 279 m -6 Y s 1137 286 m -13 Y s 1202 279 m -6 Y s 1267 279 m -6 Y s 1331 279 m -6 Y s 1396 286 m -13 Y s 1461 279 m -6 Y s 1526 279 m -6 Y s 1591 279 m -6 Y s 1655 286 m -13
 Y s 1720 279 m -6 Y s 1785 279 m -6 Y s 1850 279 m -6 Y s 1915 286 m -13 Y s 360 286 m -13 Y s 295 279 m -6 Y s 1915 286 m -13 Y s 1979 279 m -6 Y s 2044 279 m -6 Y s
 gsave  2268 545 0 0 C 341.295 231.322 t 0 r /Helvetica findfont 45.7447 sf 0 0 m (0) show NC gr 
 gsave  2268 545 0 0 C 602.955 231.322 t 0 r /Helvetica findfont 45.7447 sf 0 0 m (2) show NC gr 
 gsave  2268 545 0 0 C 860.822 231.322 t 0 r /Helvetica findfont 45.7447 sf 0 0 m (4) show NC gr 
 gsave  2268 545 0 0 C 1118.69 231.322 t 0 r /Helvetica findfont 45.7447 sf 0 0 m (6) show NC gr 
 gsave  2268 545 0 0 C 1380.35 231.322 t 0 r /Helvetica findfont 45.7447 sf 0 0 m (8) show NC gr 
 gsave  2268 545 0 0 C 1626.84 231.322 t 0 r /Helvetica findfont 45.7447 sf 0 0 m (10) show NC gr 
 gsave  2268 545 0 0 C 1884.71 231.322 t 0 r /Helvetica findfont 45.7447 sf 0 0 m (12) show NC gr  295 540 m 1814 X s 360 527 m 13 Y s 424 534 m 6 Y s 489 534 m 6 Y s 554 534 m 6 Y s 619 527 m 13 Y s 684 534 m 6 Y s 748 534 m 6 Y s 813 534 m 6 Y s
 878 527 m 13 Y s 943 534 m 6 Y s 1008 534 m 6 Y s 1072 534 m 6 Y s 1137 527 m 13 Y s 1202 534 m 6 Y s 1267 534 m 6 Y s 1331 534 m 6 Y s 1396 527 m 13 Y s 1461 534 m 6 Y s 1526 534 m 6 Y s 1591 534 m 6 Y s 1655 527 m 13 Y s 1720 534 m 6 Y s 1785 534
 m 6 Y s 1850 534 m 6 Y s 1915 527 m 13 Y s 360 527 m 13 Y s 295 534 m 6 Y s 1915 527 m 13 Y s 1979 534 m 6 Y s 2044 534 m 6 Y s 295 273 m 267 Y s
 gsave  2268 545 0 0 C 212.361 280.62 t 90 r /Helvetica findfont 45.7447 sf 0 0 m (Rel. unc. \(%\)) show NC gr  328 318 m -33 X s 328 421 m -33 X s 328 523 m -33 X s 328 318 m -33 X s 328 523 m -33 X s
 gsave  2268 545 0 0 C 254.075 299.581 t 0 r /Helvetica findfont 45.7447 sf 0 0 m (5) show NC gr 
 gsave  2268 545 0 0 C 227.53 299.581 t 0 r /Symbol findfont 45.7447 sf 0 0 m (-) show NC gr 
 gsave  2268 545 0 0 C 254.075 401.97 t 0 r /Helvetica findfont 45.7447 sf 0 0 m (0) show NC gr 
 gsave  2268 545 0 0 C 254.075 508.151 t 0 r /Helvetica findfont 45.7447 sf 0 0 m (5) show NC gr  2109 273 m 267 Y s 2076 318 m 33 X s 2076 421 m 33 X s 2076 523 m 33 X s 2076 318 m 33 X s 2076 523 m 33 X s 0 1 0 c 6 lw 1 1 1 c black 0 1 0 c 295 414
 m 129 X 18 Y 130 X -35 Y 130 X 80 Y 129 X 23 Y 130 X -178 Y 129 X 127 Y 130 X 16 Y 129 X -27 Y 130 X -100 Y 130 X 38 Y 129 X 123 Y 130 X -82 Y 129 X 74 Y 130 X s 0 0 0.6 c 295 421 m 1814 X s
 gr  gr showpage
end
%%EOF
