\relax 
\providecommand\hyper@newdestlabel[2]{}
\@writefile{toc}{\contentsline {section}{\numberline {4}Blinding Strategy}{9}{section.4}}
\newlabel{sec:blind}{{4}{9}{Blinding Strategy}{section.4}{}}
\@writefile{lot}{\contentsline {table}{\numberline {3}{\ignorespaces The upper cuts on the significance per bin for different categories applied for blinding. \relax }}{9}{table.caption.3}}
\newlabel{tab:blinding}{{3}{9}{The upper cuts on the significance per bin for different categories applied for blinding. \relax }{table.caption.3}{}}
\@writefile{toc}{\contentsline {section}{\numberline {5}Background Estimation}{9}{section.5}}
\newlabel{sec:background}{{5}{9}{Background Estimation}{section.5}{}}
\@writefile{lof}{\contentsline {figure}{\numberline {1}{\ignorespaces  The distributions of $\tau $ $\ensuremath  {p_{\text  {T}}}\xspace  $ in the $\ensuremath  {\tau _\text  {lep}}\xspace  {}\ensuremath  {\tau _\text  {had}}\xspace  \xspace  $ 3-jet (a), $\ensuremath  {\tau _\text  {lep}}\xspace  {}\ensuremath  {\tau _\text  {had}}\xspace  \xspace  $ 4-jet (b), $\ensuremath  {\tau _\text  {had}}\xspace  {}\ensuremath  {\tau _\text  {had}}\xspace  \xspace  $ 3-jet (c) and $\ensuremath  {\tau _\text  {had}}\xspace  {}\ensuremath  {\tau _\text  {had}}\xspace  \xspace  $ 4-jet (d) FRs, to illustrate the background composition. Data is more than the prediction because the $W$+jets and QCD backgrounds are missing. \relax }}{10}{figure.caption.4}}
\newlabel{fig:os_pre}{{1}{10}{The distributions of $\tau $ $\pt $ in the $\tlhad $ 3-jet (a), $\tlhad $ 4-jet (b), $\thadhad $ 3-jet (c) and $\thadhad $ 4-jet (d) FRs, to illustrate the background composition. Data is more than the prediction because the $W$+jets and QCD backgrounds are missing. \relax }{figure.caption.4}{}}
\@writefile{lof}{\contentsline {figure}{\numberline {2}{\ignorespaces  The distributions of $\tau $ $\ensuremath  {p_{\text  {T}}}\xspace  $ showing the composition of the fake background in the $\ensuremath  {\tau _\text  {lep}}\xspace  {}\ensuremath  {\tau _\text  {had}}\xspace  \xspace  $ 3-jet (a, b) and 4-jet (c, d) categories. The default compositions are (a, c), and the systematical ones are (b, d). \relax }}{11}{figure.caption.5}}
\newlabel{fig:lh_nos_pre}{{2}{11}{The distributions of $\tau $ $\pt $ showing the composition of the fake background in the $\tlhad $ 3-jet (a, b) and 4-jet (c, d) categories. The default compositions are (a, c), and the systematical ones are (b, d). \relax }{figure.caption.5}{}}
\@writefile{lof}{\contentsline {figure}{\numberline {3}{\ignorespaces  The distributions of $\tau $ $\ensuremath  {p_{\text  {T}}}\xspace  $ showing the composition of the fake background in the $\ensuremath  {\tau _\text  {had}}\xspace  {}\ensuremath  {\tau _\text  {had}}\xspace  \xspace  $ 3-jet (a, b) and 4-jet (c, d) categories. The default compositions are (a, c), and the systematical ones are (b, d). \relax }}{12}{figure.caption.6}}
\newlabel{fig:hh_nos_pre}{{3}{12}{The distributions of $\tau $ $\pt $ showing the composition of the fake background in the $\thadhad $ 3-jet (a, b) and 4-jet (c, d) categories. The default compositions are (a, c), and the systematical ones are (b, d). \relax }{figure.caption.6}{}}
\@writefile{lof}{\contentsline {figure}{\numberline {4}{\ignorespaces  The origins of fake $\tau $'s in the top fake MC in the $\ensuremath  {\tau _\text  {lep}}\xspace  {}\ensuremath  {\tau _\text  {had}}\xspace  \xspace  $ 3-jet (a, b) and 4-jet (c, d) categories, in the nominal FR and nOS regions (a, c) and their corresponding CR regions (b, d). \relax }}{13}{figure.caption.7}}
\newlabel{fig:lh_fake_comp}{{4}{13}{The origins of fake $\tau $'s in the top fake MC in the $\tlhad $ 3-jet (a, b) and 4-jet (c, d) categories, in the nominal FR and nOS regions (a, c) and their corresponding CR regions (b, d). \relax }{figure.caption.7}{}}
\@writefile{lof}{\contentsline {figure}{\numberline {5}{\ignorespaces  The origins of fake $\tau $'s in the top fake MC in the $\ensuremath  {\tau _\text  {had}}\xspace  {}\ensuremath  {\tau _\text  {had}}\xspace  \xspace  $ 3-jet (a, b) and 4-jet (c, d) categories, in the nominal FR and nOS regions (a, c) and their corresponding CR regions (b, d). \relax }}{14}{figure.caption.8}}
\newlabel{fig:hh_fake_comp}{{5}{14}{The origins of fake $\tau $'s in the top fake MC in the $\thadhad $ 3-jet (a, b) and 4-jet (c, d) categories, in the nominal FR and nOS regions (a, c) and their corresponding CR regions (b, d). \relax }{figure.caption.8}{}}
\@writefile{lof}{\contentsline {figure}{\numberline {6}{\ignorespaces  The distributions of $\tau $ $\ensuremath  {p_{\text  {T}}}\xspace  $ (a), subleading lepton $\ensuremath  {p_{\text  {T}}}\xspace  $ (b), jet multiplicity (c) and $\ensuremath  {E_{\text  {T}}^{\text  {miss}}}\xspace  $ (d) in the $2l+\tau _{\text  {had}}$ validation region. \relax }}{15}{figure.caption.9}}
\newlabel{fig:llh_val}{{6}{15}{The distributions of $\tau $ $\pt $ (a), subleading lepton $\pt $ (b), jet multiplicity (c) and $\met $ (d) in the $2l+\tau _{\text {had}}$ validation region. \relax }{figure.caption.9}{}}
\@writefile{lof}{\contentsline {figure}{\numberline {7}{\ignorespaces  The distributions of subleading $\ensuremath  {\tau _\text  {had}}\xspace  $ $\ensuremath  {p_{\text  {T}}}\xspace  $ in the $tlhad$ 3-jet (a1, b1) and 4-jet (a2, b2), $\ensuremath  {\tau _\text  {had}}\xspace  {}\ensuremath  {\tau _\text  {had}}\xspace  \xspace  $ 3-jet (c1, d1) and 4-jet (c2, d2) FRs, for 1-prong (left column) and 3-prong (right column) $\ensuremath  {\tau _\text  {had}}\xspace  $ separately. \relax }}{16}{figure.caption.10}}
\newlabel{fig:ptL2_prong}{{7}{16}{The distributions of subleading $\tauhad $ $\pt $ in the $tlhad$ 3-jet (a1, b1) and 4-jet (a2, b2), $\thadhad $ 3-jet (c1, d1) and 4-jet (c2, d2) FRs, for 1-prong (left column) and 3-prong (right column) $\tauhad $ separately. \relax }{figure.caption.10}{}}
\@writefile{lof}{\contentsline {figure}{\numberline {8}{\ignorespaces  The distributions of $p_{\text  {T}}^{\text  {lep}}$ (a), $p_{\text  {T}}^{\text  {had}}$ (b), $\ensuremath  {E_{\text  {T}}^{\text  {miss}}}\xspace  $ (c), $\ensuremath  {E_{\text  {T}}^{\text  {miss}}}\xspace  $ centrality (d), $x_1^{\text  {fit}}$ (e), $x_2^{\text  {fit}}$ (f), $m_{\text  {miss}}^{\text  {fit}}$ (g), $m_{\tau \tau }^{\text  {fit}}$ (h) and $\ensuremath  {E_{\text  {T,proj}}^{\text  {miss}}}\xspace  $ (i) in the 3-jet FR in the $\ensuremath  {\tau _\text  {lep}}\xspace  {}\ensuremath  {\tau _\text  {had}}\xspace  \xspace  $ channel. The errors are statistical only. Some bins have data blinded according to Sec. \ref  {sec:blind}.\relax }}{17}{figure.caption.11}}
\newlabel{fig:lh_3j_os_1}{{8}{17}{The distributions of $p_{\text {T}}^{\text {lep}}$ (a), $p_{\text {T}}^{\text {had}}$ (b), $\met $ (c), $\met $ centrality (d), $x_1^{\text {fit}}$ (e), $x_2^{\text {fit}}$ (f), $m_{\text {miss}}^{\text {fit}}$ (g), $m_{\tau \tau }^{\text {fit}}$ (h) and $\metproj $ (i) in the 3-jet FR in the $\tlhad $ channel. The errors are statistical only. Some bins have data blinded according to Sec. \ref {sec:blind}.\relax }{figure.caption.11}{}}
\@writefile{lof}{\contentsline {figure}{\numberline {9}{\ignorespaces  The distributions of $\ensuremath  {E_{\text  {T,perp}}^{\text  {miss}}}\xspace  $ (a), $m_{\tau \tau q}$ (b), $m_{\text  {T,lep}}^{\text  {fit}}$ (c), $m_{\text  {T,had}}^{\text  {fit}}$ (d), $m_{\text  {T,lep}}$ (e), $m_{\tau j}$ (f), $m_{lj}$ (g), $m_{bj_1}$ (h) and $m(\tau _{\text  {lep}})$ (i) in the 3-jet FR in the $\ensuremath  {\tau _\text  {lep}}\xspace  {}\ensuremath  {\tau _\text  {had}}\xspace  \xspace  $ channel. The errors are statistical only. Some bins have data blinded according to Sec. \ref  {sec:blind}.\relax }}{18}{figure.caption.12}}
\newlabel{fig:lh_3j_os_2}{{9}{18}{The distributions of $\metperp $ (a), $m_{\tau \tau q}$ (b), $m_{\text {T,lep}}^{\text {fit}}$ (c), $m_{\text {T,had}}^{\text {fit}}$ (d), $m_{\text {T,lep}}$ (e), $m_{\tau j}$ (f), $m_{lj}$ (g), $m_{bj_1}$ (h) and $m(\tau _{\text {lep}})$ (i) in the 3-jet FR in the $\tlhad $ channel. The errors are statistical only. Some bins have data blinded according to Sec. \ref {sec:blind}.\relax }{figure.caption.12}{}}
\@writefile{lof}{\contentsline {figure}{\numberline {10}{\ignorespaces  The distributions of $p_{\text  {T}}^{\text  {lep}}$ (a), $p_{\text  {T}}^{\text  {had}}$ (b), $\ensuremath  {E_{\text  {T}}^{\text  {miss}}}\xspace  $ (c), $\ensuremath  {E_{\text  {T}}^{\text  {miss}}}\xspace  $ centrality (d), $x_1^{\text  {fit}}$ (e), $x_2^{\text  {fit}}$ (f), $m_{\text  {miss}}^{\text  {fit}}$ (g), $m_{\tau \tau }^{\text  {fit}}$ (h) and $\ensuremath  {E_{\text  {T,proj}}^{\text  {miss}}}\xspace  $ (i) in the 3-jet CR in the $\ensuremath  {\tau _\text  {lep}}\xspace  {}\ensuremath  {\tau _\text  {had}}\xspace  \xspace  $ channel. The errors are statistical only. \relax }}{19}{figure.caption.13}}
\newlabel{fig:lh_3j_nos_1}{{10}{19}{The distributions of $p_{\text {T}}^{\text {lep}}$ (a), $p_{\text {T}}^{\text {had}}$ (b), $\met $ (c), $\met $ centrality (d), $x_1^{\text {fit}}$ (e), $x_2^{\text {fit}}$ (f), $m_{\text {miss}}^{\text {fit}}$ (g), $m_{\tau \tau }^{\text {fit}}$ (h) and $\metproj $ (i) in the 3-jet CR in the $\tlhad $ channel. The errors are statistical only. \relax }{figure.caption.13}{}}
\@writefile{lof}{\contentsline {figure}{\numberline {11}{\ignorespaces  The distributions of $\ensuremath  {E_{\text  {T,perp}}^{\text  {miss}}}\xspace  $ (a), $m_{\tau \tau q}$ (b), $m_{\text  {T,lep}}^{\text  {fit}}$ (c), $m_{\text  {T,had}}^{\text  {fit}}$ (d), $m_{\text  {T,lep}}$ (e), $m_{\tau j}$ (f), $m_{lj}$ (g), $m_{bj_1}$ (h) and $m(\tau _{\text  {lep}})$ (i) in the 3-jet CR in the $\ensuremath  {\tau _\text  {lep}}\xspace  {}\ensuremath  {\tau _\text  {had}}\xspace  \xspace  $ channel. The errors are statistical only. \relax }}{20}{figure.caption.14}}
\newlabel{fig:lh_3j_nos_2}{{11}{20}{The distributions of $\metperp $ (a), $m_{\tau \tau q}$ (b), $m_{\text {T,lep}}^{\text {fit}}$ (c), $m_{\text {T,had}}^{\text {fit}}$ (d), $m_{\text {T,lep}}$ (e), $m_{\tau j}$ (f), $m_{lj}$ (g), $m_{bj_1}$ (h) and $m(\tau _{\text {lep}})$ (i) in the 3-jet CR in the $\tlhad $ channel. The errors are statistical only. \relax }{figure.caption.14}{}}
\@writefile{lof}{\contentsline {figure}{\numberline {12}{\ignorespaces  The distributions of $p_{\text  {T}}^{\text  {lep}}$ (a), $p_{\text  {T}}^{\text  {had}}$ (b), $\ensuremath  {E_{\text  {T}}^{\text  {miss}}}\xspace  $ (c), $\ensuremath  {E_{\text  {T}}^{\text  {miss}}}\xspace  $ centrality (d), $x_1^{\text  {fit}}$ (e), $x_2^{\text  {fit}}$ (f), $m_{\text  {miss}}^{\text  {fit}}$ (g), $m_{\tau \tau }^{\text  {fit}}$ (h) and $\ensuremath  {E_{\text  {T,proj}}^{\text  {miss}}}\xspace  $ (i) in the 4-jet FR in the $\ensuremath  {\tau _\text  {lep}}\xspace  {}\ensuremath  {\tau _\text  {had}}\xspace  \xspace  $ channel. The errors are statistical only. Some bins have data blinded according to Sec. \ref  {sec:blind}. \relax }}{21}{figure.caption.15}}
\newlabel{fig:lh_4j_os_1}{{12}{21}{The distributions of $p_{\text {T}}^{\text {lep}}$ (a), $p_{\text {T}}^{\text {had}}$ (b), $\met $ (c), $\met $ centrality (d), $x_1^{\text {fit}}$ (e), $x_2^{\text {fit}}$ (f), $m_{\text {miss}}^{\text {fit}}$ (g), $m_{\tau \tau }^{\text {fit}}$ (h) and $\metproj $ (i) in the 4-jet FR in the $\tlhad $ channel. The errors are statistical only. Some bins have data blinded according to Sec. \ref {sec:blind}. \relax }{figure.caption.15}{}}
\@writefile{lof}{\contentsline {figure}{\numberline {13}{\ignorespaces  The distributions of $\ensuremath  {E_{\text  {T,perp}}^{\text  {miss}}}\xspace  $ (a), $m_{\tau \tau q}$ (b), $m_{\text  {T,lep}}^{\text  {fit}}$ (c), $m_{\text  {T,had}}^{\text  {fit}}$ (d), $m_{\text  {T,lep}}$ (e), $m_{\tau j}$ (f), $m_{lj}$ (g), $m_{bj_1}$ (h), $m(\tau _{\text  {lep}})$ (i), $m_{bjj}$ (j), $N_{\text  {jet30}}$ (k) and $H_{\text  {T}}$ (l) in the 4-jet FR in the $\ensuremath  {\tau _\text  {lep}}\xspace  {}\ensuremath  {\tau _\text  {had}}\xspace  \xspace  $ channel. The errors are statistical only. Some bins have data blinded according to Sec. \ref  {sec:blind}. \relax }}{22}{figure.caption.16}}
\newlabel{fig:lh_4j_os_2}{{13}{22}{The distributions of $\metperp $ (a), $m_{\tau \tau q}$ (b), $m_{\text {T,lep}}^{\text {fit}}$ (c), $m_{\text {T,had}}^{\text {fit}}$ (d), $m_{\text {T,lep}}$ (e), $m_{\tau j}$ (f), $m_{lj}$ (g), $m_{bj_1}$ (h), $m(\tau _{\text {lep}})$ (i), $m_{bjj}$ (j), $N_{\text {jet30}}$ (k) and $H_{\text {T}}$ (l) in the 4-jet FR in the $\tlhad $ channel. The errors are statistical only. Some bins have data blinded according to Sec. \ref {sec:blind}. \relax }{figure.caption.16}{}}
\@writefile{lof}{\contentsline {figure}{\numberline {14}{\ignorespaces  The distributions of $p_{\text  {T}}^{\text  {lep}}$ (a), $p_{\text  {T}}^{\text  {had}}$ (b), $\ensuremath  {E_{\text  {T}}^{\text  {miss}}}\xspace  $ (c), $\ensuremath  {E_{\text  {T}}^{\text  {miss}}}\xspace  $ centrality (d), $x_1^{\text  {fit}}$ (e), $x_2^{\text  {fit}}$ (f), $m_{\text  {miss}}^{\text  {fit}}$ (g), $m_{\tau \tau }^{\text  {fit}}$ (h) and $\ensuremath  {E_{\text  {T,proj}}^{\text  {miss}}}\xspace  $ (i) in the 4-jet CR in the $\ensuremath  {\tau _\text  {lep}}\xspace  {}\ensuremath  {\tau _\text  {had}}\xspace  \xspace  $ channel. The errors are statistical only. \relax }}{23}{figure.caption.17}}
\newlabel{fig:lh_4j_nos_1}{{14}{23}{The distributions of $p_{\text {T}}^{\text {lep}}$ (a), $p_{\text {T}}^{\text {had}}$ (b), $\met $ (c), $\met $ centrality (d), $x_1^{\text {fit}}$ (e), $x_2^{\text {fit}}$ (f), $m_{\text {miss}}^{\text {fit}}$ (g), $m_{\tau \tau }^{\text {fit}}$ (h) and $\metproj $ (i) in the 4-jet CR in the $\tlhad $ channel. The errors are statistical only. \relax }{figure.caption.17}{}}
\@writefile{lof}{\contentsline {figure}{\numberline {15}{\ignorespaces  The distributions of $\ensuremath  {E_{\text  {T,perp}}^{\text  {miss}}}\xspace  $ (a), $m_{\tau \tau q}$ (b), $m_{\text  {T,lep}}^{\text  {fit}}$ (c), $m_{\text  {T,had}}^{\text  {fit}}$ (d), $m_{\text  {T,lep}}$ (e), $m_{\tau j}$ (f), $m_{lj}$ (g), $m_{bj_1}$ (h), $m(\tau _{\text  {lep}})$ (i), $m_{bjj}$ (j), $N_{\text  {jet30}}$ (k) and $H_{\text  {T}}$ (l) in the 4-jet CR in the $\ensuremath  {\tau _\text  {lep}}\xspace  {}\ensuremath  {\tau _\text  {had}}\xspace  \xspace  $ channel. The errors are statistical only. \relax }}{24}{figure.caption.18}}
\newlabel{fig:lh_4j_nos_2}{{15}{24}{The distributions of $\metperp $ (a), $m_{\tau \tau q}$ (b), $m_{\text {T,lep}}^{\text {fit}}$ (c), $m_{\text {T,had}}^{\text {fit}}$ (d), $m_{\text {T,lep}}$ (e), $m_{\tau j}$ (f), $m_{lj}$ (g), $m_{bj_1}$ (h), $m(\tau _{\text {lep}})$ (i), $m_{bjj}$ (j), $N_{\text {jet30}}$ (k) and $H_{\text {T}}$ (l) in the 4-jet CR in the $\tlhad $ channel. The errors are statistical only. \relax }{figure.caption.18}{}}
\@writefile{lof}{\contentsline {figure}{\numberline {16}{\ignorespaces  The distributions of $p_{\text  {T,1}}^{\text  {had}}$ (a), $p_{\text  {T,2}}^{\text  {had}}$ (b), $\ensuremath  {E_{\text  {T}}^{\text  {miss}}}\xspace  $ (c), $H_{\text  {T}}$ (d), $\ensuremath  {E_{\text  {T}}^{\text  {miss}}}\xspace  $ centrality (e) and $m_{\tau \tau }^{\text  {fit}}$ (f) in the 3-jet FR in the $\ensuremath  {\tau _\text  {had}}\xspace  {}\ensuremath  {\tau _\text  {had}}\xspace  \xspace  $ channel. The errors are statistical only. Some bins have data blinded according to Sec. \ref  {sec:blind}. \relax }}{25}{figure.caption.19}}
\newlabel{fig:hh_3j_os_1}{{16}{25}{The distributions of $p_{\text {T,1}}^{\text {had}}$ (a), $p_{\text {T,2}}^{\text {had}}$ (b), $\met $ (c), $H_{\text {T}}$ (d), $\met $ centrality (e) and $m_{\tau \tau }^{\text {fit}}$ (f) in the 3-jet FR in the $\thadhad $ channel. The errors are statistical only. Some bins have data blinded according to Sec. \ref {sec:blind}. \relax }{figure.caption.19}{}}
\@writefile{lof}{\contentsline {figure}{\numberline {17}{\ignorespaces  The distributions of $x_1^{\text  {fit}}$ (a), $x_2^{\text  {fit}}$ (b), $m_{\text  {miss}}^{\text  {fit}}$ (c), $m_{\text  {T1}}^{\text  {fit}}$ (d), $m_{\text  {T2}}^{\text  {fit}}$ (e), $\ensuremath  {E_{\text  {T,proj}}^{\text  {miss}}}\xspace  $ (f), $\ensuremath  {E_{\text  {T,perp}}^{\text  {miss}}}\xspace  $ (g), $m_{\tau \tau q}$ (h) and $m_{bj_1}$ (i) in the 3-jet FR in the $\ensuremath  {\tau _\text  {had}}\xspace  {}\ensuremath  {\tau _\text  {had}}\xspace  \xspace  $ channel. The errors are statistical only. Some bins have data blinded according to Sec. \ref  {sec:blind}. \relax }}{26}{figure.caption.20}}
\newlabel{fig:hh_3j_os_2}{{17}{26}{The distributions of $x_1^{\text {fit}}$ (a), $x_2^{\text {fit}}$ (b), $m_{\text {miss}}^{\text {fit}}$ (c), $m_{\text {T1}}^{\text {fit}}$ (d), $m_{\text {T2}}^{\text {fit}}$ (e), $\metproj $ (f), $\metperp $ (g), $m_{\tau \tau q}$ (h) and $m_{bj_1}$ (i) in the 3-jet FR in the $\thadhad $ channel. The errors are statistical only. Some bins have data blinded according to Sec. \ref {sec:blind}. \relax }{figure.caption.20}{}}
\@writefile{lof}{\contentsline {figure}{\numberline {18}{\ignorespaces  The distributions of $p_{\text  {T,1}}^{\text  {had}}$ (a), $p_{\text  {T,2}}^{\text  {had}}$ (b), $\ensuremath  {E_{\text  {T}}^{\text  {miss}}}\xspace  $ (c), $H_{\text  {T}}$ (d), $\ensuremath  {E_{\text  {T}}^{\text  {miss}}}\xspace  $ centrality (e) and $m_{\tau \tau }^{\text  {fit}}$ (f) in the 3-jet CR in the $\ensuremath  {\tau _\text  {had}}\xspace  {}\ensuremath  {\tau _\text  {had}}\xspace  \xspace  $ channel. The errors are statistical only. \relax }}{27}{figure.caption.21}}
\newlabel{fig:hh_3j_nos_1}{{18}{27}{The distributions of $p_{\text {T,1}}^{\text {had}}$ (a), $p_{\text {T,2}}^{\text {had}}$ (b), $\met $ (c), $H_{\text {T}}$ (d), $\met $ centrality (e) and $m_{\tau \tau }^{\text {fit}}$ (f) in the 3-jet CR in the $\thadhad $ channel. The errors are statistical only. \relax }{figure.caption.21}{}}
\@writefile{lof}{\contentsline {figure}{\numberline {19}{\ignorespaces  The distributions of $x_1^{\text  {fit}}$ (a), $x_2^{\text  {fit}}$ (b), $m_{\text  {miss}}^{\text  {fit}}$ (c), $m_{\text  {T1}}^{\text  {fit}}$ (d), $m_{\text  {T2}}^{\text  {fit}}$ (e), $\ensuremath  {E_{\text  {T,proj}}^{\text  {miss}}}\xspace  $ (f), $\ensuremath  {E_{\text  {T,perp}}^{\text  {miss}}}\xspace  $ (g), $m_{\tau \tau q}$ (h) and $m_{bj_1}$ (i) in the 3-jet CR in the $\ensuremath  {\tau _\text  {had}}\xspace  {}\ensuremath  {\tau _\text  {had}}\xspace  \xspace  $ channel. The errors are statistical only. \relax }}{28}{figure.caption.22}}
\newlabel{fig:hh_3j_nos_2}{{19}{28}{The distributions of $x_1^{\text {fit}}$ (a), $x_2^{\text {fit}}$ (b), $m_{\text {miss}}^{\text {fit}}$ (c), $m_{\text {T1}}^{\text {fit}}$ (d), $m_{\text {T2}}^{\text {fit}}$ (e), $\metproj $ (f), $\metperp $ (g), $m_{\tau \tau q}$ (h) and $m_{bj_1}$ (i) in the 3-jet CR in the $\thadhad $ channel. The errors are statistical only. \relax }{figure.caption.22}{}}
\@writefile{lof}{\contentsline {figure}{\numberline {20}{\ignorespaces  The distributions of $p_{\text  {T,1}}^{\text  {had}}$ (a), $p_{\text  {T,2}}^{\text  {had}}$ (b), $\ensuremath  {E_{\text  {T}}^{\text  {miss}}}\xspace  $ (c), $H_{\text  {T}}$ (d), $\ensuremath  {E_{\text  {T}}^{\text  {miss}}}\xspace  $ centrality (e), $m_{\tau \tau }^{\text  {fit}}$ (f), $x_1^{\text  {fit}}$ (g), $x_2^{\text  {fit}}$ (h), $m_{\text  {miss}}^{\text  {fit}}$ (i) in the 4-jet FR in the $\ensuremath  {\tau _\text  {had}}\xspace  {}\ensuremath  {\tau _\text  {had}}\xspace  \xspace  $ channel. The errors are statistical only. Some bins have data blinded according to Sec. \ref  {sec:blind}. \relax }}{29}{figure.caption.23}}
\newlabel{fig:hh_4j_os_1}{{20}{29}{The distributions of $p_{\text {T,1}}^{\text {had}}$ (a), $p_{\text {T,2}}^{\text {had}}$ (b), $\met $ (c), $H_{\text {T}}$ (d), $\met $ centrality (e), $m_{\tau \tau }^{\text {fit}}$ (f), $x_1^{\text {fit}}$ (g), $x_2^{\text {fit}}$ (h), $m_{\text {miss}}^{\text {fit}}$ (i) in the 4-jet FR in the $\thadhad $ channel. The errors are statistical only. Some bins have data blinded according to Sec. \ref {sec:blind}. \relax }{figure.caption.23}{}}
\@writefile{lof}{\contentsline {figure}{\numberline {21}{\ignorespaces  The distributions of $m_{\text  {T1}}^{\text  {fit}}$ (a), $m_{\text  {T2}}^{\text  {fit}}$ (b), $\ensuremath  {E_{\text  {T,proj}}^{\text  {miss}}}\xspace  $ (c), $\ensuremath  {E_{\text  {T,perp}}^{\text  {miss}}}\xspace  $ (d), $m_{\tau \tau q}$ (e), $m_{bj_1}$ (f), $m_{j_1 j_2}$ (g), $m_{bjj}$ (h) and $N_{\text  {jet30}}$ (i) in the 4-jet FR in the $\ensuremath  {\tau _\text  {had}}\xspace  {}\ensuremath  {\tau _\text  {had}}\xspace  \xspace  $ channel. The errors are statistical only. Some bins have data blinded according to Sec. \ref  {sec:blind}. \relax }}{30}{figure.caption.24}}
\newlabel{fig:hh_4j_os_2}{{21}{30}{The distributions of $m_{\text {T1}}^{\text {fit}}$ (a), $m_{\text {T2}}^{\text {fit}}$ (b), $\metproj $ (c), $\metperp $ (d), $m_{\tau \tau q}$ (e), $m_{bj_1}$ (f), $m_{j_1 j_2}$ (g), $m_{bjj}$ (h) and $N_{\text {jet30}}$ (i) in the 4-jet FR in the $\thadhad $ channel. The errors are statistical only. Some bins have data blinded according to Sec. \ref {sec:blind}. \relax }{figure.caption.24}{}}
\@writefile{lof}{\contentsline {figure}{\numberline {22}{\ignorespaces  The distributions of $p_{\text  {T,1}}^{\text  {had}}$ (a), $p_{\text  {T,2}}^{\text  {had}}$ (b), $\ensuremath  {E_{\text  {T}}^{\text  {miss}}}\xspace  $ (c), $H_{\text  {T}}$ (d), $\ensuremath  {E_{\text  {T}}^{\text  {miss}}}\xspace  $ centrality (e), $m_{\tau \tau }^{\text  {fit}}$ (f), $x_1^{\text  {fit}}$ (g), $x_2^{\text  {fit}}$ (h), $m_{\text  {miss}}^{\text  {fit}}$ (i) in the 4-jet CR in the $\ensuremath  {\tau _\text  {had}}\xspace  {}\ensuremath  {\tau _\text  {had}}\xspace  \xspace  $ channel. The errors are statistical only. \relax }}{31}{figure.caption.25}}
\newlabel{fig:hh_4j_nos_1}{{22}{31}{The distributions of $p_{\text {T,1}}^{\text {had}}$ (a), $p_{\text {T,2}}^{\text {had}}$ (b), $\met $ (c), $H_{\text {T}}$ (d), $\met $ centrality (e), $m_{\tau \tau }^{\text {fit}}$ (f), $x_1^{\text {fit}}$ (g), $x_2^{\text {fit}}$ (h), $m_{\text {miss}}^{\text {fit}}$ (i) in the 4-jet CR in the $\thadhad $ channel. The errors are statistical only. \relax }{figure.caption.25}{}}
\@writefile{lof}{\contentsline {figure}{\numberline {23}{\ignorespaces  The distributions of $m_{\text  {T1}}^{\text  {fit}}$ (a), $m_{\text  {T2}}^{\text  {fit}}$ (b), $\ensuremath  {E_{\text  {T,proj}}^{\text  {miss}}}\xspace  $ (c), $\ensuremath  {E_{\text  {T,perp}}^{\text  {miss}}}\xspace  $ (d), $m_{\tau \tau q}$ (e), $m_{bj_1}$ (f), $m_{j_1 j_2}$ (g), $m_{bjj}$ (h) and $N_{\text  {jet30}}$ (i) in the 4-jet CR in the $\ensuremath  {\tau _\text  {had}}\xspace  {}\ensuremath  {\tau _\text  {had}}\xspace  \xspace  $ channel. The errors are statistical only. \relax }}{32}{figure.caption.26}}
\newlabel{fig:hh_4j_nos_2}{{23}{32}{The distributions of $m_{\text {T1}}^{\text {fit}}$ (a), $m_{\text {T2}}^{\text {fit}}$ (b), $\metproj $ (c), $\metperp $ (d), $m_{\tau \tau q}$ (e), $m_{bj_1}$ (f), $m_{j_1 j_2}$ (g), $m_{bjj}$ (h) and $N_{\text {jet30}}$ (i) in the 4-jet CR in the $\thadhad $ channel. The errors are statistical only. \relax }{figure.caption.26}{}}
\@writefile{lof}{\contentsline {figure}{\numberline {24}{\ignorespaces  The BDT output (Sec. \ref  {sec:mva}) distributions in the FRs of $\ensuremath  {\tau _\text  {lep}}\xspace  {}\ensuremath  {\tau _\text  {had}}\xspace  \xspace  $ 3-jet (a) and 4-jet (b). All the FCNC $t\to Hq$ samples are normalzied to BR$(t\to Hq)$=1\%. The errors are statistical only. \relax }}{33}{figure.caption.27}}
\newlabel{fig:other_bkg}{{24}{33}{The BDT output (Sec. \ref {sec:mva}) distributions in the FRs of $\tlhad $ 3-jet (a) and 4-jet (b). All the FCNC $t\to Hq$ samples are normalzied to BR$(t\to Hq)$=1\%. The errors are statistical only. \relax }{figure.caption.27}{}}
\@setckpt{include/background}{
\setcounter{page}{34}
\setcounter{equation}{3}
\setcounter{enumi}{0}
\setcounter{enumii}{0}
\setcounter{enumiii}{0}
\setcounter{enumiv}{0}
\setcounter{footnote}{3}
\setcounter{mpfootnote}{0}
\setcounter{part}{0}
\setcounter{section}{5}
\setcounter{subsection}{0}
\setcounter{subsubsection}{0}
\setcounter{paragraph}{0}
\setcounter{subparagraph}{0}
\setcounter{figure}{24}
\setcounter{table}{3}
\setcounter{Item}{0}
\setcounter{Hfootnote}{3}
\setcounter{bookmark@seq@number}{15}
\setcounter{parentequation}{0}
\setcounter{linenumber}{257}
\setcounter{LN@truepage}{33}
\setcounter{ContinuedFloat}{0}
\setcounter{KVtest}{1}
\setcounter{subfigure}{0}
\setcounter{subfigure@save}{0}
\setcounter{lofdepth}{1}
\setcounter{subtable}{0}
\setcounter{subtable@save}{0}
\setcounter{lotdepth}{1}
\setcounter{tabx@nest}{0}
\setcounter{listtotal}{0}
\setcounter{listcount}{0}
\setcounter{liststart}{0}
\setcounter{liststop}{0}
\setcounter{citecount}{0}
\setcounter{citetotal}{0}
\setcounter{multicitecount}{0}
\setcounter{multicitetotal}{0}
\setcounter{instcount}{0}
\setcounter{maxnames}{3}
\setcounter{minnames}{1}
\setcounter{maxitems}{3}
\setcounter{minitems}{1}
\setcounter{citecounter}{0}
\setcounter{savedcitecounter}{0}
\setcounter{uniquelist}{0}
\setcounter{uniquename}{0}
\setcounter{refsection}{0}
\setcounter{refsegment}{0}
\setcounter{maxextratitle}{0}
\setcounter{maxextratitleyear}{0}
\setcounter{maxextrayear}{0}
\setcounter{maxextraalpha}{0}
\setcounter{abbrvpenalty}{50}
\setcounter{highnamepenalty}{50}
\setcounter{lownamepenalty}{25}
\setcounter{maxparens}{3}
\setcounter{parenlevel}{0}
\setcounter{mincomprange}{10}
\setcounter{maxcomprange}{100000}
\setcounter{mincompwidth}{1}
\setcounter{afterword}{0}
\setcounter{savedafterword}{0}
\setcounter{annotator}{0}
\setcounter{savedannotator}{0}
\setcounter{author}{0}
\setcounter{savedauthor}{0}
\setcounter{bookauthor}{0}
\setcounter{savedbookauthor}{0}
\setcounter{commentator}{0}
\setcounter{savedcommentator}{0}
\setcounter{editor}{0}
\setcounter{savededitor}{0}
\setcounter{editora}{0}
\setcounter{savededitora}{0}
\setcounter{editorb}{0}
\setcounter{savededitorb}{0}
\setcounter{editorc}{0}
\setcounter{savededitorc}{0}
\setcounter{foreword}{0}
\setcounter{savedforeword}{0}
\setcounter{holder}{0}
\setcounter{savedholder}{0}
\setcounter{introduction}{0}
\setcounter{savedintroduction}{0}
\setcounter{namea}{0}
\setcounter{savednamea}{0}
\setcounter{nameb}{0}
\setcounter{savednameb}{0}
\setcounter{namec}{0}
\setcounter{savednamec}{0}
\setcounter{translator}{0}
\setcounter{savedtranslator}{0}
\setcounter{shortauthor}{0}
\setcounter{savedshortauthor}{0}
\setcounter{shorteditor}{0}
\setcounter{savedshorteditor}{0}
\setcounter{labelname}{0}
\setcounter{savedlabelname}{0}
\setcounter{institution}{0}
\setcounter{savedinstitution}{0}
\setcounter{lista}{0}
\setcounter{savedlista}{0}
\setcounter{listb}{0}
\setcounter{savedlistb}{0}
\setcounter{listc}{0}
\setcounter{savedlistc}{0}
\setcounter{listd}{0}
\setcounter{savedlistd}{0}
\setcounter{liste}{0}
\setcounter{savedliste}{0}
\setcounter{listf}{0}
\setcounter{savedlistf}{0}
\setcounter{location}{0}
\setcounter{savedlocation}{0}
\setcounter{organization}{0}
\setcounter{savedorganization}{0}
\setcounter{origlocation}{0}
\setcounter{savedoriglocation}{0}
\setcounter{origpublisher}{0}
\setcounter{savedorigpublisher}{0}
\setcounter{publisher}{0}
\setcounter{savedpublisher}{0}
\setcounter{language}{0}
\setcounter{savedlanguage}{0}
\setcounter{pageref}{0}
\setcounter{savedpageref}{0}
\setcounter{textcitecount}{0}
\setcounter{textcitetotal}{0}
\setcounter{textcitemaxnames}{0}
\setcounter{biburlnumpenalty}{0}
\setcounter{biburlucpenalty}{0}
\setcounter{biburllcpenalty}{0}
\setcounter{smartand}{1}
\setcounter{bbx:relatedcount}{0}
\setcounter{bbx:relatedtotal}{0}
\setcounter{cbx@tempcnta}{0}
\setcounter{cbx@tempcntb}{0}
\setcounter{r@tfl@t}{0}
\setcounter{section@level}{0}
}
